3
Coordinates from ORCA-job orca
  Se  0.00000000000000     -0.00000008825060      0.46350044150389
  O   0.00000000000000      1.36245155324645     -0.41333424771203
  O   0.00000000000000     -1.36245146499584     -0.41333419379186
