14
Coordinates from ORCA-job inp E -399.460192588195
  C      -0.082735     -0.070642      0.352380
  C       0.782473      1.021935      0.417554
  C       0.421197     -1.376237      0.406103
  C       2.173885      0.813079      0.538038
  C       2.676680     -0.505698      0.592333
  C       1.800258     -1.588890      0.526010
  H       0.397050      2.034356      0.376356
  C       3.065623      1.920910      0.603643
  H      -1.150542      0.096505      0.259821
  H      -0.255928     -2.222203      0.354837
  H       3.745041     -0.664438      0.685138
  H       2.193632     -2.598933      0.567751
  N       3.814846      2.824037      0.649439
  O       4.614819      3.784519      0.696598
14
Coordinates from ORCA-job inp E -399.463135129531
  C      -0.077390     -0.066297      0.353191
  C       0.788446      1.024461      0.416300
  C       0.422714     -1.372665      0.407727
  C       2.179893      0.813557      0.535708
  C       2.680076     -0.506305      0.590799
  C       1.801081     -1.586380      0.526481
  H       0.403928      2.046264      0.374403
  C       3.070699      1.920762      0.600174
  H      -1.153497      0.105430      0.260656
  H      -0.261622     -2.224067      0.357707
  H       3.756815     -0.666780      0.683590
  H       2.196383     -2.605177      0.569394
  N       3.818362      2.827579      0.647959
  O       4.570412      3.757918      0.701913
14
Coordinates from ORCA-job inp E -399.463180019265
  C      -0.078536     -0.067764      0.353069
  C       0.786100      1.023943      0.416011
  C       0.422954     -1.373582      0.407738
  C       2.177720      0.814569      0.535469
  C       2.679430     -0.504656      0.590584
  C       1.801570     -1.585665      0.526462
  H       0.400581      2.045484      0.373965
  C       3.066978      1.923166      0.599877
  H      -1.154914      0.102933      0.260475
  H      -0.260496     -2.225824      0.357826
  H       3.756473     -0.663882      0.683303
  H       2.198094     -2.604099      0.569481
  N       3.814597      2.829758      0.651199
  O       4.585750      3.753921      0.700542
14
Coordinates from ORCA-job inp E -399.463181586310
  C      -0.076414     -0.065474      0.353642
  C       0.791203      1.023946      0.414843
  C       0.421595     -1.372601      0.409083
  C       2.182391      0.810950      0.533432
  C       2.680572     -0.509535      0.589121
  C       1.799739     -1.588252      0.526740
  H       0.408430      2.046464      0.372221
  C       3.074316      1.917494      0.596501
  H      -1.152374      0.108085      0.261850
  H      -0.264183     -2.223010      0.360603
  H       3.757232     -0.671570      0.681030
  H       2.193548     -2.607681      0.570331
  N       3.815808      2.828999      0.649792
  O       4.564436      3.770485      0.706810
14
Coordinates from ORCA-job inp E -399.463189328481
  C      -0.076869     -0.066055      0.353406
  C       0.789936      1.023964      0.415529
  C       0.422057     -1.372851      0.408403
  C       2.181227      0.811922      0.534645
  C       2.680323     -0.508244      0.589885
  C       1.800302     -1.587565      0.526580
  H       0.406435      2.046220      0.373237
  C       3.072418      1.919012      0.598339
  H      -1.152911      0.106769      0.261208
  H      -0.263079     -2.223732      0.359149
  H       3.757056     -0.669538      0.682185
  H       2.194833     -2.606727      0.569825
  N       3.813331      2.831091      0.650140
  O       4.571240      3.764034      0.703468
14
Coordinates from ORCA-job inp E -399.463189803733
  C      -0.076034     -0.065265      0.353419
  C       0.791772      1.023928      0.415846
  C       0.421666     -1.372546      0.408211
  C       2.182879      0.810537      0.535072
  C       2.680713     -0.510082      0.590102
  C       1.799690     -1.588577      0.526492
  H       0.409222      2.046555      0.373713
  C       3.075018      1.916840      0.599043
  H      -1.151909      0.108592      0.261133
  H      -0.264274     -2.222772      0.358711
  H       3.757290     -0.672394      0.682485
  H       2.193253     -2.608124      0.569571
  N       3.810994      2.832927      0.650209
  O       4.566021      3.768681      0.701992
14
Coordinates from ORCA-job inp E -399.463164622969
  C      -0.056698     -0.046990      0.354396
  C       0.832705      1.024153      0.420816
  C       0.414335     -1.364417      0.406047
  C       2.219646      0.781746      0.541086
  C       2.690044     -0.548338      0.592867
  C       1.787387     -1.608776      0.525232
  H       0.470818      2.054513      0.381136
  C       3.132346      1.870808      0.608724
  H      -1.128766      0.149124      0.261286
  H      -0.288918     -2.200286      0.353297
  H       3.763047     -0.732542      0.686022
  H       2.159934     -2.636333      0.565746
  N       3.755557      2.867339      0.647769
  O       4.444865      3.858299      0.681577
14
Coordinates from ORCA-job inp E -399.463193952975
  C      -0.068117     -0.057745      0.353688
  C       0.808931      1.023810      0.418276
  C       0.418225     -1.369435      0.406947
  C       2.198259      0.798006      0.538205
  C       2.684410     -0.526719      0.591634
  C       1.794170     -1.597581      0.525866
  H       0.435188      2.049787      0.377341
  C       3.099615      1.896935      0.604187
  H      -1.142403      0.125602      0.260834
  H      -0.275108     -2.213576      0.355718
  H       3.759496     -0.698386      0.684573
  H       2.178807     -2.620588      0.567726
  N       3.790022      2.848395      0.648944
  O       4.514804      3.809795      0.692062
14
Coordinates from ORCA-job inp E -399.463197883462
  C      -0.063870     -0.053710      0.353930
  C       0.817883      1.023921      0.419403
  C       0.416642     -1.367619      0.406489
  C       2.206278      0.791778      0.539506
  C       2.686420     -0.535012      0.592266
  C       1.791492     -1.601949      0.525611
  H       0.448647      2.051563      0.379014
  C       3.112445      1.886787      0.606282
  H      -1.137316      0.134471      0.260902
  H      -0.280457     -2.208614      0.354545
  H       3.760715     -0.711437      0.685393
  H       2.171557     -2.626678      0.566926
  N       3.778314      2.855822      0.647250
  O       4.487550      3.828975      0.688483
14
Coordinates from ORCA-job inp E -399.463009732051
  C      -0.018234     -0.010218      0.357359
  C       0.907463      1.029389      0.426265
  C       0.406557     -1.343710      0.405915
  C       2.285760      0.737622      0.545573
  C       2.708554     -0.607216      0.594682
  C       1.769918     -1.636115      0.524545
  H       0.581254      2.071709      0.389055
  C       3.237782      1.794194      0.615964
  H      -1.082826      0.223362      0.264603
  H      -0.325622     -2.154164      0.351183
  H       3.774478     -0.828349      0.687743
  H       2.106379     -2.676023      0.562781
  N       3.650801      2.896846      0.632916
  O       4.194035      3.970974      0.667414
14
Coordinates from ORCA-job inp E -399.463206107016
  C      -0.057743     -0.047937      0.354578
  C       0.830623      1.024156      0.420893
  C       0.414581     -1.364909      0.406188
  C       2.217646      0.783174      0.540708
  C       2.689342     -0.546405      0.592800
  C       1.787874     -1.607863      0.525285
  H       0.467710      2.054077      0.381265
  C       3.130937      1.872861      0.608199
  H      -1.129986      0.147008      0.261630
  H      -0.287775     -2.201447      0.353535
  H       3.762501     -0.729483      0.685933
  H       2.161535     -2.634943      0.565910
  N       3.761914      2.865788      0.642197
  O       4.447140      3.854222      0.686879
14
Coordinates from ORCA-job inp E -399.463208349936
  C      -0.055092     -0.045356      0.354763
  C       0.836180      1.024341      0.420738
  C       0.413657     -1.363613      0.406448
  C       2.222609      0.779541      0.540352
  C       2.690639     -0.551243      0.592421
  C       1.786294     -1.610287      0.525235
  H       0.476046      2.055241      0.381071
  C       3.138937      1.866759      0.608081
  H      -1.126824      0.152505      0.262047
  H      -0.290988     -2.198237      0.354103
  H       3.763312     -0.737208      0.685341
  H       2.157168     -2.638375      0.565912
  N       3.756024      2.868493      0.644944
  O       4.428338      3.865739      0.684545
14
Coordinates from ORCA-job inp E -399.463210186170
  C      -0.053289     -0.043619      0.355083
  C       0.840019      1.024477      0.419693
  C       0.412995     -1.362728      0.407502
  C       2.226053      0.777089      0.538754
  C       2.691565     -0.554474      0.591339
  C       1.785228     -1.611907      0.525540
  H       0.481769      2.056015      0.379480
  C       3.144828      1.862520      0.605611
  H      -1.124707      0.156179      0.262901
  H      -0.293256     -2.196052      0.356318
  H       3.763942     -0.742344      0.683752
  H       2.154203     -2.640651      0.566803
  N       3.751098      2.871041      0.643946
  O       4.415850      3.872753      0.689278
14
Coordinates from ORCA-job inp E -399.463211157420
  C      -0.050529     -0.040994      0.355435
  C       0.845770      1.024652      0.418985
  C       0.412090     -1.361388      0.408341
  C       2.231178      0.773390      0.537644
  C       2.692949     -0.559332      0.590484
  C       1.783665     -1.614338      0.525748
  H       0.490339      2.057162      0.378399
  C       3.153255      1.856469      0.603686
  H      -1.121435      0.161750      0.263714
  H      -0.296527     -2.192749      0.358001
  H       3.764849     -0.750095      0.682429
  H       2.149789     -2.644084      0.567382
  N       3.743325      2.874866      0.644236
  O       4.397583      3.882991      0.691516
14
Coordinates from ORCA-job inp E -399.463155189786
  C      -0.026149     -0.017793      0.357696
  C       0.894028      1.027315      0.419169
  C       0.406467     -1.348467      0.410693
  C       2.273673      0.744250      0.536935
  C       2.704814     -0.597676      0.588454
  C       1.771963     -1.632373      0.525852
  H       0.561772      2.067606      0.378513
  C       3.221459      1.808199      0.601914
  H      -1.092346      0.209225      0.267500
  H      -0.321049     -2.163421      0.361973
  H       3.772305     -0.812323      0.678759
  H       2.114660     -2.670136      0.567516
  N       3.675866      2.896962      0.642577
  O       4.238836      3.956933      0.688449
14
Coordinates from ORCA-job inp E -399.463211615157
  C      -0.048765     -0.039348      0.355625
  C       0.849435      1.024711      0.418552
  C       0.411531     -1.360558      0.408832
  C       2.234435      0.771009      0.536958
  C       2.693838     -0.562432      0.590038
  C       1.782674     -1.615889      0.525931
  H       0.495808      2.057840      0.377701
  C       3.158449      1.852808      0.602280
  H      -1.119339      0.165281      0.264123
  H      -0.298592     -2.190664      0.358938
  H       3.765434     -0.755050      0.681703
  H       2.146972     -2.646274      0.567786
  N       3.738569      2.877140      0.644972
  O       4.385851      3.889726      0.692561
14
Coordinates from ORCA-job inp E -399.463211770592
  C      -0.048181     -0.038794      0.355640
  C       0.850586      1.024758      0.418930
  C       0.411392     -1.360270      0.408601
  C       2.235443      0.770268      0.537460
  C       2.694103     -0.563414      0.590301
  C       1.782375     -1.616371      0.525836
  H       0.497525      2.058090      0.378270
  C       3.160018      1.851616      0.602989
  H      -1.118631      0.166443      0.264040
  H      -0.299178     -2.189975      0.358405
  H       3.765582     -0.756634      0.682066
  H       2.146102     -2.646964      0.567505
  N       3.737028      2.877789      0.644664
  O       4.382136      3.891759      0.691293
