14
Coordinates from ORCA-job mol E -399.201070568560
  C      -0.112800     -0.112400      0.350900
  C       0.757500      0.974800      0.423000
  C       0.392100     -1.413200      0.400500
  C       2.131100      0.763000      0.543500
  C       2.634300     -0.538100      0.596000
  C       1.765000     -1.625300      0.524000
  H       0.372700      1.991000      0.382500
  C       3.027100      1.872600      0.604100
  H      -1.179800      0.057000      0.254100
  H      -0.283600     -2.259100      0.341800
  H       3.705300     -0.694300      0.689800
  H       2.162900     -2.634600      0.562300
  N       3.956800      2.997700      0.654600
  O       4.867700      4.089200      0.698900
14
Coordinates from ORCA-job mol E -399.281521825312
  C      -0.099441     -0.091221      0.351732
  C       0.768236      0.998290      0.423084
  C       0.407138     -1.394331      0.401772
  C       2.149939      0.785437      0.544084
  C       2.655548     -0.523295      0.597065
  C       1.783090     -1.608382      0.525276
  H       0.382752      2.012636      0.382474
  C       3.044212      1.893594      0.604577
  H      -1.166480      0.076900      0.255239
  H      -0.268989     -2.240247      0.343530
  H       3.725212     -0.680900      0.690688
  H       2.179106     -2.617867      0.563700
  N       3.879369      2.903499      0.649955
  O       4.756606      3.954188      0.692824
14
Coordinates from ORCA-job mol E -399.320634676448
  C      -0.084379     -0.071392      0.352729
  C       0.782012      1.019679      0.423417
  C       0.422160     -1.375556      0.403071
  C       2.168253      0.807330      0.544588
  C       2.673938     -0.505873      0.597834
  C       1.799507     -1.590016      0.526403
  H       0.396302      2.033053      0.382715
  C       3.061453      1.914469      0.604976
  H      -1.151580      0.095955      0.256545
  H      -0.254270     -2.221480      0.345329
  H       3.742919     -0.664198      0.691317
  H       2.194261     -2.599752      0.565018
  N       3.804240      2.811839      0.645387
  O       4.641482      3.814241      0.686674
14
Coordinates from ORCA-job mol E -399.323429112734
  C      -0.083079     -0.069280      0.352267
  C       0.782570      1.023211      0.419066
  C       0.422729     -1.374474      0.404908
  C       2.172682      0.811817      0.539521
  C       2.677833     -0.505233      0.593928
  C       1.801487     -1.588769      0.526046
  H       0.396639      2.035360      0.378960
  C       3.065368      1.919429      0.604161
  H      -1.150675      0.097544      0.259255
  H      -0.254367     -2.220483      0.351683
  H       3.745939     -0.664243      0.687832
  H       2.194924     -2.598584      0.567434
  N       3.813131      2.822772      0.648556
  O       4.611120      3.779235      0.692383
14
Coordinates from ORCA-job mol E -399.323458546691
  C      -0.083171     -0.070413      0.352243
  C       0.782353      1.022215      0.417994
  C       0.421638     -1.375726      0.405620
  C       2.173092      0.812130      0.538499
  C       2.676979     -0.505813      0.592818
  C       1.800458     -1.589239      0.525943
  H       0.396565      2.034462      0.377380
  C       3.065502      1.919974      0.604026
  H      -1.150940      0.096498      0.259665
  H      -0.255544     -2.221708      0.353633
  H       3.745177     -0.664808      0.686206
  H       2.193791     -2.599240      0.567687
  N       3.814470      2.824328      0.649380
  O       4.615928      3.785640      0.694906
14
Coordinates from ORCA-job mol E -399.323463549860
  C      -0.082879     -0.070484      0.352314
  C       0.782494      1.022141      0.417773
  C       0.421448     -1.375930      0.405886
  C       2.173591      0.812688      0.538307
  C       2.676886     -0.505717      0.592574
  C       1.800370     -1.589020      0.525976
  H       0.396868      2.034468      0.376821
  C       3.065713      1.920536      0.603913
  H      -1.150675      0.096530      0.259727
  H      -0.255724     -2.221891      0.354268
  H       3.745163     -0.664630      0.685628
  H       2.193694     -2.599064      0.567694
  N       3.814409      2.824009      0.649458
  O       4.614943      3.784664      0.695661
14
Coordinates from ORCA-job mol E -399.323465081449
  C      -0.082735     -0.070642      0.352380
  C       0.782473      1.021935      0.417554
  C       0.421197     -1.376237      0.406103
  C       2.173885      0.813079      0.538038
  C       2.676680     -0.505698      0.592333
  C       1.800258     -1.588890      0.526010
  H       0.397050      2.034356      0.376356
  C       3.065623      1.920910      0.603643
  H      -1.150542      0.096505      0.259821
  H      -0.255928     -2.222203      0.354837
  H       3.745041     -0.664438      0.685138
  H       2.193632     -2.598933      0.567751
  N       3.814846      2.824037      0.649439
  O       4.614819      3.784519      0.696598
