17
Coordinates from ORCA-job orca_irc_IRC_Full E -948.705405096606
  C       0.036472      0.168234      0.327712
  C       0.981235      1.129989     -0.015171
  C       0.430660     -1.136679      0.596211
  C       2.326852      0.776420     -0.078251
  C       2.718227     -0.541159      0.151867
  C       1.769608     -1.495389      0.487676
  H       0.671007      2.149483     -0.214580
  C       3.386882      1.793039     -0.273562
  H      -1.009731      0.442875      0.405247
  H      -0.304815     -1.876283      0.895180
  H       3.764892     -0.812359      0.071051
  H       2.079031     -2.515548      0.683597
  N       3.732101      2.337676     -1.368741
  O       4.784847      3.247221     -1.078778
  O       4.083874      2.157817      0.844717
  S       5.458824      2.985980      0.396546
  O       6.511787      2.015892      0.282784
17
Coordinates from ORCA-job orca_irc_IRC_Full E -948.705338402904
  C       0.035704      0.167311      0.327998
  C       0.980145      1.129284     -0.016104
  C       0.430094     -1.137418      0.597185
  C       2.326263      0.777219     -0.079810
  C       2.717210     -0.540840      0.149910
  C       1.768999     -1.495244      0.487435
  H       0.667850      2.148114     -0.216005
  C       3.387333      1.794220     -0.273980
  H      -1.010477      0.441480      0.407143
  H      -0.304885     -1.877059      0.897635
  H       3.763373     -0.813232      0.067775
  H       2.078807     -2.514985      0.684909
  N       3.734426      2.339102     -1.369126
  O       4.788108      3.247179     -1.078484
  O       4.084393      2.158801      0.844485
  S       5.460495      2.986336      0.397688
  O       6.514114      2.016902      0.284607
17
Coordinates from ORCA-job orca_irc_IRC_Full E -948.705263734378
  C       0.034968      0.166208      0.328245
  C       0.978899      1.128555     -0.017049
  C       0.429359     -1.138208      0.598065
  C       2.325827      0.777956     -0.081332
  C       2.716070     -0.540611      0.147999
  C       1.768366     -1.495136      0.487154
  H       0.664765      2.146590     -0.217373
  C       3.387967      1.795865     -0.274801
  H      -1.011265      0.439999      0.409119
  H      -0.305128     -1.877976      0.899954
  H       3.761809     -0.814238      0.064666
  H       2.078371     -2.514486      0.686372
  N       3.736691      2.340503     -1.369063
  O       4.791554      3.247306     -1.078187
  O       4.084950      2.160109      0.844340
  S       5.462348      2.986786      0.398757
  O       6.516574      2.017911      0.286169
17
Coordinates from ORCA-job orca_irc_IRC_Full E -948.705183172538
  C       0.034185      0.165122      0.328446
  C       0.977834      1.127701     -0.017951
  C       0.428625     -1.139127      0.598859
  C       2.325383      0.778764     -0.082805
  C       2.715030     -0.540409      0.146186
  C       1.767627     -1.495096      0.486878
  H       0.661893      2.145099     -0.218641
  C       3.388357      1.797305     -0.275020
  H      -1.011998      0.438512      0.411056
  H      -0.305497     -1.878939      0.902049
  H       3.760265     -0.815286      0.061851
  H       2.077781     -2.514069      0.687880
  N       3.739096      2.342238     -1.369428
  O       4.794912      3.247506     -1.077918
  O       4.085511      2.161628      0.844189
  S       5.464267      2.987268      0.399768
  O       6.518999      2.018882      0.287440
17
Coordinates from ORCA-job orca_irc_IRC_Full E -948.705091728948
  C       0.033438      0.163854      0.328598
  C       0.976679      1.126767     -0.018891
  C       0.427734     -1.140120      0.599649
  C       2.324979      0.779490     -0.084199
  C       2.713886     -0.540251      0.144367
  C       1.766850     -1.495122      0.486524
  H       0.659173      2.143477     -0.219853
  C       3.388877      1.799471     -0.275717
  H      -1.012708      0.436936      0.413073
  H      -0.306063     -1.880039      0.904028
  H       3.758709     -0.816444      0.059192
  H       2.076955     -2.513726      0.689548
  N       3.741400      2.343802     -1.369285
  O       4.798616      3.247891     -1.077479
  O       4.085918      2.163289      0.844092
  S       5.466435      2.987904      0.400538
  O       6.521518      2.019888      0.288468
17
Coordinates from ORCA-job orca_irc_IRC_Full E -948.704996600399
  C       0.032741      0.162711      0.328683
  C       0.975746      1.125814     -0.019765
  C       0.426910     -1.141101      0.600400
  C       2.324652      0.780322     -0.085418
  C       2.712920     -0.540160      0.142708
  C       1.766041     -1.495196      0.486162
  H       0.656836      2.141975     -0.220903
  C       3.388876      1.801213     -0.275450
  H      -1.013289      0.435460      0.414923
  H      -0.306700     -1.881115      0.905726
  H       3.757290     -0.817528      0.056913
  H       2.076088     -2.513482      0.691138
  N       3.743737      2.345611     -1.369940
  O       4.802200      3.248257     -1.076796
  O       4.086050      2.164733      0.843944
  S       5.468582      2.988744      0.400944
  O       6.523813      2.020780      0.289231
17
Coordinates from ORCA-job orca_irc_IRC_Full E -948.704918765787
  C       0.032278      0.161930      0.328701
  C       0.975192      1.125093     -0.020398
  C       0.426303     -1.141812      0.600957
  C       2.324376      0.780897     -0.086181
  C       2.712259     -0.540089      0.141535
  C       1.765449     -1.495272      0.485873
  H       0.655279      2.140909     -0.221604
  C       3.388780      1.802559     -0.275087
  H      -1.013668      0.434405      0.416223
  H      -0.307213     -1.881916      0.906859
  H       3.756312     -0.818305      0.055397
  H       2.075422     -2.513358      0.692290
  N       3.745378      2.346916     -1.370566
  O       4.804879      3.248506     -1.076047
  O       4.085919      2.165620      0.843822
  S       5.470236      2.989518      0.400949
  O       6.525374      2.021415      0.289677
17
Coordinates from ORCA-job orca_irc_IRC_Full E -948.704796754859
  C       0.031841      0.160992      0.328588
  C       0.974604      1.124139     -0.021362
  C       0.425381     -1.142679      0.601797
  C       2.323788      0.781380     -0.086803
  C       2.711347     -0.539992      0.139883
  C       1.764756     -1.495358      0.485354
  H       0.653334      2.139316     -0.222457
  C       3.388843      1.805287     -0.275182
  H      -1.014171      0.432928      0.418011
  H      -0.308116     -1.883201      0.908332
  H       3.754982     -0.819377      0.053490
  H       2.074428     -2.513319      0.693938
  N       3.747310      2.348398     -1.371186
  O       4.809043      3.248638     -1.073967
  O       4.085012      2.166281      0.843808
  S       5.472960      2.991230      0.399894
  O       6.527283      2.022327      0.290133
17
Coordinates from ORCA-job orca_irc_IRC_Full E -948.704659984692
  C       0.031820      0.160677      0.328363
  C       0.974727      1.123406     -0.022081
  C       0.424703     -1.143280      0.602438
  C       2.322742      0.781294     -0.086884
  C       2.710820     -0.539751      0.138699
  C       1.764429     -1.495235      0.484895
  H       0.652090      2.138204     -0.222966
  C       3.388759      1.807048     -0.274213
  H      -1.014595      0.431921      0.419218
  H      -0.308860     -1.884207      0.909287
  H       3.754060     -0.820106      0.052323
  H       2.073752     -2.513461      0.695088
  N       3.748915      2.350013     -1.372923
  O       4.811949      3.248280     -1.071693
  O       4.083928      2.166341      0.843888
  S       5.475052      2.992866      0.398399
  O       6.528369      2.022960      0.290351
17
Coordinates from ORCA-job orca_irc_IRC_Full E -948.703636933418
  C       0.022423      0.155831      0.333271
  C       0.966543      1.116956     -0.028531
  C       0.420141     -1.147715      0.607271
  C       2.321365      0.777985     -0.104426
  C       2.704004     -0.546376      0.128244
  C       1.759728     -1.501721      0.489200
  H       0.644890      2.133405     -0.225971
  C       3.396611      1.812996     -0.277802
  H      -1.026343      0.426894      0.427460
  H      -0.312097     -1.889477      0.912185
  H       3.749412     -0.821292      0.046029
  H       2.071029     -2.520026      0.703244
  N       3.757240      2.367680     -1.364080
  O       4.825454      3.250330     -1.083944
  O       4.091030      2.195938      0.845226
  S       5.485478      2.988317      0.415992
  O       6.546299      2.027191      0.288415
17
Coordinates from ORCA-job orca_irc_IRC_Full E -948.700526391833
  C       0.017671      0.154065      0.336273
  C       0.959639      1.114391     -0.029639
  C       0.419070     -1.148878      0.608593
  C       2.314879      0.771314     -0.115882
  C       2.701526     -0.551164      0.125387
  C       1.758340     -1.504567      0.491992
  H       0.642787      2.132245     -0.227205
  C       3.389072      1.804702     -0.293062
  H      -1.030494      0.425551      0.429966
  H      -0.312636     -1.890653      0.912637
  H       3.748339     -0.821124      0.043849
  H       2.070448     -2.522150      0.705692
  N       3.766152      2.382002     -1.367055
  O       4.818327      3.249530     -1.105399
  O       4.112837      2.220978      0.866759
  S       5.492261      2.983347      0.442375
  O       6.555368      2.027353      0.286393
17
Coordinates from ORCA-job orca_irc_IRC_Full E -948.693409318334
  C       0.014988      0.153465      0.338089
  C       0.954715      1.112735     -0.029653
  C       0.418611     -1.149391      0.609229
  C       2.306504      0.763421     -0.123068
  C       2.699996     -0.554430      0.124143
  C       1.758083     -1.505914      0.493699
  H       0.641669      2.131711     -0.227964
  C       3.376365      1.798021     -0.329895
  H      -1.032672      0.424901      0.431239
  H      -0.312829     -1.891184      0.912827
  H       3.747970     -0.820985      0.042612
  H       2.070219     -2.523185      0.706918
  N       3.769523      2.387098     -1.362863
  O       4.810621      3.249545     -1.124687
  O       4.140450      2.244037      0.900346
  S       5.498318      2.980381      0.465834
  O       6.561410      2.026730      0.284839
17
Coordinates from ORCA-job orca_irc_IRC_Full E -948.683339660739
  C       0.012873      0.152925      0.339577
  C       0.950680      1.111769     -0.029466
  C       0.418354     -1.149647      0.609637
  C       2.301148      0.758829     -0.129137
  C       2.699356     -0.557026      0.123261
  C       1.757812     -1.506976      0.495067
  H       0.640875      2.131236     -0.228544
  C       3.350200      1.779196     -0.362434
  H      -1.034164      0.424466      0.432121
  H      -0.312973     -1.891577      0.912995
  H       3.747629     -0.820848      0.041714
  H       2.070105     -2.523826      0.707747
  N       3.778482      2.397541     -1.365572
  O       4.802488      3.249746     -1.143861
  O       4.170796      2.266523      0.937273
  S       5.504735      2.978508      0.487493
  O       6.565939      2.026079      0.283792
17
Coordinates from ORCA-job orca_irc_IRC_Full E -948.673099053390
  C       0.011019      0.152573      0.340872
  C       0.946947      1.110847     -0.029232
  C       0.418116     -1.149870      0.610015
  C       2.295501      0.753930     -0.134349
  C       2.698688     -0.559390      0.122518
  C       1.757726     -1.507830      0.496234
  H       0.640162      2.130786     -0.229048
  C       3.325222      1.763347     -0.400915
  H      -1.035407      0.424086      0.432880
  H      -0.313128     -1.891960      0.913204
  H       3.747341     -0.820740      0.040931
  H       2.070025     -2.524327      0.708439
  N       3.785583      2.404448     -1.362078
  O       4.794915      3.250783     -1.163433
  O       4.201662      2.288385      0.973825
  S       5.510469      2.976076      0.508786
  O       6.569946      2.025681      0.283048
17
Coordinates from ORCA-job orca_irc_IRC_Full E -948.664853426243
  C       0.009628      0.152292      0.341963
  C       0.944168      1.109889     -0.029184
  C       0.417775     -1.150135      0.610499
  C       2.290162      0.749497     -0.138976
  C       2.698071     -0.561133      0.121631
  C       1.757701     -1.508392      0.497169
  H       0.639386      2.130278     -0.229457
  C       3.299031      1.747907     -0.443702
  H      -1.036991      0.423773      0.433640
  H      -0.313459     -1.892548      0.913598
  H       3.746872     -0.820672      0.040261
  H       2.070031     -2.525055      0.709120
  N       3.792751      2.409609     -1.352084
  O       4.787242      3.252945     -1.185879
  O       4.227560      2.306829      1.011459
  S       5.520569      2.977439      0.529252
  O       6.574845      2.024115      0.282419
17
Coordinates from ORCA-job orca_irc_IRC_Full E -948.659832298779
  C       0.007545      0.151365      0.343479
  C       0.939386      1.108322     -0.029874
  C       0.417411     -1.150832      0.611812
  C       2.284645      0.745165     -0.144082
  C       2.696756     -0.563909      0.119845
  C       1.757473     -1.509274      0.498388
  H       0.639005      2.130210     -0.229654
  C       3.276730      1.736074     -0.484013
  H      -1.037562      0.423676      0.434091
  H      -0.313616     -1.892835      0.913941
  H       3.746740     -0.820585      0.039987
  H       2.070071     -2.525207      0.709480
  N       3.797257      2.412532     -1.343465
  O       4.778667      3.254708     -1.210214
  O       4.259759      2.328430      1.042741
  S       5.527776      2.974559      0.558289
  O       6.577875      2.023806      0.280925
17
Coordinates from ORCA-job orca_irc_IRC_Full E -948.657455926465
  C       0.001819      0.147820      0.348652
  C       0.929448      1.103411     -0.033272
  C       0.415514     -1.153415      0.615692
  C       2.271210      0.736041     -0.158984
  C       2.692527     -0.567617      0.114690
  C       1.756040     -1.511015      0.502123
  H       0.629132      2.123920     -0.239091
  C       3.237149      1.714297     -0.553814
  H      -1.043308      0.418128      0.443543
  H      -0.313917     -1.896439      0.919031
  H       3.742409     -0.821377      0.027878
  H       2.069432     -2.525918      0.716704
  N       3.804243      2.416154     -1.326187
  O       4.764773      3.259501     -1.252696
  O       4.294643      2.354114      1.086629
  S       5.541534      2.976515      0.581480
  O       6.581749      2.022881      0.278319
17
Coordinates from ORCA-job orca_irc_IRC_Full E -948.658986198573
  C      -0.003907      0.144275      0.353825
  C       0.919510      1.098500     -0.036670
  C       0.413618     -1.155998      0.619572
  C       2.257775      0.726918     -0.173885
  C       2.688298     -0.571324      0.109535
  C       1.754607     -1.512756      0.505859
  H       0.619260      2.117629     -0.248528
  C       3.197568      1.692520     -0.623615
  H      -1.049054      0.412580      0.452996
  H      -0.314217     -1.900043      0.924121
  H       3.738078     -0.822169      0.015770
  H       2.068793     -2.526629      0.723927
  N       3.811229      2.419775     -1.308909
  O       4.750880      3.264294     -1.295179
  O       4.329527      2.379799      1.130516
  S       5.555293      2.978472      0.604670
  O       6.585623      2.021955      0.275714
17
Coordinates from ORCA-job orca_irc_IRC_Full E -948.659240974468
  C      -0.004357      0.143852      0.354339
  C       0.918831      1.098026     -0.037059
  C       0.413420     -1.156256      0.619904
  C       2.256668      0.726200     -0.175333
  C       2.687914     -0.571424      0.109066
  C       1.754370     -1.512892      0.506202
  H       0.619169      2.117571     -0.248607
  C       3.195985      1.691713     -0.627358
  H      -1.049165      0.412550      0.453099
  H      -0.314252     -1.900113      0.924168
  H       3.738019     -0.822170      0.015675
  H       2.068804     -2.526650      0.724013
  N       3.811745      2.420096     -1.307522
  O       4.749419      3.264751     -1.299294
  O       4.330970      2.381259      1.134343
  S       5.559482      2.979501      0.608550
  O       6.585939      2.021841      0.275646
17
Coordinates from ORCA-job orca_irc_IRC_Full E -948.659586629547
  C      -0.004866      0.143405      0.354943
  C       0.917889      1.097432     -0.037612
  C       0.413175     -1.156573      0.620337
  C       2.255363      0.725319     -0.177340
  C       2.687422     -0.571676      0.108439
  C       1.754123     -1.513015      0.506608
  H       0.618987      2.117372     -0.248732
  C       3.193413      1.690290     -0.632569
  H      -1.049467      0.412478      0.453319
  H      -0.314407     -1.900347      0.924302
  H       3.737786     -0.822133      0.015505
  H       2.068815     -2.526712      0.724180
  N       3.812633      2.420656     -1.305415
  O       4.747582      3.265647     -1.305091
  O       4.334546      2.384142      1.139300
  S       5.563341      2.980027      0.614170
  O       6.586732      2.021608      0.275649
17
Coordinates from ORCA-job orca_irc_IRC_Full E -948.660073993675
  C      -0.005483      0.142952      0.355612
  C       0.916769      1.096694     -0.038330
  C       0.412851     -1.156956      0.620860
  C       2.253691      0.724093     -0.179809
  C       2.686793     -0.572040      0.107649
  C       1.753853     -1.513162      0.507069
  H       0.618659      2.117021     -0.248939
  C       3.190553      1.689095     -0.640149
  H      -1.049963      0.412333      0.453698
  H      -0.314676     -1.900754      0.924540
  H       3.737376     -0.822069      0.015219
  H       2.068818     -2.526806      0.724458
  N       3.813228      2.420703     -1.301881
  O       4.745403      3.267094     -1.312646
  O       4.339523      2.388065      1.145922
  S       5.567864      2.980431      0.621094
  O       6.587942      2.021299      0.275840
17
Coordinates from ORCA-job orca_irc_IRC_Full E -948.660642882354
  C      -0.006184      0.142463      0.356282
  C       0.915647      1.095901     -0.039155
  C       0.412437     -1.157378      0.621400
  C       2.252056      0.722887     -0.182530
  C       2.686094     -0.572404      0.106770
  C       1.753496     -1.513348      0.507535
  H       0.618163      2.116535     -0.249265
  C       3.186258      1.686640     -0.648262
  H      -1.050581      0.412103      0.454246
  H      -0.314999     -1.901269      0.924867
  H       3.736845     -0.822008      0.014780
  H       2.068804     -2.526909      0.724854
  N       3.815036      2.421940     -1.298219
  O       4.742696      3.268640     -1.321270
  O       4.345174      2.392477      1.153765
  S       5.572948      2.980877      0.628346
  O       6.589449      2.020909      0.276308
17
Coordinates from ORCA-job orca_irc_IRC_Full E -948.661216242412
  C      -0.006863      0.141998      0.356899
  C       0.914556      1.095129     -0.039936
  C       0.412019     -1.157787      0.621891
  C       2.250399      0.721640     -0.185091
  C       2.685406     -0.572778      0.105941
  C       1.753141     -1.513528      0.507965
  H       0.617630      2.116028     -0.249639
  C       3.182758      1.684940     -0.656530
  H      -1.051179      0.411851      0.454828
  H      -0.315312     -1.901775      0.925204
  H       3.736314     -0.821964      0.014292
  H       2.068775     -2.526996      0.725275
  N       3.816156      2.422517     -1.294303
  O       4.740246      3.270290     -1.329477
  O       4.350599      2.396692      1.161369
  S       5.577914      2.981304      0.635121
  O       6.590901      2.020540      0.276874
17
Coordinates from ORCA-job orca_irc_IRC_Full E -948.661820545008
  C      -0.007578      0.141494      0.357523
  C       0.913438      1.094321     -0.040764
  C       0.411555     -1.158228      0.622382
  C       2.248772      0.720437     -0.187774
  C       2.684677     -0.573149      0.105072
  C       1.752737     -1.513718      0.508396
  H       0.617001      2.115454     -0.250105
  C       3.178835      1.682771     -0.664702
  H      -1.051815      0.411555      0.455504
  H      -0.315642     -1.902315      0.925583
  H       3.735732     -0.821942      0.013700
  H       2.068726     -2.527076      0.725765
  N       3.817737      2.423643     -1.290566
  O       4.737577      3.271937     -1.337937
  O       4.356257      2.401061      1.169288
  S       5.583069      2.981788      0.641983
  O       6.592484      2.020099      0.277573
17
Coordinates from ORCA-job orca_irc_IRC_Full E -948.662429721358
  C      -0.008298      0.140984      0.358137
  C       0.912312      1.093498     -0.041607
  C       0.411074     -1.158684      0.622865
  C       2.247123      0.719216     -0.190461
  C       2.683927     -0.573522      0.104191
  C       1.752322     -1.513905      0.508818
  H       0.616317      2.114845     -0.250629
  C       3.175323      1.680963     -0.672919
  H      -1.052459      0.411236      0.456230
  H      -0.315980     -1.902869      0.925984
  H       3.735123     -0.821937      0.013047
  H       2.068661     -2.527146      0.726292
  N       3.818982      2.424489     -1.286747
  O       4.734971      3.273650     -1.346278
  O       4.361898      2.405416      1.177154
  S       5.588232      2.982296      0.648733
  O       6.594108      2.019623      0.278342
17
Coordinates from ORCA-job orca_irc_IRC_Full E -948.663045796464
  C      -0.009041      0.140442      0.358757
  C       0.911166      1.092649     -0.042499
  C       0.410567     -1.159164      0.623358
  C       2.245495      0.718026     -0.193236
  C       2.683142     -0.573889      0.103263
  C       1.751877     -1.514097      0.509240
  H       0.615558      2.114183     -0.251228
  C       3.171792      1.679063     -0.680975
  H      -1.053124      0.410885      0.457026
  H      -0.316336     -1.903450      0.926422
  H       3.734470     -0.821952      0.012313
  H       2.068581     -2.527207      0.726870
  N       3.820341      2.425537     -1.283071
  O       4.732256      3.275353     -1.354641
  O       4.367570      2.409817      1.185130
  S       5.593606      2.982825      0.655450
  O       6.595769      2.019141      0.279212
17
Coordinates from ORCA-job orca_irc_IRC_Full E -948.663660031505
  C      -0.009797      0.139884      0.359378
  C       0.910001      1.091773     -0.043435
  C       0.410037     -1.159665      0.623864
  C       2.243859      0.716838     -0.196072
  C       2.682325     -0.574256      0.102292
  C       1.751415     -1.514289      0.509658
  H       0.614735      2.113478     -0.251892
  C       3.168484      1.677331     -0.688990
  H      -1.053806      0.410509      0.457880
  H      -0.316705     -1.904055      0.926891
  H       3.733779     -0.821985      0.011510
  H       2.068488     -2.527259      0.727491
  N       3.821541      2.426495     -1.279413
  O       4.729533      3.277090     -1.362959
  O       4.373305      2.414275      1.193127
  S       5.599019      2.983389      0.662153
  O       6.597509      2.018608      0.280141
17
Coordinates from ORCA-job orca_irc_IRC_Full E -948.664266884251
  C      -0.010570      0.139296      0.359998
  C       0.908821      1.090874     -0.044435
  C       0.409482     -1.160188      0.624388
  C       2.242266      0.715702     -0.198996
  C       2.681472     -0.574616      0.101259
  C       1.750925     -1.514481      0.510071
  H       0.613831      2.112719     -0.252636
  C       3.165127      1.675450     -0.696689
  H      -1.054505      0.410104      0.458804
  H      -0.317093     -1.904689      0.927404
  H       3.733038     -0.822042      0.010624
  H       2.068382     -2.527297      0.728163
  N       3.822912      2.427736     -1.276017
  O       4.726706      3.278766     -1.371181
  O       4.379026      2.418764      1.201185
  S       5.604634      2.983968      0.668746
  O       6.599271      2.018084      0.281167
17
Coordinates from ORCA-job orca_irc_IRC_Full E -948.664864481711
  C      -0.011358      0.138689      0.360616
  C       0.907614      1.089937     -0.045497
  C       0.408902     -1.160736      0.624935
  C       2.240639      0.714547     -0.201995
  C       2.680575     -0.574982      0.100164
  C       1.750416     -1.514671      0.510477
  H       0.612849      2.111910     -0.253457
  C       3.162165      1.673933     -0.704466
  H      -1.055222      0.409671      0.459794
  H      -0.317497     -1.905351      0.927961
  H       3.732249     -0.822120      0.009656
  H       2.068265     -2.527322      0.728883
  N       3.823923      2.428683     -1.272542
  O       4.723910      3.280504     -1.379330
  O       4.384884      2.423362      1.209276
  S       5.610234      2.984601      0.675366
  O       6.601158      2.017475      0.282238
17
Coordinates from ORCA-job orca_irc_IRC_Full E -948.665445648639
  C      -0.012162      0.138053      0.361226
  C       0.906394      1.088981     -0.046634
  C       0.408301     -1.161302      0.625505
  C       2.239075      0.713461     -0.205077
  C       2.679643     -0.575340      0.098993
  C       1.749880     -1.514864      0.510871
  H       0.611780      2.111046     -0.254365
  C       3.159044      1.672145     -0.711795
  H      -1.055950      0.409209      0.460855
  H      -0.317917     -1.906041      0.928571
  H       3.731408     -0.822225      0.008599
  H       2.068138     -2.527328      0.729654
  N       3.825207      2.430026     -1.269441
  O       4.721018      3.282149     -1.387313
  O       4.390677      2.427973      1.217432
  S       5.616115      2.985233      0.681801
  O       6.603023      2.016922      0.283417
17
Coordinates from ORCA-job orca_irc_IRC_Full E -948.666012964615
  C      -0.012981      0.137395      0.361828
  C       0.905135      1.087980     -0.047847
  C       0.407672     -1.161895      0.626105
  C       2.237457      0.712345     -0.208242
  C       2.678657     -0.575713      0.097742
  C       1.749322     -1.515052      0.511252
  H       0.610618      2.110125     -0.255367
  C       3.156381      1.670797     -0.719237
  H      -1.056696      0.408717      0.461992
  H      -0.318353     -1.906761      0.929242
  H       3.730510     -0.822356      0.007444
  H       2.068003     -2.527318      0.730479
  N       3.826059      2.431002     -1.266240
  O       4.718160      3.283857     -1.395222
  O       4.396715      2.432759      1.225620
  S       5.621869      2.985959      0.688345
  O       6.605094      2.016217      0.284619
17
Coordinates from ORCA-job orca_irc_IRC_Full E -948.666558197447
  C      -0.013817      0.136706      0.362413
  C       0.903866      1.086962     -0.049146
  C       0.407024     -1.162503      0.626730
  C       2.235907      0.711303     -0.211480
  C       2.677635     -0.576075      0.096404
  C       1.748738     -1.515246      0.511613
  H       0.609361      2.109146     -0.256466
  C       3.153538      1.669161     -0.726166
  H      -1.057450      0.408198      0.463200
  H      -0.318801     -1.907503      0.929980
  H       3.729557     -0.822519      0.006189
  H       2.067862     -2.527284      0.731355
  N       3.827187      2.432378     -1.263456
  O       4.715221      3.285468     -1.402924
  O       4.402582      2.437514      1.233893
  S       5.628108      2.986633      0.694606
  O       6.607044      2.015672      0.285971
17
Coordinates from ORCA-job orca_irc_IRC_Full E -948.667086613170
  C      -0.014668      0.135994      0.362980
  C       0.902546      1.085898     -0.050534
  C       0.406349     -1.163138      0.627388
  C       2.234311      0.710243     -0.214802
  C       2.676559     -0.576462      0.094974
  C       1.748131     -1.515434      0.511951
  H       0.607995      2.108104     -0.257678
  C       3.151129      1.667944     -0.733152
  H      -1.058220      0.407648      0.464490
  H      -0.319262     -1.908272      0.930797
  H       3.728540     -0.822714      0.004818
  H       2.067715     -2.527230      0.732290
  N       3.827910      2.433415     -1.260615
  O       4.712301      3.287120     -1.410534
  O       4.408882      2.442534      1.242130
  S       5.633907      2.987493      0.701125
  O       6.609372      2.014813      0.287280
17
Coordinates from ORCA-job orca_irc_IRC_Full E -948.667590870994
  C      -0.015536      0.135251      0.363519
  C       0.901221      1.084816     -0.052014
  C       0.405658     -1.163782      0.628069
  C       2.232762      0.709239     -0.218173
  C       2.675442     -0.576834      0.093448
  C       1.747499     -1.515631      0.512260
  H       0.606525      2.107006     -0.259001
  C       3.148616      1.666539     -0.739668
  H      -1.058993      0.407071      0.465849
  H      -0.319727     -1.909056      0.931698
  H       3.727471     -0.822947      0.003333
  H       2.067566     -2.527149      0.733274
  N       3.828798      2.434724     -1.258140
  O       4.709333      3.288704     -1.417925
  O       4.414758      2.447419      1.250557
  S       5.640705      2.988164      0.707147
  O       6.611335      2.014365      0.288849
17
Coordinates from ORCA-job orca_irc_IRC_Full E -948.668074646156
  C      -0.016413      0.134487      0.364024
  C       0.899846      1.083697     -0.053587
  C       0.404947     -1.164450      0.628780
  C       2.231201      0.708253     -0.221603
  C       2.674278     -0.577235      0.091827
  C       1.746846     -1.515820      0.512531
  H       0.604940      2.105842     -0.260452
  C       3.146352      1.665348     -0.746001
  H      -1.059775      0.406465      0.467287
  H      -0.320196     -1.909854      0.932697
  H       3.726335     -0.823218      0.001717
  H       2.067415     -2.527044      0.734314
  N       3.829488      2.435922     -1.255791
  O       4.706358      3.290263     -1.425144
  O       4.421328      2.452669      1.258769
  S       5.646486      2.989171      0.713615
  O       6.613939      2.013342      0.290260
17
Coordinates from ORCA-job orca_irc_IRC_Full E -948.668536994697
  C      -0.017315      0.133688      0.364494
  C       0.898446      1.082552     -0.055259
  C       0.404221     -1.165125      0.629515
  C       2.229638      0.707282     -0.225071
  C       2.673067     -0.577632      0.090102
  C       1.746169     -1.516024      0.512766
  H       0.603237      2.104618     -0.262036
  C       3.144202      1.664234     -0.752067
  H      -1.060560      0.405831      0.468796
  H      -0.320664     -1.910660      0.933802
  H       3.725144     -0.823532     -0.000034
  H       2.067265     -2.526910      0.735403
  N       3.830083      2.437105     -1.253634
  O       4.703370      3.291810     -1.432177
  O       4.427389      2.457762      1.267271
  S       5.653557      2.989925      0.719511
  O       6.616075      2.012856      0.292000
17
Coordinates from ORCA-job orca_irc_IRC_Full E -948.668978310522
  C      -0.018221      0.132872      0.364918
  C       0.897008      1.081377     -0.057023
  C       0.403481     -1.165819      0.630276
  C       2.228082      0.706350     -0.228574
  C       2.671815     -0.578048      0.088283
  C       1.745474     -1.516220      0.512953
  H       0.601419      2.103332     -0.263757
  C       3.142153      1.663192     -0.757840
  H      -1.061354      0.405172      0.470372
  H      -0.321125     -1.911467      0.935021
  H       3.723892     -0.823888     -0.001925
  H       2.067118     -2.526755      0.736539
  N       3.830579      2.438270     -1.251664
  O       4.700389      3.293332     -1.439025
  O       4.434155      2.463217      1.275525
  S       5.659575      2.991015      0.725844
  O       6.618846      2.011796      0.293575
