17
Coordinates from ORCA-job orca_irc_IRC_Full E -948.705584661171
  C       0.296616      0.017691     -0.532715
  C       1.419700      0.828200     -0.630048
  C       0.271607     -1.032895      0.377896
  C       2.513804      0.587491      0.195778
  C       2.489753     -0.458371      1.114590
  C       1.365813     -1.269661      1.201522
  H       1.438135      1.663579     -1.320983
  C       3.676165      1.504160      0.168003
  H      -0.568122      0.219250     -1.154782
  H      -0.608368     -1.662636      0.453445
  H       3.337058     -0.622665      1.770984
  H       1.336782     -2.074545      1.927570
  N       3.806400      2.469649      0.984847
  O       5.055113      3.089298      0.721238
  O       4.672620      1.319903     -0.743338
  S       5.682194      2.659581     -0.730707
  O       5.201094      3.562183     -1.738229
17
Coordinates from ORCA-job orca_irc_IRC_Full E -948.705532799409
  C       0.296146      0.017704     -0.532050
  C       1.419637      0.827537     -0.630037
  C       0.271357     -1.033284      0.378024
  C       2.514859      0.585777      0.194256
  C       2.489891     -0.459345      1.114299
  C       1.365374     -1.269826      1.201942
  H       1.437465      1.664066     -1.319500
  C       3.677809      1.503160      0.165624
  H      -0.568957      0.220267     -1.153064
  H      -0.608464     -1.663349      0.453164
  H       3.336391     -0.622990      1.771832
  H       1.335682     -2.073797      1.928837
  N       3.804540      2.468506      0.982086
  O       5.053016      3.090690      0.720554
  O       4.674949      1.320407     -0.743893
  S       5.682642      2.661125     -0.729803
  O       5.204288      3.563770     -1.737719
17
Coordinates from ORCA-job orca_irc_IRC_Full E -948.705504425416
  C       0.295848      0.017694     -0.531804
  C       1.419466      0.827242     -0.630115
  C       0.271295     -1.033410      0.378063
  C       2.515372      0.585201      0.193672
  C       2.489904     -0.459898      1.114268
  C       1.365142     -1.269975      1.202179
  H       1.437197      1.664280     -1.318847
  C       3.679085      1.502688      0.164150
  H      -0.569232      0.220680     -1.152315
  H      -0.608498     -1.663656      0.453032
  H       3.336100     -0.623099      1.772201
  H       1.335231     -2.073435      1.929317
  N       3.803673      2.467961      0.980921
  O       5.052364      3.091348      0.720206
  O       4.675786      1.320888     -0.743765
  S       5.682299      2.661504     -0.729308
  O       5.205702      3.564489     -1.737512
17
Coordinates from ORCA-job orca_irc_IRC_Full E -948.705390365348
  C       0.295255      0.017913     -0.530214
  C       1.419852      0.826206     -0.629341
  C       0.270498     -1.034267      0.378430
  C       2.517476      0.581167      0.190438
  C       2.490034     -0.460995      1.113726
  C       1.364269     -1.269866      1.203016
  H       1.435634      1.665523     -1.315507
  C       3.679390      1.499573      0.160562
  H      -0.570965      0.222398     -1.149365
  H      -0.608678     -1.665441      0.452072
  H       3.334341     -0.623521      1.774509
  H       1.332914     -2.072415      1.931733
  N       3.800921      2.466882      0.975921
  O       5.047014      3.093325      0.719096
  O       4.681655      1.320016     -0.747014
  S       5.686867      2.665706     -0.727795
  O       5.210753      3.568641     -1.736803
17
Coordinates from ORCA-job orca_irc_IRC_Full E -948.705243413810
  C       0.294116      0.018198     -0.528408
  C       1.419537      0.825160     -0.628714
  C       0.269670     -1.034966      0.378910
  C       2.519769      0.577612      0.187453
  C       2.489875     -0.462609      1.113772
  C       1.362938     -1.269856      1.204326
  H       1.433954      1.667014     -1.311502
  C       3.683354      1.496214      0.154415
  H      -0.572348      0.223793     -1.146547
  H      -0.608795     -1.667547      0.450723
  H       3.332128     -0.623613      1.777370
  H       1.330509     -2.071547      1.933785
  N       3.797584      2.464748      0.969703
  O       5.042918      3.095611      0.717393
  O       4.687666      1.320560     -0.748553
  S       5.688483      2.668955     -0.725950
  O       5.216364      3.573414     -1.735484
17
Coordinates from ORCA-job orca_irc_IRC_Full E -948.705068482663
  C       0.293028      0.018687     -0.526388
  C       1.419459      0.824379     -0.627503
  C       0.268549     -1.035494      0.379639
  C       2.522140      0.573758      0.184325
  C       2.489516     -0.463625      1.113975
  C       1.361458     -1.269582      1.205776
  H       1.432172      1.668666     -1.307326
  C       3.685359      1.492700      0.149393
  H      -0.573557      0.224678     -1.144241
  H      -0.608875     -1.669861      0.449115
  H       3.329710     -0.623481      1.780571
  H       1.328177     -2.071155      1.935414
  N       3.794843      2.462861      0.963411
  O       5.038412      3.097474      0.715800
  O       4.694464      1.319554     -0.751420
  S       5.692246      2.673246     -0.724517
  O       5.221086      3.578558     -1.733973
17
Coordinates from ORCA-job orca_irc_IRC_Full E -948.704863261333
  C       0.291728      0.019324     -0.524031
  C       1.419167      0.823634     -0.626306
  C       0.267241     -1.035743      0.380748
  C       2.524274      0.570290      0.181547
  C       2.489070     -0.464618      1.114352
  C       1.359765     -1.269032      1.207512
  H       1.430385      1.670402     -1.302860
  C       3.689349      1.489022      0.143299
  H      -0.574516      0.225032     -1.142488
  H      -0.608952     -1.672379      0.447207
  H       3.327023     -0.623054      1.783999
  H       1.325923     -2.071265      1.936518
  N       3.792155      2.460732      0.956606
  O       5.034488      3.099291      0.713915
  O       4.701458      1.319501     -0.753466
  S       5.694513      2.676425     -0.723120
  O       5.225546      3.583956     -1.731898
17
Coordinates from ORCA-job orca_irc_IRC_Full E -948.704646258392
  C       0.290460      0.020073     -0.521572
  C       1.418715      0.823065     -0.625017
  C       0.265903     -1.035834      0.381981
  C       2.526198      0.566581      0.178360
  C       2.488532     -0.465231      1.114854
  C       1.358115     -1.268242      1.209337
  H       1.428897      1.672024     -1.298809
  C       3.691652      1.486777      0.138410
  H      -0.574871      0.224906     -1.141223
  H      -0.608953     -1.674649      0.445301
  H       3.324595     -0.622575      1.787233
  H       1.324002     -2.071653      1.936943
  N       3.790274      2.458241      0.950607
  O       5.031641      3.101587      0.711698
  O       4.706947      1.317080     -0.755898
  S       5.697884      2.681051     -0.721764
  O       5.228986      3.588404     -1.729292
17
Coordinates from ORCA-job orca_irc_IRC_Full E -948.704537536319
  C       0.289949      0.020400     -0.520542
  C       1.418558      0.822858     -0.624413
  C       0.265326     -1.035868      0.382501
  C       2.527007      0.564950      0.176901
  C       2.488294     -0.465363      1.115048
  C       1.357444     -1.267880      1.210101
  H       1.428326      1.672688     -1.297219
  C       3.691910      1.486097      0.136829
  H      -0.574926      0.224787     -1.140761
  H      -0.608931     -1.675537      0.444518
  H       3.323651     -0.622386      1.788551
  H       1.323254     -2.071850      1.937024
  N       3.789651      2.457149      0.948274
  O       5.030599      3.102640      0.710735
  O       4.709043      1.315462     -0.757189
  S       5.699744      2.683426     -0.721224
  O       5.230220      3.590061     -1.728129
17
Coordinates from ORCA-job orca_irc_IRC_Full E -948.704353094586
  C       0.289463      0.020872     -0.519097
  C       1.418407      0.822716     -0.623493
  C       0.264554     -1.035888      0.383193
  C       2.527958      0.562354      0.174677
  C       2.487975     -0.465306      1.115333
  C       1.356639     -1.267224      1.211035
  H       1.427632      1.673517     -1.295226
  C       3.690852      1.484758      0.134661
  H      -0.574888      0.224544     -1.140253
  H      -0.608918     -1.676668      0.443501
  H       3.322468     -0.622165      1.790244
  H       1.322331     -2.072194      1.937023
  N       3.789319      2.456736      0.946408
  O       5.029027      3.104081      0.709428
  O       4.711389      1.311970     -0.759494
  S       5.703942      2.687042     -0.720051
  O       5.231144      3.592507     -1.727052
17
Coordinates from ORCA-job orca_irc_IRC_Full E -948.703164044767
  C       0.283748      0.024559     -0.512230
  C       1.412856      0.827954     -0.612379
  C       0.260947     -1.036970      0.385291
  C       2.528768      0.559348      0.176676
  C       2.480914     -0.462783      1.125616
  C       1.349789     -1.266678      1.218866
  H       1.424054      1.678987     -1.283635
  C       3.709982      1.466678      0.112318
  H      -0.576959      0.220121     -1.142909
  H      -0.609667     -1.682898      0.438560
  H       3.316118     -0.618668      1.799586
  H       1.318085     -2.080463      1.936742
  N       3.778840      2.445822      0.917456
  O       5.018019      3.098438      0.707924
  O       4.744514      1.314435     -0.764518
  S       5.707425      2.700043     -0.719290
  O       5.242850      3.613294     -1.723772
17
Coordinates from ORCA-job orca_irc_IRC_Full E -948.701037070173
  C       0.279852      0.025930     -0.509858
  C       1.406972      0.833107     -0.604932
  C       0.260091     -1.037979      0.385350
  C       2.523562      0.558326      0.182258
  C       2.475213     -0.460820      1.134429
  C       1.345995     -1.267801      1.222979
  H       1.422451      1.683062     -1.278549
  C       3.720873      1.448548      0.098070
  H      -0.578206      0.217549     -1.145744
  H      -0.609026     -1.684679      0.436577
  H       3.314098     -0.616157      1.804690
  H       1.316873     -2.085605      1.936409
  N       3.768338      2.436686      0.899875
  O       5.024940      3.096579      0.704710
  O       4.746723      1.285996     -0.771814
  S       5.722458      2.741440     -0.704305
  O       5.249667      3.626498     -1.730160
17
Coordinates from ORCA-job orca_irc_IRC_Full E -948.696918214817
  C       0.277926      0.026268     -0.509331
  C       1.402668      0.837023     -0.600575
  C       0.260483     -1.038245      0.385019
  C       2.516426      0.557375      0.187602
  C       2.471763     -0.459404      1.140499
  C       1.344360     -1.268928      1.224771
  H       1.421688      1.685654     -1.276220
  C       3.730627      1.431008      0.081891
  H      -0.578488      0.216237     -1.147454
  H      -0.608397     -1.685072      0.435802
  H       3.313508     -0.614630      1.807514
  H       1.316720     -2.088128      1.935978
  N       3.747555      2.426304      0.896579
  O       5.044661      3.104447      0.700362
  O       4.737041      1.259936     -0.774307
  S       5.741309      2.775740     -0.690349
  O       5.251289      3.634739     -1.737940
17
Coordinates from ORCA-job orca_irc_IRC_Full E -948.689906155412
  C       0.277341      0.026617     -0.509634
  C       1.398910      0.840526     -0.597193
  C       0.260875     -1.038540      0.384698
  C       2.509377      0.558441      0.193755
  C       2.469121     -0.458154      1.145696
  C       1.344102     -1.269732      1.225592
  H       1.421154      1.687734     -1.274746
  C       3.735226      1.420447      0.073230
  H      -0.578510      0.215371     -1.148747
  H      -0.607680     -1.684944      0.435407
  H       3.313296     -0.613453      1.809619
  H       1.316853     -2.089813      1.935596
  N       3.710932      2.400042      0.893933
  O       5.079616      3.123222      0.694726
  O       4.728357      1.235823     -0.778410
  S       5.758024      2.810213     -0.684557
  O       5.254237      3.636279     -1.739160
17
Coordinates from ORCA-job orca_irc_IRC_Full E -948.681265511561
  C       0.276902      0.026540     -0.510233
  C       1.396077      0.843816     -0.594346
  C       0.261677     -1.038423      0.384366
  C       2.502609      0.561212      0.200860
  C       2.467242     -0.456707      1.150004
  C       1.343990     -1.270789      1.226000
  H       1.420669      1.689526     -1.273589
  C       3.742339      1.405653      0.058650
  H      -0.578390      0.214722     -1.149769
  H      -0.607187     -1.684808      0.435176
  H       3.313170     -0.612450      1.811422
  H       1.317075     -2.091031      1.935215
  N       3.671708      2.377521      0.897690
  O       5.114422      3.142898      0.688935
  O       4.719250      1.216607     -0.780368
  S       5.776117      2.834441     -0.675087
  O       5.253594      3.641227     -1.745106
17
Coordinates from ORCA-job orca_irc_IRC_Full E -948.672093814254
  C       0.276962      0.026615     -0.511123
  C       1.393053      0.847302     -0.591429
  C       0.262411     -1.038427      0.384023
  C       2.495542      0.565121      0.208878
  C       2.465333     -0.455184      1.154559
  C       1.344415     -1.271721      1.226178
  H       1.420189      1.691340     -1.272537
  C       3.748369      1.396172      0.049017
  H      -0.578232      0.214129     -1.150781
  H      -0.606584     -1.684521      0.434996
  H       3.313108     -0.611456      1.813213
  H       1.317365     -2.092183      1.934846
  N       3.628335      2.346823      0.898052
  O       5.152148      3.164554      0.682843
  O       4.711537      1.196688     -0.784070
  S       5.792430      2.861904     -0.669800
  O       5.254878      3.642761     -1.746983
17
Coordinates from ORCA-job orca_irc_IRC_Full E -948.665008522426
  C       0.276720      0.026172     -0.512200
  C       1.391004      0.850984     -0.589395
  C       0.263282     -1.038309      0.383714
  C       2.489192      0.570734      0.217695
  C       2.464556     -0.453583      1.158514
  C       1.344585     -1.273049      1.226093
  H       1.419749      1.692606     -1.271531
  C       3.757647      1.385842      0.036001
  H      -0.577965      0.213729     -1.151480
  H      -0.606072     -1.684238      0.434878
  H       3.312875     -0.610594      1.814561
  H       1.317665     -2.092928      1.934517
  N       3.588136      2.321697      0.902211
  O       5.184340      3.182254      0.675405
  O       4.705087      1.181208     -0.786817
  S       5.805502      2.882407     -0.662038
  O       5.254921      3.645023     -1.750158
17
Coordinates from ORCA-job orca_irc_IRC_Full E -948.659386263669
  C       0.277948      0.026468     -0.513950
  C       1.386952      0.855248     -0.585358
  C       0.264521     -1.038628      0.382786
  C       2.481645      0.577998      0.228493
  C       2.461746     -0.451382      1.164256
  C       1.346244     -1.274012      1.225724
  H       1.419470      1.694012     -1.271043
  C       3.765940      1.383973      0.030666
  H      -0.577799      0.213403     -1.152086
  H      -0.605460     -1.683948      0.434758
  H       3.313077     -0.609907      1.815874
  H       1.317968     -2.093607      1.934273
  N       3.538429      2.278797      0.898416
  O       5.222520      3.204244      0.668688
  O       4.697424      1.161151     -0.791786
  S       5.824923      2.911204     -0.658466
  O       5.255612      3.644903     -1.751225
17
Coordinates from ORCA-job orca_irc_IRC_Full E -948.657387976961
  C       0.279730      0.026094     -0.516937
  C       1.382854      0.861854     -0.580157
  C       0.266870     -1.038525      0.381391
  C       2.470927      0.593188      0.247478
  C       2.459189     -0.447779      1.171896
  C       1.348574     -1.276017      1.224727
  H       1.414704      1.704823     -1.260607
  C       3.779973      1.381719      0.021425
  H      -0.574319      0.209339     -1.158229
  H      -0.603137     -1.683959      0.432884
  H       3.308644     -0.601175      1.826942
  H       1.320886     -2.098433      1.929760
  N       3.482689      2.231317      0.895603
  O       5.254080      3.222148      0.662497
  O       4.692635      1.143407     -0.797835
  S       5.835031      2.923335     -0.656806
  O       5.255074      3.645665     -1.753332
17
Coordinates from ORCA-job orca_irc_IRC_Full E -948.659303117059
  C       0.281512      0.025721     -0.519924
  C       1.378756      0.868461     -0.574956
  C       0.269218     -1.038423      0.379997
  C       2.460208      0.608377      0.266463
  C       2.456631     -0.444175      1.179537
  C       1.350903     -1.278022      1.223729
  H       1.409939      1.715634     -1.250170
  C       3.794005      1.379464      0.012184
  H      -0.570839      0.205275     -1.164372
  H      -0.600814     -1.683971      0.431010
  H       3.304210     -0.592444      1.838010
  H       1.323804     -2.103258      1.925246
  N       3.426949      2.183836      0.892791
  O       5.285640      3.240052      0.656306
  O       4.687845      1.125664     -0.803884
  S       5.845139      2.935466     -0.655146
  O       5.254537      3.646428     -1.755439
17
Coordinates from ORCA-job orca_irc_IRC_Full E -948.663687535539
  C       0.283154      0.025244     -0.521932
  C       1.376686      0.872356     -0.570976
  C       0.270598     -1.038428      0.379035
  C       2.451091      0.623230      0.284017
  C       2.454718     -0.441517      1.183498
  C       1.352678     -1.279212      1.222456
  H       1.409511      1.716452     -1.249119
  C       3.809070      1.379719      0.004016
  H      -0.570471      0.204986     -1.164762
  H      -0.600486     -1.683775      0.430890
  H       3.303660     -0.591658      1.839038
  H       1.324001     -2.103669      1.924863
  N       3.382232      2.141637      0.887612
  O       5.308968      3.255257      0.654333
  O       4.683672      1.110586     -0.808248
  S       5.864634      2.954965     -0.655455
  O       5.253990      3.648034     -1.757297
17
Coordinates from ORCA-job orca_irc_IRC_Full E -948.669460151938
  C       0.284520      0.024396     -0.523487
  C       1.374677      0.875638     -0.567464
  C       0.271183     -1.038367      0.378668
  C       2.440607      0.638830      0.302689
  C       2.452906     -0.439242      1.187203
  C       1.353970     -1.280517      1.221061
  H       1.408799      1.718517     -1.247556
  C       3.823176      1.381441     -0.002257
  H      -0.569539      0.204330     -1.165771
  H      -0.599670     -1.683129      0.430762
  H       3.303142     -0.590259      1.841140
  H       1.324661     -2.104480      1.923901
  N       3.340605      2.100497      0.881087
  O       5.331848      3.268435      0.650462
  O       4.684626      1.095256     -0.815704
  S       5.876343      2.973843     -0.654455
  O       5.255753      3.649273     -1.757819
17
Coordinates from ORCA-job orca_irc_IRC_Full E -948.676214165995
  C       0.285877      0.023277     -0.525251
  C       1.372599      0.879085     -0.563259
  C       0.271965     -1.038164      0.378294
  C       2.426719      0.654586      0.323735
  C       2.450514     -0.436499      1.190995
  C       1.355297     -1.282072      1.219456
  H       1.407797      1.720753     -1.245167
  C       3.841417      1.384746     -0.009723
  H      -0.568382      0.203293     -1.167220
  H      -0.599330     -1.682779      0.430687
  H       3.302049     -0.588370      1.843580
  H       1.325527     -2.105771      1.922561
  N       3.302286      2.056344      0.869939
  O       5.351327      3.282172      0.650860
  O       4.682940      1.080806     -0.820139
  S       5.893083      2.990646     -0.655764
  O       5.255798      3.652691     -1.760569
17
Coordinates from ORCA-job orca_irc_IRC_Full E -948.683249087465
  C       0.287031      0.021473     -0.526860
  C       1.369887      0.882201     -0.558655
  C       0.272007     -1.038582      0.377855
  C       2.408835      0.669661      0.346624
  C       2.447376     -0.433965      1.195081
  C       1.356027     -1.284027      1.217481
  H       1.406638      1.723231     -1.242012
  C       3.860353      1.389588     -0.016115
  H      -0.567052      0.201880     -1.169091
  H      -0.598959     -1.682426      0.430574
  H       3.300435     -0.585956      1.846267
  H       1.326560     -2.107501      1.920826
  N       3.267647      2.014615      0.858327
  O       5.370886      3.294080      0.648344
  O       4.684898      1.065105     -0.827487
  S       5.907158      3.010911     -0.656521
  O       5.257584      3.654746     -1.761037
17
Coordinates from ORCA-job orca_irc_IRC_Full E -948.690433541631
  C       0.287455      0.018783     -0.528431
  C       1.366045      0.884986     -0.553416
  C       0.271587     -1.039578      0.377282
  C       2.386367      0.683404      0.371391
  C       2.442863     -0.431597      1.199663
  C       1.355880     -1.286691      1.215254
  H       1.405237      1.725815     -1.237849
  C       3.883723      1.396742     -0.023252
  H      -0.565596      0.199903     -1.171477
  H      -0.599154     -1.682589      0.430379
  H       3.298109     -0.582971      1.849206
  H       1.327678     -2.109914      1.918616
  N       3.240354      1.973856      0.842646
  O       5.388209      3.305939      0.648413
  O       4.685084      1.049792     -0.832598
  S       5.924888      3.031257     -0.658327
  O       5.258393      3.658237     -1.763329
17
Coordinates from ORCA-job orca_irc_IRC_Full E -948.697505184821
  C       0.287069      0.015280     -0.529768
  C       1.360766      0.887443     -0.547529
  C       0.270124     -1.041648      0.376526
  C       2.359984      0.695487      0.397224
  C       2.436926     -0.429475      1.205066
  C       1.354674     -1.289985      1.212919
  H       1.403566      1.728320     -1.232664
  C       3.909245      1.405890     -0.029823
  H      -0.564298      0.197283     -1.174470
  H      -0.599939     -1.683396      0.430029
  H       3.294904     -0.579482      1.852235
  H       1.328744     -2.113202      1.916003
  N       3.219302      1.937272      0.826320
  O       5.405543      3.316610      0.646540
  O       4.688207      1.033486     -0.839798
  S       5.941729      3.054889     -0.659798
  O       5.260444      3.660931     -1.764314
17
Coordinates from ORCA-job orca_irc_IRC_Full E -948.704198785422
  C       0.285343      0.011076     -0.530948
  C       1.353456      0.889672     -0.540647
  C       0.267929     -1.044686      0.375537
  C       2.331950      0.706280      0.423117
  C       2.428912     -0.427499      1.211621
  C       1.352226     -1.294057      1.210857
  H       1.401534      1.730662     -1.226424
  C       3.937975      1.415188     -0.037918
  H      -0.563238      0.193855     -1.178119
  H      -0.601695     -1.685251      0.429446
  H       3.290765     -0.575554      1.855398
  H       1.329659     -2.117550      1.912929
  N       3.206074      1.904143      0.807805
  O       5.421105      3.327481      0.647109
  O       4.690985      1.018417     -0.845094
  S       5.962486      3.078850     -0.662238
  O       5.261456      3.664903     -1.767278
17
Coordinates from ORCA-job orca_irc_IRC_Full E -948.710085662922
  C       0.282006      0.006471     -0.531573
  C       1.343825      0.892117     -0.531951
  C       0.264286     -1.049344      0.374216
  C       2.305202      0.715601      0.446941
  C       2.418568     -0.424952      1.219970
  C       1.348186     -1.298706      1.209528
  H       1.398812      1.732549     -1.218869
  C       3.964015      1.423142     -0.044647
  H      -0.562949      0.189279     -1.182818
  H      -0.604513     -1.688536      0.428400
  H       3.285103     -0.571263      1.858625
  H       1.330191     -2.123601      1.909413
  N       3.199708      1.877558      0.790080
  O       5.438459      3.337068      0.643206
  O       4.700478      1.003494     -0.853908
  S       5.980431      3.107983     -0.663735
  O       5.265067      3.667181     -1.767503
17
Coordinates from ORCA-job orca_irc_IRC_Full E -948.715291482695
  C       0.276553      0.001764     -0.531472
  C       1.331600      0.895105     -0.521014
  C       0.259757     -1.055196      0.372609
  C       2.282826      0.724558      0.467895
  C       2.405306     -0.421518      1.230285
  C       1.342422     -1.303680      1.209413
  H       1.394862      1.734058     -1.209689
  C       3.987498      1.425853     -0.053185
  H      -0.563442      0.183162     -1.188685
  H      -0.608839     -1.693997      0.426589
  H       3.277545     -0.566619      1.862417
  H       1.330198     -2.131696      1.905203
  N       3.202165      1.855053      0.769995
  O       5.454196      3.348334      0.644118
  O       4.711985      0.991837     -0.860225
  S       6.005772      3.136820     -0.667006
  O       5.266389      3.672211     -1.772000
17
Coordinates from ORCA-job orca_irc_IRC_Full E -948.719934838584
  C       0.269832     -0.002337     -0.529982
  C       1.318466      0.898774     -0.508203
  C       0.253731     -1.062245      0.370982
  C       2.264605      0.731851      0.484857
  C       2.390855     -0.416666      1.241800
  C       1.335211     -1.307988      1.210602
  H       1.389297      1.735290     -1.199260
  C       4.008121      1.422765     -0.063985
  H      -0.564815      0.175667     -1.195419
  H      -0.613830     -1.701375      0.423724
  H       3.267984     -0.561962      1.866995
  H       1.329551     -2.141433      1.900389
  N       3.206431      1.839236      0.754191
  O       5.473771      3.358649      0.638386
  O       4.730547      0.981338     -0.869220
  S       6.025029      3.171425     -0.669091
  O       5.271843      3.674965     -1.772007
17
Coordinates from ORCA-job orca_irc_IRC_Full E -948.723953274802
  C       0.261963     -0.005471     -0.527378
  C       1.304955      0.902307     -0.495682
  C       0.247775     -1.068708      0.369830
  C       2.252231      0.738337      0.497791
  C       2.376049     -0.412202      1.253229
  C       1.327181     -1.311246      1.213152
  H       1.382187      1.736569     -1.188424
  C       4.023139      1.416399     -0.073665
  H      -0.566327      0.167429     -1.201834
  H      -0.619142     -1.710533      0.419721
  H       3.257340     -0.557656      1.872685
  H       1.328281     -2.151321      1.895053
  N       3.218213      1.824309      0.734636
  O       5.488752      3.370607      0.641684
  O       4.748638      0.975163     -0.874223
  S       6.052888      3.199921     -0.673496
  O       5.272250      3.681875     -1.779045
17
Coordinates from ORCA-job orca_irc_IRC_Full E -948.725194435991
  C       0.259747     -0.006122     -0.526224
  C       1.301478      0.903353     -0.491988
  C       0.245598     -1.070650      0.369674
  C       2.248990      0.739590      0.500752
  C       2.372148     -0.410631      1.256348
  C       1.324700     -1.311829      1.214071
  H       1.379680      1.737042     -1.185291
  C       4.028050      1.414054     -0.077173
  H      -0.566908      0.164959     -1.203588
  H      -0.620357     -1.713381      0.418229
  H       3.253974     -0.556556      1.874667
  H       1.327734     -2.154151      1.893486
  N       3.219330      1.821277      0.731466
  O       5.495412      3.373292      0.637937
  O       4.756069      0.972797     -0.877408
  S       6.055331      3.210457     -0.673720
  O       5.275310      3.682228     -1.777428
17
Coordinates from ORCA-job orca_irc_IRC_Full E -948.727031435634
  C       0.255943     -0.007159     -0.524312
  C       1.295588      0.905016     -0.486196
  C       0.242291     -1.073551      0.369505
  C       2.244023      0.741587      0.505439
  C       2.365647     -0.408374      1.261463
  C       1.320587     -1.312730      1.215670
  H       1.375405      1.737848     -1.180111
  C       4.037308      1.409138     -0.084459
  H      -0.567788      0.160904     -1.206307
  H      -0.622422     -1.718276      0.415654
  H       3.248393     -0.554778      1.878077
  H       1.326776     -2.158667      1.890883
  N       3.222558      1.815855      0.725064
  O       5.504139      3.378399      0.636137
  O       4.765898      0.970543     -0.879833
  S       6.064138      3.225383     -0.675150
  O       5.277652      3.684514     -1.778080
17
Coordinates from ORCA-job orca_irc_IRC_Full E -948.729004793284
  C       0.251440     -0.008233     -0.522040
  C       1.288721      0.906784     -0.479769
  C       0.238548     -1.076677      0.369439
  C       2.238936      0.743903      0.510493
  C       2.358147     -0.406065      1.267255
  C       1.315805     -1.313678      1.217658
  H       1.370211      1.738871     -1.174147
  C       4.045755      1.404319     -0.090733
  H      -0.568798      0.156248     -1.209221
  H      -0.624698     -1.724121      0.412474
  H       3.241859     -0.552804      1.882262
  H       1.325549     -2.163692      1.887888
  N       3.228684      1.808406      0.715303
  O       5.513336      3.384514      0.635774
  O       4.777155      0.968268     -0.882289
  S       6.075965      3.241655     -0.677236
  O       5.279361      3.687871     -1.780087
17
Coordinates from ORCA-job orca_irc_IRC_Full E -948.730882102633
  C       0.246962     -0.009142     -0.519559
  C       1.282217      0.908522     -0.473489
  C       0.234676     -1.079680      0.369528
  C       2.234368      0.745811      0.514874
  C       2.351016     -0.403704      1.272811
  C       1.310958     -1.314411      1.219751
  H       1.364653      1.740005     -1.168286
  C       4.054349      1.399383     -0.097121
  H      -0.569919      0.151705     -1.211846
  H      -0.626637     -1.730080      0.409013
  H       3.235190     -0.550999      1.886754
  H       1.324134     -2.168459      1.885022
  N       3.232425      1.801753      0.707663
  O       5.523442      3.390294      0.633458
  O       4.790545      0.965284     -0.886557
  S       6.085096      3.258500     -0.678814
  O       5.282371      3.690736     -1.780564
17
Coordinates from ORCA-job orca_irc_IRC_Full E -948.732692363196
  C       0.242390     -0.009930     -0.516967
  C       1.275581      0.910135     -0.467446
  C       0.230860     -1.082503      0.369722
  C       2.230106      0.747382      0.518852
  C       2.343835     -0.401642      1.278307
  C       1.306068     -1.315002      1.221972
  H       1.358739      1.741241     -1.162370
  C       4.062377      1.394253     -0.103205
  H      -0.571103      0.147212     -1.214216
  H      -0.628454     -1.736293      0.405287
  H       3.228332     -0.549263      1.891565
  H       1.322544     -2.173042      1.882229
  N       3.238484      1.794188      0.697927
  O       5.532639      3.396371      0.633093
  O       4.802785      0.963426     -0.889075
  S       6.096318      3.274475     -0.680894
  O       5.284257      3.694477     -1.782510
17
Coordinates from ORCA-job orca_irc_IRC_Full E -948.734426767247
  C       0.237758     -0.010640     -0.514246
  C       1.269193      0.911733     -0.461498
  C       0.226949     -1.085284      0.369989
  C       2.226327      0.748755      0.522340
  C       2.336921     -0.399539      1.283652
  C       1.301067     -1.315524      1.224287
  H       1.352506      1.742581     -1.156497
  C       4.070757      1.388906     -0.109583
  H      -0.572420      0.142845     -1.216318
  H      -0.629993     -1.742601      0.401325
  H       3.221325     -0.547643      1.896647
  H       1.320768     -2.177396      1.879593
  N       3.242467      1.787070      0.689819
  O       5.542759      3.402231      0.630930
  O       4.816731      0.961052     -0.892913
  S       6.105173      3.291138     -0.682593
  O       5.287442      3.697798     -1.783005
17
Coordinates from ORCA-job orca_irc_IRC_Full E -948.736088827389
  C       0.233125     -0.011238     -0.511438
  C       1.262773      0.913186     -0.455796
  C       0.223123     -1.087926      0.370314
  C       2.222740      0.749670      0.525397
  C       2.330017     -0.397702      1.288859
  C       1.296093     -1.315882      1.226664
  H       1.345980      1.744008     -1.150621
  C       4.078775      1.383329     -0.115813
  H      -0.573857      0.138624     -1.218129
  H      -0.631386     -1.749078      0.397149
  H       3.214191     -0.546104      1.901997
  H       1.318804     -2.181520      1.877141
  N       3.248245      1.779278      0.680116
  O       5.551995      3.408304      0.630565
  O       4.829645      0.959681     -0.895212
  S       6.115947      3.306965     -0.684696
  O       5.289559      3.701905     -1.784884
17
Coordinates from ORCA-job orca_irc_IRC_Full E -948.737678018032
  C       0.228419     -0.011794     -0.508568
  C       1.256568      0.914605     -0.450236
  C       0.219253     -1.090551      0.370662
  C       2.219632      0.750444      0.528010
  C       2.323377     -0.395880      1.293923
  C       1.291025     -1.316245      1.229118
  H       1.339189      1.745521     -1.144787
  C       4.086975      1.377648     -0.122141
  H      -0.575446      0.134586     -1.219634
  H      -0.632526     -1.755608      0.392783
  H       3.206930     -0.544662      1.907566
  H       1.316646     -2.185374      1.874902
  N       3.252188      1.771755      0.671742
  O       5.562127      3.414206      0.628455
  O       4.844116      0.957842     -0.898688
  S       6.124438      3.323414     -0.686436
  O       5.292976      3.705627     -1.785352
