14
Coordinates from ORCA-job orca E -399.931884847075
  C      -0.082735     -0.070642      0.352380
  C       0.782473      1.021935      0.417554
  C       0.421197     -1.376237      0.406103
  C       2.173885      0.813079      0.538038
  C       2.676680     -0.505698      0.592333
  C       1.800258     -1.588890      0.526010
  H       0.397050      2.034356      0.376356
  C       3.065623      1.920910      0.603643
  H      -1.150542      0.096505      0.259821
  H      -0.255928     -2.222203      0.354837
  H       3.745041     -0.664438      0.685138
  H       2.193632     -2.598933      0.567751
  N       3.814846      2.824037      0.649439
  O       4.614819      3.784519      0.696598
14
Coordinates from ORCA-job orca E -399.935388416590
  C      -0.070331     -0.066254      0.353489
  C       0.791246      1.018808      0.418240
  C       0.430623     -1.364071      0.406846
  C       2.169970      0.805965      0.537530
  C       2.672679     -0.500053      0.591615
  C       1.801318     -1.577102      0.525871
  H       0.408639      2.031834      0.377042
  C       3.065183      1.918777      0.603327
  H      -1.137050      0.102050      0.260920
  H      -0.246640     -2.208965      0.355864
  H       3.740808     -0.657317      0.684425
  H       2.194092     -2.586437      0.567944
  N       3.797567      2.804616      0.648189
  O       4.578197      3.746449      0.694699
14
Coordinates from ORCA-job orca E -399.935574264602
  C      -0.068218     -0.065784      0.353706
  C       0.793558      1.017809      0.418348
  C       0.432016     -1.361942      0.407047
  C       2.168420      0.802130      0.537284
  C       2.671857     -0.499903      0.591382
  C       1.800770     -1.575927      0.525798
  H       0.412177      2.031413      0.377132
  C       3.066715      1.919072      0.603231
  H      -1.135068      0.103079      0.261099
  H      -0.245878     -2.206659      0.356185
  H       3.740105     -0.657107      0.684136
  H       2.192896     -2.585743      0.567969
  N       3.797490      2.805963      0.648083
  O       4.569460      3.741899      0.694602
14
Coordinates from ORCA-job orca E -399.935584016748
  C      -0.068445     -0.065652      0.353703
  C       0.793946      1.018075      0.418256
  C       0.431759     -1.361987      0.407122
  C       2.168441      0.800840      0.537110
  C       2.672420     -0.500776      0.591321
  C       1.800534     -1.576794      0.525814
  H       0.413000      2.031798      0.377033
  C       3.067771      1.919104      0.603128
  H      -1.135311      0.103363      0.261146
  H      -0.246485     -2.206512      0.356355
  H       3.740570     -0.658401      0.684016
  H       2.192012     -2.586900      0.567993
  N       3.798131      2.807717      0.648069
  O       4.567956      3.744425      0.694935
14
Coordinates from ORCA-job orca E -399.935585966112
  C      -0.068404     -0.065308      0.353723
  C       0.794475      1.018407      0.418176
  C       0.431650     -1.361820      0.407218
  C       2.168762      0.799838      0.536979
  C       2.673023     -0.501595      0.591268
  C       1.800405     -1.577415      0.525838
  H       0.413935      2.032224      0.376928
  C       3.068607      1.918640      0.602988
  H      -1.135242      0.103866      0.261218
  H      -0.246928     -2.206102      0.356538
  H       3.741050     -0.659723      0.683894
  H       2.191198     -2.587779      0.568010
  N       3.797861      2.808406      0.647968
  O       4.565908      3.746662      0.695255
14
Coordinates from ORCA-job orca E -399.935586707906
  C      -0.068129     -0.064888      0.353768
  C       0.795172      1.018628      0.418101
  C       0.431612     -1.361537      0.407324
  C       2.169270      0.798974      0.536835
  C       2.673494     -0.502382      0.591190
  C       1.800256     -1.577858      0.525861
  H       0.415051      2.032562      0.376822
  C       3.069401      1.917881      0.602799
  H      -1.134931      0.104499      0.261325
  H      -0.247317     -2.205548      0.356745
  H       3.741410     -0.661042      0.683750
  H       2.190375     -2.588474      0.568038
  N       3.797243      2.808740      0.647826
  O       4.563394      3.748744      0.695614
14
Coordinates from ORCA-job orca E -399.935587114353
  C      -0.067705     -0.064417      0.353834
  C       0.796060      1.018742      0.418004
  C       0.431537     -1.361236      0.407460
  C       2.170012      0.798173      0.536657
  C       2.673865     -0.503255      0.591067
  C       1.800033     -1.578287      0.525886
  H       0.416423      2.032835      0.376682
  C       3.070366      1.916919      0.602552
  H      -1.134460      0.105285      0.261469
  H      -0.247798     -2.204931      0.357011
  H       3.741682     -0.662500      0.683548
  H       2.189464     -2.589165      0.568085
  N       3.796462      2.809080      0.647660
  O       4.560359      3.751056      0.696085
14
Coordinates from ORCA-job orca E -399.935587358331
  C      -0.067240     -0.063982      0.353909
  C       0.797006      1.018735      0.417913
  C       0.431386     -1.361016      0.407597
  C       2.170887      0.797533      0.536479
  C       2.674086     -0.504119      0.590930
  C       1.799752     -1.578707      0.525912
  H       0.417864      2.033014      0.376538
  C       3.071455      1.915930      0.602265
  H      -1.133940      0.106124      0.261623
  H      -0.248356     -2.204390      0.357279
  H       3.741831     -0.663912      0.683323
  H       2.188598     -2.589810      0.568143
  N       3.795700      2.809513      0.647480
  O       4.557272      3.753387      0.696608
