17
 restart for step    4999 ; t =         4999.00 
     C    -0.6050558589   -0.1190141928    0.5156755678   12.0000000000    0.0028750983   -0.0077414164    0.0003273790
     C    -0.3906815354   -1.1399951871   -0.3925662533   12.0000000000    0.0034425564   -0.0085659421    0.0001933558
     C    -1.5230868707   -0.2801102436    1.5630883802   12.0000000000    0.0062360355   -0.0032707480    0.0010749842
     C    -1.2450526106   -2.2734113224   -0.3729439138   12.0000000000   -0.0074080010   -0.0045874319    0.0012653036
     C    -2.1118168876   -2.4698399064    0.7133719690   12.0000000000   -0.0020149091    0.0024149795   -0.0075758825
     C    -2.2673034739   -1.4844389872    1.6826345025   12.0000000000    0.0050852860    0.0008452957   -0.0022981915
     H     0.3619027266   -1.0195000084   -1.1900298603    1.0078250322   -0.0107016378   -0.0056648109   -0.0079329472
     C    -1.1755402170   -3.2932129420   -1.3987147477   12.0000000000   -0.0014833616    0.0000333497    0.0045159456
     H    -0.0717969722    0.8023631084    0.3494678683    1.0078250322   -0.0007524600   -0.0089548927   -0.0087260478
     H    -1.6978388207    0.5732427624    2.2121776966    1.0078250322    0.0053045702   -0.0037264122   -0.0059934302
     H    -2.6908721542   -3.3868269992    0.7473645520    1.0078250322   -0.0104436350    0.0167546108   -0.0006368187
     H    -3.0272142743   -1.5777971101    2.4401857891    1.0078250322    0.0068989818    0.0096374256   -0.0066758803
     N    -0.6661348736   -2.8168134480   -2.7398760859   14.0030740040    0.0038050939   -0.0016241662   -0.0065760453
     O     0.5682261218   -3.0109281759   -2.9958173410   15.9949146200   -0.0056723403   -0.0084500784   -0.0007239602
     O    -1.5714282556   -4.4483023316   -1.3267364605   15.9949146200   -0.0067715092    0.0001965612    0.0021392675
     S     3.4334722960    6.4580199310    1.3509720318   31.9720711740   -0.0009756004    0.0081331242    0.0067549204
     O     2.1633673776    5.6044302171    2.0000609987   15.9949146200    0.0066224080    0.0085701539   -0.0053990157
