17
  00000 4999.00
     C  -2.6556  2.2115  1.0775
     C  -3.7283  3.1422  1.1434
     C  -2.5458  1.3082  2.1425
     C  -4.7214  3.0984  2.2263
     C  -4.5859  2.0815  3.1935
     C  -3.4857  1.1545  3.1859
     H  -3.8699  3.8233  0.2937
     C  -5.9296  4.0000  2.2724
     H  -2.0409  2.1903  0.1770
     H  -1.7110  0.6125  2.0956
     H  -5.3338  2.0327  4.0052
     H  -3.3946  0.3857  3.9489
     N  -5.5887  5.3297  1.6986
     O  -6.1888  5.5473  0.6706
     O  -6.9646  3.7972  2.9809
     S  13.5631 -9.4385 -6.0890
     O  12.7112 -8.4652 -5.0651
17
  00001 4999.00
     C  -14.2329 -10.2468  6.2560
     C  -15.3082 -11.0075  6.7255
     C  -13.5837 -9.3358  7.0972
     C  -15.7373 -10.8627  8.0558
     C  -15.0771 -9.9558  8.9083
     C  -14.0100 -9.1985  8.4233
     H  -15.8180 -11.7182  6.0858
     C  -17.6494 -12.0996  9.2207
     H  -13.9071 -10.3736  5.2285
     H  -12.7470 -8.7518  6.7284
     H  -15.4044 -9.8596  9.9373
     H  -13.5110 -8.5012  9.0875
     N  -16.7906 -11.6413  8.5203
     O  30.2652 21.0944 -15.3701
     O  -18.5448 -12.6180  9.8292
     S  29.0690 20.0286 -15.5577
     O  28.5958 19.3280 -14.1840
17
  00004 4999.00
     C  -4.9233 -4.9752  5.6127
     C  -5.0885 -5.7921  6.7104
     C  -5.9473 -4.9260  4.6745
     C  -6.3057 -6.5597  6.8340
     C  -7.3300 -6.4640  5.8890
     C  -7.1493 -5.6676  4.6988
     H  -4.3686 -5.9095  7.5061
     C  -6.4187 -7.4405  7.9782
     H  -4.0580 -4.3571  5.4232
     H  -5.8134 -4.2235  3.8544
     H  -8.2280 -7.0408  6.1366
     H  -7.8347 -5.5943  3.8584
     N  -5.0194 -7.7368  8.7741
     O  -5.1095 -8.2292  9.9307
     O  -7.4568 -8.0668  8.2622
     S  17.3552 19.0738 -20.1297
     O  16.5613 18.0309 -19.1329
