17
Coordinates from ORCA job orca
  C       0.07755641981527      0.09545546868061     -0.07286972596619
  C       1.05732470571981      1.06449666442672     -0.21511462397706
  C       0.40002600698005     -1.15289966953576      0.45233144411033
  C       2.36894205929773      0.78005020016791      0.16847584468820
  C       2.69389088495836     -0.46768946920638      0.69588771456089
  C       1.70546877858888     -1.43274384662661      0.83580931450298
  H       0.81491817404160      2.04085912641133     -0.61737187467265
  C       3.41191878608293      1.80071884664262      0.00864757417970
  H      -0.94224235469615      0.31432030494846     -0.36841601141480
  H      -0.37040208485250     -1.90802291136639      0.56365948680113
  H       3.71445146275883     -0.68184241012919      0.98850673318631
  H       1.95776941220857     -2.40488386947334      1.24375379038952
  N       3.29566760241958      2.86483499638452     -0.68531755818240
  O       4.49867280595293      3.60038882791535     -0.53786554864364
  O       4.59970053548061      1.61154609266363      0.64911576298471
  S       5.72586902313102      2.67267216467618      0.02858368580166
  O       6.36486778211241      1.99973948342033     -1.06711600834868
