28
C14N2H10O2
C        0.437474000      0.168402000     -0.736901000
C        1.552131000      0.971575000     -0.517064000
C        0.173570000     -0.913092000      0.121694000
C        2.411323000      0.658520000      0.554579000
C        2.140690000     -0.404176000      1.436711000
C        1.018595000     -1.198338000      1.204867000
H        1.777379000      1.819516000     -1.153188000
C        3.990518000      1.133631000      0.419986000
H       -0.231294000      0.382523000     -1.562497000
H       -0.701347000     -1.530688000     -0.051050000
H        2.806050000     -0.588871000      2.271826000
H        0.796279000     -2.028765000      1.864879000
N        3.430795000      1.949226000      1.182416000
O        5.922750000      2.600526000      1.170974000
O        4.921949000      0.615848000     -0.289260000
N        5.969484000      1.667226000     -0.992289000
C        6.348161000      2.546743000     -0.034109000
C        7.357669000      3.536665000     -0.543687000
C        7.766205000      4.542943000      0.343390000
C        7.893708000      3.489204000     -1.841976000
C        8.702975000      5.496381000     -0.063095000
C        8.828723000      4.446087000     -2.244225000
C        9.235468000      5.451092000     -1.357019000
H        7.337454000      4.552813000      1.338533000
H        7.581067000      2.707435000     -2.524433000
H        9.016860000      6.272655000      0.627695000
H        9.242221000      4.406830000     -3.247122000
H        9.963486000      6.192236000     -1.672309000
