17
Coordinates from ORCA-job /scratch/obeletsan/orcajob__14297-bIyy/ts1
  C   -2.41248347968363     -0.74335260389531     -0.35851471482166
  C   -1.54181352122553      0.32638936705084     -0.49236822038065
  C   -1.96236950105067     -1.95860929856658      0.15407112930314
  C   -0.19386901792036      0.16910727496446     -0.12546297962196
  C   0.26087692080421     -1.05216518097428      0.39111700815344
  C   -0.62990048981289     -2.10648334538033      0.53003439614144
  H   -1.88420829420937      1.27924897185591     -0.88243742073415
  C   0.70738380981972      1.25660048153453     -0.27603968285443
  H   -3.45197800575523     -0.62518017108314     -0.64889075575332
  H   -2.65273710948115     -2.78951564677472      0.26261063443585
  H   1.30072188461409     -1.14979347029556      0.68088597973482
  H   -0.27933996659281     -3.05181351545059      0.93245078648071
  N   0.98925319772108      2.29396197769863     -0.81653948046215
  O   1.85493762041113      3.19033035395572     -0.76998946750822
  O   2.23490387346654      1.21778504500623      1.07695337049647
  S   3.35059780150459      2.16347509278643      0.64924784866750
  O   4.31002427739026      1.58001666756777     -0.30712643127685
