17
 restart for step    4999 ; t =         4999.00 
     C    -5.0176856949   -3.7042399161    5.3356943658   12.0000000000    0.0006712343    0.0007914647    0.0003930660
     C    -5.8819908852   -4.5923927813    5.9698586982   12.0000000000   -0.0037514730   -0.0008369500    0.0072071322
     C    -4.9856205656   -3.6302198675    3.9265254473   12.0000000000   -0.0040877623   -0.0049297014   -0.0009630822
     C    -6.7217142120   -5.4273032389    5.2348381986   12.0000000000   -0.0049421042   -0.0043364527   -0.0056598238
     C    -6.6993190046   -5.3616400610    3.8422526429   12.0000000000   -0.0011189821    0.0011817732    0.0021299676
     C    -5.8405927855   -4.4675017344    3.1744917988   12.0000000000   -0.0055131813   -0.0051635704    0.0035119151
     H    -5.9162727792   -4.6241483856    7.0462310012    1.0078250322    0.0037854638    0.0011728599    0.0089410867
     C    -7.6311125731   -6.3902288200    5.8429142777   12.0000000000   -0.0043058050   -0.0050397429    0.0050815381
     H    -4.3612806132   -3.0455592632    5.9096933774    1.0078250322   -0.0041780263   -0.0082823665    0.0240220575
     H    -4.3208374427   -2.9138916754    3.4206890585    1.0078250322    0.0082110826    0.0043115202    0.0174971305
     H    -7.3536519377   -5.9887242292    3.2537324629    1.0078250322   -0.0019880321    0.0011143835    0.0066439368
     H    -5.8290016050   -4.4365287116    2.0887659224    1.0078250322    0.0032330334   -0.0043363111   -0.0032943964
     N    -7.3718200278   -6.4582719479    7.3676948849   14.0030740040   -0.0054582006   -0.0062790418    0.0054826618
     O    -7.8584778402   -7.5506412572    7.9191398330   15.9949146200   -0.0003788238    0.0016603311    0.0005606595
     O    -8.5188615492   -7.0708747627    5.2936049482   15.9949146200   -0.0013944788   -0.0013561406    0.0014448767
     S    19.0443240201   16.0499402097  -15.6215518614   31.9720711740    0.0084678509    0.0064052118   -0.0055024479
     O    18.6078307551   14.7053797713  -14.8085631449   15.9949146200    0.0063459618    0.0065231778   -0.0079754898
