-------------------------------------------------------------
----------------------- !PROPERTIES! ------------------------
-------------------------------------------------------------
# -----------------------------------------------------------
$ PAL_Flags
   description: The PAL Flags
   geom. index: 1
   prop. index: 1
        Diskflag:     2
# -----------------------------------------------------------
$ SCF_Energy
   description: The SCF energy
   geom. index: 1
   prop. index: 1
        SCF Energy:     -399.5571456315
# -----------------------------------------------------------
$ DFT_Energy
   description: The DFT energy
   geom. index: 1
   prop. index: 1
   Number of Alpha Electrons                 30.9999859298 
   Number of Beta  Electrons                 30.9999859298 
   Total number of  Electrons                61.9999718597 
   Exchange energy                          -53.0207417017 
   Correlation energy                        -2.0243052470 
   Correlation energy NL                      0.0000000000 
   Exchange-Correlation energy              -55.0450469487 
   Embedding correction                       0.0000000000 
   Total DFT Energy (No VdW correction)    -399.5571456315 
# -----------------------------------------------------------
$ Mayer_Pop
   description: The Mayer population analysis
   geom. index: 1
   prop. index: 1
     Number of atoms                     : 14
     Threshold for printing              : 0.1000000
     Number of bond orders printed       : 15
  NA   - Mulliken gross atomic population
  ZA   - Total nuclear charge
  QA   - Mulliken gross atomic charge
  VA   - Mayer's total valence
  BVA  - Mayer's bonded valence
  FA   - Mayer's free valence
  ATOM       NA         ZA         QA         VA         BVA        FA
  0   0     6.1629     6.0000    -0.1629     3.8342     3.8342     0.0000
  1   0     6.1792     6.0000    -0.1792     3.8323     3.8323     0.0000
  2   0     6.1215     6.0000    -0.1215     3.8108     3.8108     0.0000
  3   0     6.0162     6.0000    -0.0162     3.8977     3.8977     0.0000
  4   0     6.1815     6.0000    -0.1815     3.8367     3.8367    -0.0000
  5   0     6.1621     6.0000    -0.1621     3.8342     3.8342    -0.0000
  6   0     0.8403     1.0000     0.1597     0.9657     0.9657     0.0000
  7   0     5.8484     6.0000     0.1516     3.8694     3.8694    -0.0000
  8   0     0.8467     1.0000     0.1533     0.9674     0.9674    -0.0000
  9   0     0.8455     1.0000     0.1545     0.9662     0.9662     0.0000
 10   0     0.8403     1.0000     0.1597     0.9658     0.9658    -0.0000
 11   0     0.8466     1.0000     0.1534     0.9674     0.9674     0.0000
 12   0     6.6969     7.0000     0.3031     3.9766     3.9766     0.0000
 13   0     8.4118     8.0000    -0.4118     2.0901     2.0901    -0.0000
      Bond orders larger than 0.1000000
           Atom A     A.N. of A          Atom B    A.N. of B              Bond order
                0             6               1            6                1.428418
                0             6               2            6                1.404272
                0             6               8            1                0.949652
                1             6               3            6                1.366114
                1             6               6            1                0.954117
                2             6               5            6                1.403549
                2             6               9            1                0.944354
                3             6               4            6                1.367666
                3             6               7            6                1.183257
                4             6               5            6                1.429815
                4             6              10            1                0.954077
                5             6              11            1                0.949621
                7             6              12            7                2.367153
                7             6              13            8                0.387134
               12             7              13            8                1.562964
# -----------------------------------------------------------
$ VdW_Correction
   description: The Van der Waals Correction
   geom. index: 1
   prop. index: 1
        Van der Waals Correction:       -0.0045314844
# -----------------------------------------------------------
$ PAL_Flags
   description: The PAL Flags
   geom. index: 2
   prop. index: 1
        Diskflag:     2
# -----------------------------------------------------------
$ SCF_Energy
   description: The SCF energy
   geom. index: 2
   prop. index: 1
        SCF Energy:     -399.5599114835
# -----------------------------------------------------------
$ DFT_Energy
   description: The DFT energy
   geom. index: 2
   prop. index: 1
   Number of Alpha Electrons                 30.9999858756 
   Number of Beta  Electrons                 30.9999858756 
   Total number of  Electrons                61.9999717512 
   Exchange energy                          -53.0789249540 
   Correlation energy                        -2.0278378471 
   Correlation energy NL                      0.0000000000 
   Exchange-Correlation energy              -55.1067628012 
   Embedding correction                       0.0000000000 
   Total DFT Energy (No VdW correction)    -399.5599114835 
# -----------------------------------------------------------
$ VdW_Correction
   description: The Van der Waals Correction
   geom. index: 2
   prop. index: 1
        Van der Waals Correction:       -0.0045519851
# -----------------------------------------------------------
$ PAL_Flags
   description: The PAL Flags
   geom. index: 3
   prop. index: 1
        Diskflag:     2
# -----------------------------------------------------------
$ SCF_Energy
   description: The SCF energy
   geom. index: 3
   prop. index: 1
        SCF Energy:     -399.5600619351
# -----------------------------------------------------------
$ DFT_Energy
   description: The DFT energy
   geom. index: 3
   prop. index: 1
   Number of Alpha Electrons                 30.9999853270 
   Number of Beta  Electrons                 30.9999853270 
   Total number of  Electrons                61.9999706541 
   Exchange energy                          -53.0947598001 
   Correlation energy                        -2.0289355710 
   Correlation energy NL                      0.0000000000 
   Exchange-Correlation energy              -55.1236953712 
   Embedding correction                       0.0000000000 
   Total DFT Energy (No VdW correction)    -399.5600619351 
# -----------------------------------------------------------
$ VdW_Correction
   description: The Van der Waals Correction
   geom. index: 3
   prop. index: 1
        Van der Waals Correction:       -0.0045562294
# -----------------------------------------------------------
$ PAL_Flags
   description: The PAL Flags
   geom. index: 4
   prop. index: 1
        Diskflag:     2
# -----------------------------------------------------------
$ SCF_Energy
   description: The SCF energy
   geom. index: 4
   prop. index: 1
        SCF Energy:     -399.5600765576
# -----------------------------------------------------------
$ DFT_Energy
   description: The DFT energy
   geom. index: 4
   prop. index: 1
   Number of Alpha Electrons                 30.9999852282 
   Number of Beta  Electrons                 30.9999852282 
   Total number of  Electrons                61.9999704563 
   Exchange energy                          -53.0916486606 
   Correlation energy                        -2.0287513138 
   Correlation energy NL                      0.0000000000 
   Exchange-Correlation energy              -55.1203999744 
   Embedding correction                       0.0000000000 
   Total DFT Energy (No VdW correction)    -399.5600765576 
# -----------------------------------------------------------
$ VdW_Correction
   description: The Van der Waals Correction
   geom. index: 4
   prop. index: 1
        Van der Waals Correction:       -0.0045551254
# -----------------------------------------------------------
$ PAL_Flags
   description: The PAL Flags
   geom. index: 5
   prop. index: 1
        Diskflag:     2
# -----------------------------------------------------------
$ SCF_Energy
   description: The SCF energy
   geom. index: 5
   prop. index: 1
        SCF Energy:     -399.5600771715
# -----------------------------------------------------------
$ DFT_Energy
   description: The DFT energy
   geom. index: 5
   prop. index: 1
   Number of Alpha Electrons                 30.9999851160 
   Number of Beta  Electrons                 30.9999851160 
   Total number of  Electrons                61.9999702319 
   Exchange energy                          -53.0914787679 
   Correlation energy                        -2.0287441342 
   Correlation energy NL                      0.0000000000 
   Exchange-Correlation energy              -55.1202229021 
   Embedding correction                       0.0000000000 
   Total DFT Energy (No VdW correction)    -399.5600771715 
# -----------------------------------------------------------
$ Mayer_Pop
   description: The Mayer population analysis
   geom. index: 5
   prop. index: 1
     Number of atoms                     : 14
     Threshold for printing              : 0.1000000
     Number of bond orders printed       : 15
  NA   - Mulliken gross atomic population
  ZA   - Total nuclear charge
  QA   - Mulliken gross atomic charge
  VA   - Mayer's total valence
  BVA  - Mayer's bonded valence
  FA   - Mayer's free valence
  ATOM       NA         ZA         QA         VA         BVA        FA
  0   0     6.1651     6.0000    -0.1651     3.8380     3.8380     0.0000
  1   0     6.1835     6.0000    -0.1835     3.8390     3.8390    -0.0000
  2   0     6.1230     6.0000    -0.1230     3.8143     3.8143    -0.0000
  3   0     6.0188     6.0000    -0.0188     3.9088     3.9088     0.0000
  4   0     6.1858     6.0000    -0.1858     3.8426     3.8426    -0.0000
  5   0     6.1643     6.0000    -0.1643     3.8382     3.8382     0.0000
  6   0     0.8419     1.0000     0.1581     0.9664     0.9664     0.0000
  7   0     5.8547     6.0000     0.1453     3.8490     3.8490     0.0000
  8   0     0.8480     1.0000     0.1520     0.9680     0.9680     0.0000
  9   0     0.8467     1.0000     0.1533     0.9668     0.9668    -0.0000
 10   0     0.8419     1.0000     0.1581     0.9665     0.9665    -0.0000
 11   0     0.8480     1.0000     0.1520     0.9679     0.9679    -0.0000
 12   0     6.6931     7.0000     0.3069     3.9844     3.9844     0.0000
 13   0     8.3855     8.0000    -0.3855     2.1384     2.1384    -0.0000
      Bond orders larger than 0.1000000
           Atom A     A.N. of A          Atom B    A.N. of B              Bond order
                0             6               1            6                1.431669
                0             6               2            6                1.407720
                0             6               8            1                0.949235
                1             6               3            6                1.373305
                1             6               6            1                0.954473
                2             6               5            6                1.407286
                2             6               9            1                0.943846
                3             6               4            6                1.374970
                3             6               7            6                1.195453
                4             6               5            6                1.432815
                4             6              10            1                0.954360
                5             6              11            1                0.949192
                7             6              12            7                2.341295
                7             6              13            8                0.389511
               12             7              13            8                1.607836
# -----------------------------------------------------------
$ VdW_Correction
   description: The Van der Waals Correction
   geom. index: 5
   prop. index: 1
        Van der Waals Correction:       -0.0045549852
# -----------------------------------------------------------
$ SCF_Electric_Properties
   description: The SCF Calculated Electric Properties
   geom. index: 5
   prop. index: 1
       Filename                          : /scratch/obeletsan/orcajob__14286-CbRs/reagent.scfp 
       Do Dipole Moment Calculation      : true 
       Do Quadrupole Moment Calculation  : false 
       Do Polarizability Calculation     : false 
** Dipole moment part of electric properties **
        Magnitude of dipole moment (Debye) :        4.0940523737
        Electronic Contribution:
                  0    
      0       4.634885
      1       5.742710
      2       0.332399
        Nuclear Contribution:
                  0    
      0      -5.649085
      1      -6.992072
      2      -0.401822
        Total Dipole moment:
                  0    
      0      -1.014200
      1      -1.249362
      2      -0.069423
# -----------------------------------------------------------
$ Hessian
   description: Details about the Hessian
   geom. index: 5
   prop. index: 1
Normal modes:
Number of Rows: 42 Number of Columns: 42
                  0          1          2          3          4          5    
      0       0.000000   0.000000   0.000000   0.000000   0.000000   0.000000
      1       0.000000   0.000000   0.000000   0.000000   0.000000   0.000000
      2       0.000000   0.000000   0.000000   0.000000   0.000000   0.000000
      3       0.000000   0.000000   0.000000   0.000000   0.000000   0.000000
      4       0.000000   0.000000   0.000000   0.000000   0.000000   0.000000
      5       0.000000   0.000000   0.000000   0.000000   0.000000   0.000000
      6       0.000000   0.000000   0.000000   0.000000   0.000000   0.000000
      7       0.000000   0.000000   0.000000   0.000000   0.000000   0.000000
      8       0.000000   0.000000   0.000000   0.000000   0.000000   0.000000
      9       0.000000   0.000000   0.000000   0.000000   0.000000   0.000000
     10       0.000000   0.000000   0.000000   0.000000   0.000000   0.000000
     11       0.000000   0.000000   0.000000   0.000000   0.000000   0.000000
     12       0.000000   0.000000   0.000000   0.000000   0.000000   0.000000
     13       0.000000   0.000000   0.000000   0.000000   0.000000   0.000000
     14       0.000000   0.000000   0.000000   0.000000   0.000000   0.000000
     15       0.000000   0.000000   0.000000   0.000000   0.000000   0.000000
     16       0.000000   0.000000   0.000000   0.000000   0.000000   0.000000
     17       0.000000   0.000000   0.000000   0.000000   0.000000   0.000000
     18       0.000000   0.000000   0.000000   0.000000   0.000000   0.000000
     19       0.000000   0.000000   0.000000   0.000000   0.000000   0.000000
     20       0.000000   0.000000   0.000000   0.000000   0.000000   0.000000
     21       0.000000   0.000000   0.000000   0.000000   0.000000   0.000000
     22       0.000000   0.000000   0.000000   0.000000   0.000000   0.000000
     23       0.000000   0.000000   0.000000   0.000000   0.000000   0.000000
     24       0.000000   0.000000   0.000000   0.000000   0.000000   0.000000
     25       0.000000   0.000000   0.000000   0.000000   0.000000   0.000000
     26       0.000000   0.000000   0.000000   0.000000   0.000000   0.000000
     27       0.000000   0.000000   0.000000   0.000000   0.000000   0.000000
     28       0.000000   0.000000   0.000000   0.000000   0.000000   0.000000
     29       0.000000   0.000000   0.000000   0.000000   0.000000   0.000000
     30       0.000000   0.000000   0.000000   0.000000   0.000000   0.000000
     31       0.000000   0.000000   0.000000   0.000000   0.000000   0.000000
     32       0.000000   0.000000   0.000000   0.000000   0.000000   0.000000
     33       0.000000   0.000000   0.000000   0.000000   0.000000   0.000000
     34       0.000000   0.000000   0.000000   0.000000   0.000000   0.000000
     35       0.000000   0.000000   0.000000   0.000000   0.000000   0.000000
     36       0.000000   0.000000   0.000000   0.000000   0.000000   0.000000
     37       0.000000   0.000000   0.000000   0.000000   0.000000   0.000000
     38       0.000000   0.000000   0.000000   0.000000   0.000000   0.000000
     39       0.000000   0.000000   0.000000   0.000000   0.000000   0.000000
     40       0.000000   0.000000   0.000000   0.000000   0.000000   0.000000
     41       0.000000   0.000000   0.000000   0.000000   0.000000   0.000000
                  6          7          8          9         10         11    
      0      -0.054101   0.011214  -0.003339   0.019115  -0.078465   0.041253
      1      -0.155769   0.001986  -0.000714  -0.000065  -0.164641   0.168473
      2      -0.003118  -0.114183   0.032173  -0.212495  -0.012891   0.000051
      3      -0.193773  -0.010743  -0.022122  -0.014494  -0.224044  -0.063936
      4      -0.043268   0.002836   0.001562   0.000841   0.013434   0.208052
      5      -0.012109   0.166340   0.248118   0.210815  -0.012815  -0.004926
      6       0.114247   0.021909   0.021455  -0.000836  -0.000148   0.232402
      7      -0.089843  -0.000239  -0.003124   0.001176  -0.144158   0.229729
      8       0.006902  -0.267834  -0.256806  -0.000621   0.002489   0.017404
      9      -0.168977  -0.020196  -0.011419   0.002694  -0.157234  -0.122905
     10       0.138422   0.001208   0.001050  -0.002282   0.161568  -0.006038
     11      -0.011970   0.272399   0.125475  -0.000179  -0.013609  -0.010921
     12       0.002976  -0.014000  -0.021997   0.020039  -0.175429   0.117576
     13       0.201645  -0.000494   0.001867  -0.004774   0.171734   0.141529
     14      -0.001065   0.170698   0.248187  -0.209911  -0.024009   0.006735
     15       0.142617   0.008001  -0.003022  -0.019206   0.013055   0.219941
     16       0.088903  -0.001394  -0.000274   0.000804   0.037558   0.137300
     17       0.008066  -0.109612   0.030793   0.212955   0.007261   0.019958
     18      -0.323993  -0.017509  -0.028693  -0.032700  -0.435440   0.034869
     19      -0.092844   0.004340   0.001907   0.003851  -0.064874   0.244469
     20      -0.020020   0.266642   0.318866   0.455561  -0.023448   0.005044
     21      -0.296555  -0.028895   0.036782  -0.005582   0.388139  -0.015841
     22       0.242207   0.001390  -0.004975   0.004152  -0.205637  -0.310520
     23      -0.021301   0.396628  -0.433603  -0.000441   0.036598  -0.001522
     24      -0.076028   0.020679   0.000008   0.039505  -0.098106   0.013200
     25      -0.294894   0.003027  -0.001250   0.000294  -0.280418  -0.018280
     26      -0.003913  -0.221514  -0.007429  -0.446866  -0.022348  -0.003340
     27       0.223975   0.040123   0.051337  -0.001933   0.071484   0.262833
     28      -0.178347  -0.000979  -0.006237   0.002104  -0.202874   0.207370
     29       0.013986  -0.499552  -0.605232  -0.000945   0.010343   0.019638
     30       0.023595  -0.023136  -0.028095   0.040435  -0.159670   0.151305
     31       0.339732  -0.001563   0.002672  -0.009253   0.276719   0.382126
     32      -0.000284   0.274072   0.319604  -0.452414  -0.032302   0.004815
     33       0.273635   0.015074   0.000886  -0.041836   0.199054   0.166063
     34       0.140064  -0.002974  -0.000466   0.001807   0.111598   0.118964
     35       0.016120  -0.213551  -0.009958   0.448897   0.029584   0.017973
     36       0.048166   0.000158   0.011418  -0.002978   0.255773  -0.101189
     37      -0.042841  -0.001109  -0.000088   0.001972  -0.074530  -0.302432
     38       0.003815  -0.019846  -0.122917  -0.001061   0.022988  -0.009044
     39       0.290479   0.022182  -0.006962   0.001091  -0.021640  -0.257463
     40      -0.243871  -0.003117   0.003746  -0.001539   0.172959  -0.220651
     41       0.022244  -0.343755   0.110859   0.000570  -0.004984  -0.014953
                 12         13         14         15         16         17    
      0       0.002541  -0.011952  -0.030051   0.355883   0.014248  -0.271417
      1       0.000541   0.001077   0.024886   0.054327  -0.001307   0.082226
      2      -0.024552   0.138634  -0.002999   0.029808  -0.172740  -0.023406
      3      -0.000466  -0.001508   0.056661   0.005689  -0.009651  -0.250819
      4       0.002167   0.000180  -0.062611   0.304984   0.000806   0.078477
      5      -0.016065   0.014541   0.004599  -0.001774   0.110490  -0.022497
      6       0.000148   0.017471  -0.046787   0.105831  -0.009520   0.168711
      7       0.001506  -0.001788   0.029815  -0.087125   0.001300   0.209825
      8       0.027841  -0.202749  -0.003727   0.010088   0.114053   0.012017
      9      -0.010054   0.029175   0.058233  -0.102890   0.011123  -0.135840
     10       0.000885  -0.002795  -0.042755   0.084892  -0.001476  -0.168502
     11       0.092735  -0.345351   0.006983  -0.009963  -0.132186  -0.009227
     12       0.001638  -0.001556   0.066702  -0.296903  -0.009219   0.128792
     13       0.000867   0.000589  -0.041635  -0.069279   0.000826  -0.229762
     14      -0.017465   0.015311   0.006419  -0.024673   0.110613   0.012449
     15       0.004222  -0.011641  -0.037569   0.021763   0.014932   0.137764
     16       0.000140   0.001393   0.022389  -0.359347  -0.001533  -0.250593
     17      -0.022128   0.137965  -0.003810   0.004538  -0.172824   0.014367
     18       0.011452  -0.029877   0.124021  -0.141922  -0.043087  -0.042868
     19       0.000977   0.002946  -0.037736   0.248720   0.004343   0.165383
     20      -0.155811   0.347006   0.006909  -0.014880   0.509379  -0.006121
     21       0.039291  -0.006819  -0.370286  -0.085462   0.001335   0.015462
     22      -0.012237   0.000625   0.309878   0.070469  -0.000268   0.027178
     23      -0.412945   0.089931  -0.042361  -0.007966  -0.015743   0.003537
     24       0.009658  -0.040409  -0.018196   0.333464  -0.007923  -0.335137
     25      -0.002927   0.003671   0.094916  -0.099852   0.000568  -0.297777
     26      -0.113086   0.472125  -0.004026   0.028070   0.086936  -0.025024
     27       0.002000   0.025848  -0.035400  -0.240446  -0.049635   0.165411
     28       0.001277  -0.002768   0.020606   0.192711   0.005167   0.208477
     29       0.007430  -0.298893  -0.003284  -0.021760   0.586447   0.012263
     30       0.014130  -0.029934   0.055836  -0.274037  -0.043211   0.169171
     31       0.002879   0.003834  -0.120724   0.085134   0.004576  -0.007054
     32      -0.158651   0.348306   0.003937  -0.022412   0.509099   0.013702
     33       0.011646  -0.039726  -0.096972   0.169281  -0.007650  -0.218677
     34      -0.000531   0.004353  -0.001755  -0.303547   0.000557  -0.394059
     35      -0.108373   0.471302  -0.010733   0.018149   0.087317  -0.014007
     36      -0.073463  -0.006672   0.572719   0.016648  -0.000899   0.064714
     37       0.018024   0.000781  -0.469558  -0.014212   0.000246   0.078277
     38       0.775322   0.085818   0.066768   0.001736   0.012141   0.004213
     39       0.033236   0.003149  -0.275848  -0.007827   0.000394   0.115420
     40      -0.011285  -0.000904   0.233868   0.005491   0.000066   0.140373
     41      -0.365948  -0.045729  -0.031819  -0.000754  -0.003944   0.007094
                 18         19         20         21         22         23    
      0      -0.000751  -0.005656   0.000803  -0.008032  -0.006299   0.013927
      1       0.000050   0.000527  -0.000146   0.000789   0.000537   0.001891
      2       0.006170   0.064805  -0.008852   0.094233   0.076469   0.001580
      3      -0.007560  -0.006929  -0.008070   0.006853   0.002389  -0.144470
      4       0.000771   0.000556   0.000877  -0.000758  -0.000589   0.364568
      5       0.087208   0.081707   0.094456  -0.080191  -0.027241  -0.015675
      6      -0.009339  -0.000105   0.008438  -0.000069   0.008058  -0.252279
      7       0.001086   0.000037  -0.000872   0.000065  -0.000342  -0.314427
      8       0.110172   0.000173  -0.099748   0.000395  -0.090786  -0.019274
      9       0.013473   0.000090   0.004535  -0.000080   0.000487   0.021601
     10      -0.001517  -0.000044  -0.000419   0.000012  -0.000170   0.027396
     11      -0.159789  -0.000197  -0.052971   0.000105  -0.007070   0.001401
     12      -0.007314   0.007090  -0.008004  -0.006844   0.001920   0.385909
     13       0.000596  -0.000714   0.000779   0.000706  -0.000238  -0.064310
     14       0.087334  -0.081426   0.094574   0.080180  -0.026908   0.033378
     15      -0.000447   0.005522   0.000735   0.008125  -0.006608  -0.001162
     16       0.000033  -0.000377  -0.000033  -0.000806   0.000771   0.014204
     17       0.006597  -0.064874  -0.008978  -0.094633   0.075856   0.000081
     18       0.016287   0.045370   0.047590  -0.037504  -0.020775  -0.189729
     19      -0.001521  -0.004595  -0.004750   0.003643   0.001599   0.369054
     20      -0.191546  -0.532594  -0.562950   0.441790   0.243303  -0.016813
     21      -0.001976   0.000009  -0.001119   0.000011   0.000335   0.002395
     22       0.000300  -0.000002   0.000199  -0.000019  -0.000079   0.002461
     23       0.025071   0.000073   0.013991  -0.000013  -0.004320   0.000004
     24       0.045654   0.038252  -0.006939   0.045409   0.043837   0.001248
     25      -0.004796  -0.003719   0.000613  -0.004546  -0.004860   0.042567
     26      -0.538917  -0.450321   0.082013  -0.533001  -0.512316  -0.002909
     27       0.045461   0.000145  -0.047740   0.000065  -0.048819  -0.263512
     28      -0.004428  -0.000090   0.004676   0.000142   0.005341  -0.328988
     29      -0.531323  -0.000894   0.559646  -0.002554   0.576652  -0.016756
     30       0.016689  -0.045292   0.048210   0.037818  -0.021009   0.399576
     31      -0.001677   0.004519  -0.005173  -0.003799   0.002047  -0.107668
     32      -0.193349   0.531719  -0.563938  -0.442683   0.241169   0.037077
     33       0.045916  -0.038417  -0.007124  -0.045583   0.042870   0.041397
     34      -0.004754   0.003965   0.000753   0.004575  -0.004324   0.010115
     35      -0.540564   0.449257   0.082970   0.535527  -0.508935   0.001072
     36      -0.000710  -0.000018  -0.000184   0.000010  -0.000033  -0.004817
     37       0.000181   0.000015   0.000031  -0.000006   0.000027  -0.006047
     38       0.009260  -0.000001   0.002252   0.000001   0.000620  -0.000400
     39       0.000349  -0.000004   0.000031   0.000005   0.000063  -0.014534
     40      -0.000067  -0.000005  -0.000072   0.000013   0.000071  -0.017611
     41      -0.004471  -0.000016  -0.000987   0.000000  -0.000056  -0.000876
                 24         25         26         27         28         29    
      0       0.184241   0.080539   0.134270   0.004990   0.010559  -0.001694
      1      -0.100358   0.005480   0.028070   0.042151   0.053927   0.118986
      2       0.016422   0.006789   0.011184   0.000093   0.000451  -0.001106
      3      -0.093147  -0.021151   0.023042  -0.004074  -0.049687  -0.081961
      4       0.025077  -0.111543  -0.010797   0.003571  -0.024656   0.014640
      5      -0.008152  -0.000834   0.002079  -0.000396  -0.004048  -0.007086
      6       0.072782  -0.073592  -0.050395   0.049237   0.004554   0.047479
      7       0.091435   0.059005  -0.063328  -0.039781   0.005531  -0.038403
      8       0.005637  -0.006778  -0.003772   0.004547   0.000336   0.004388
      9      -0.027959  -0.052211  -0.249843  -0.005481  -0.006190   0.214523
     10      -0.034201   0.042150  -0.312138   0.004266  -0.007727  -0.173791
     11      -0.002102  -0.004842  -0.018438  -0.000506  -0.000490   0.019792
     12       0.045000   0.103891  -0.015851  -0.004373  -0.013467  -0.031432
     13      -0.085872   0.044830   0.020937   0.003303  -0.054091   0.077167
     14       0.004606   0.008486  -0.001522  -0.000375  -0.000703  -0.003331
     15      -0.136750   0.012498  -0.001867  -0.040038   0.050087  -0.116109
     16       0.158654  -0.080574   0.137230  -0.013742   0.021883  -0.023631
     17      -0.013192   0.001771  -0.001354  -0.003326   0.004112  -0.009731
     18      -0.417959  -0.401761   0.473045  -0.162653  -0.450238  -0.526399
     19      -0.102409  -0.266350   0.145164  -0.056912  -0.179147  -0.150007
     20      -0.034634  -0.032068   0.038454  -0.013336  -0.036668  -0.043575
     21      -0.008401   0.012640  -0.079154  -0.000937  -0.007952  -0.011619
     22      -0.009757  -0.010596  -0.093459   0.000720  -0.009480   0.010524
     23      -0.000336   0.001184  -0.004096  -0.000085  -0.000439  -0.001112
     24       0.136910   0.128681   0.183472   0.073675   0.081520  -0.081743
     25      -0.473833   0.264662   0.294045   0.480368   0.500666  -0.362437
     26       0.016735   0.008948   0.013647   0.002062   0.002639  -0.004210
     27       0.081794  -0.430247  -0.048970   0.525685   0.005569   0.021045
     28       0.104856   0.347164  -0.060478  -0.424789   0.005529  -0.016975
     29       0.004921  -0.039740  -0.003832   0.048430   0.000444   0.001839
     30      -0.009420   0.173616   0.039577   0.020790  -0.078479   0.033812
     31      -0.429098   0.452466   0.492304   0.172212  -0.479875   0.546400
     32       0.002845   0.011028  -0.001213   0.000156  -0.002444  -0.002134
     33      -0.491759  -0.226981   0.249300  -0.452812   0.469997   0.334281
     34       0.032103  -0.182096   0.243342  -0.174823   0.186771   0.157054
     35      -0.041158  -0.017874   0.019397  -0.037048   0.038390   0.027147
     36       0.001105   0.001819  -0.005435   0.000203  -0.002540  -0.002275
     37       0.001306  -0.001627  -0.006274  -0.000181  -0.003096   0.002592
     38       0.000075   0.000169  -0.000106   0.000019  -0.000169  -0.000221
     39       0.016334  -0.000889   0.128181   0.000034   0.009510   0.001395
     40       0.019827   0.001069   0.155460   0.000042   0.011536  -0.002351
     41       0.001003  -0.000090   0.007848   0.000002   0.000584   0.000151
                 30         31         32         33         34         35    
      0      -0.023631   0.061776   0.089914   0.003363  -0.127570  -0.117911
      1      -0.076543  -0.065813   0.142347  -0.156948   0.173704  -0.267005
      2      -0.001395   0.005796   0.006449   0.001616  -0.012336  -0.007777
      3       0.160623  -0.134244  -0.017304  -0.111096   0.196519   0.230284
      4       0.074028  -0.027782  -0.115245   0.008860  -0.025778   0.177836
      5       0.013017  -0.011206  -0.000486  -0.009519   0.016939   0.018107
      6      -0.132730   0.033327  -0.067891   0.067365   0.291633   0.092867
      7       0.107326   0.041122   0.055606   0.080936  -0.237262   0.112345
      8      -0.012223   0.002508  -0.006251   0.005073   0.026864   0.006991
      9      -0.038061  -0.068746  -0.109911   0.133247  -0.185949  -0.123578
     10       0.030709  -0.086932   0.088967   0.164833   0.150035  -0.150770
     11      -0.003503  -0.004830  -0.010145   0.009737  -0.017132  -0.009150
     12      -0.037932  -0.000851   0.108449   0.031801   0.065001   0.125228
     13      -0.173400  -0.138377   0.038963  -0.107644  -0.189475   0.261263
     14      -0.001762   0.001116   0.008930   0.003651   0.007217   0.008430
     15       0.069324  -0.073185  -0.120934  -0.154571  -0.192315  -0.237421
     16       0.039548   0.049257  -0.117998  -0.028979   0.090571  -0.171782
     17       0.005575  -0.006689  -0.009304  -0.012945  -0.017188  -0.018819
     18      -0.495613   0.402311   0.212840   0.383957  -0.235807  -0.380179
     19      -0.176145   0.177773  -0.047522   0.215642  -0.199271  -0.046618
     20      -0.040492   0.032836   0.018371   0.030854  -0.018498  -0.031894
     21      -0.005689   0.177846   0.012947  -0.079344   0.006998   0.023635
     22       0.004232   0.218052  -0.008752  -0.097507  -0.004663   0.028964
     23      -0.000510   0.011766   0.001177  -0.005373   0.000643   0.001562
     24      -0.054340   0.145460   0.011376   0.106674  -0.197129  -0.025859
     25      -0.263844   0.397417  -0.456934   0.447481  -0.134456   0.370349
     26      -0.002121   0.009093   0.004869   0.005238  -0.015744  -0.005423
     27       0.336131   0.037587   0.473269   0.076229  -0.442802   0.099782
     28      -0.271570   0.057217  -0.381415   0.101419   0.355979   0.128460
     29       0.030995   0.002750   0.043512   0.005608  -0.040594   0.007347
     30       0.065984   0.084913   0.093342   0.127916   0.142032   0.037828
     31       0.525602   0.434756  -0.189854   0.425784   0.275876  -0.379662
     32       0.001236   0.003511   0.009665   0.007156   0.009740   0.006671
     33       0.246485   0.343115   0.453201   0.410873   0.081241   0.368012
     34       0.110181   0.223813   0.089848   0.201037   0.219899   0.056210
     35       0.020178   0.027399   0.037862   0.033394   0.005043   0.030965
     36      -0.000491   0.123363   0.002580  -0.065513   0.002382   0.017773
     37       0.000120   0.149930  -0.000965  -0.079681  -0.001242   0.021621
     38      -0.000041   0.007715   0.000220  -0.004158   0.000207   0.001179
     39       0.000288  -0.168794  -0.002072   0.069640  -0.001724  -0.016661
     40       0.000243  -0.204745   0.000029   0.084458   0.000609  -0.020177
     41       0.000019  -0.010362  -0.000169   0.004280  -0.000153  -0.001023
                 36         37         38         39         40         41    
      0      -0.003385   0.043282  -0.054631   0.018945   0.027595  -0.037510
      1      -0.006624  -0.006221   0.008955  -0.006340  -0.002221   0.005764
      2      -0.000231   0.003739  -0.004730   0.001667   0.002369  -0.003243
      3       0.013610  -0.006332   0.010730  -0.015431   0.018252  -0.015312
      4       0.008504   0.013918  -0.024415   0.036752  -0.051808   0.043453
      5       0.001074  -0.000655   0.001118  -0.001622   0.001992  -0.001672
      6       0.002435  -0.030876   0.003340   0.038311  -0.002779  -0.023428
      7       0.003001  -0.038592  -0.000328   0.047772   0.000853  -0.029317
      8       0.000180  -0.002306   0.000288   0.002865  -0.000245  -0.001749
      9       0.054430   0.000320  -0.000446   0.001215  -0.002746   0.001747
     10       0.068403   0.000402   0.000340   0.001513   0.002289   0.002063
     11       0.004179   0.000023  -0.000041   0.000088  -0.000255   0.000127
     12       0.005505   0.015930   0.025390   0.038929   0.056261   0.043296
     13       0.015128  -0.003476  -0.005189  -0.007231  -0.007079  -0.005472
     14       0.000323   0.001392   0.002214   0.003384   0.004866   0.003744
     15      -0.005789  -0.016362  -0.019760  -0.009923   0.008593   0.013081
     16      -0.004724   0.043920   0.049929   0.016451  -0.027952  -0.033911
     17      -0.000456  -0.001771  -0.002113  -0.000986   0.000974   0.001407
     18      -0.011867   0.066995  -0.114436   0.164948  -0.218850   0.180769
     19       0.000513  -0.172591   0.295727  -0.428579   0.580078  -0.479540
     20      -0.001085   0.007153  -0.012221   0.017637  -0.023491   0.019407
     21      -0.444096   0.000279   0.000054  -0.000057   0.000159  -0.000198
     22      -0.542279   0.000338  -0.000050  -0.000076  -0.000126  -0.000237
     23      -0.028750   0.000020   0.000005  -0.000003   0.000014  -0.000011
     24      -0.009213  -0.509727   0.631465  -0.216639  -0.299493   0.405708
     25       0.003567   0.079647  -0.100098   0.038522   0.044793  -0.064226
     26      -0.000807  -0.044096   0.054653  -0.018793  -0.025900   0.035119
     27       0.004084   0.367690  -0.016374  -0.432279   0.010149   0.255383
     28       0.005090   0.458328  -0.014472  -0.538700   0.007215   0.318355
     29       0.000312   0.027477  -0.001262  -0.032285   0.000797   0.019071
     30       0.002994  -0.194974  -0.304379  -0.450637  -0.632926  -0.480105
     31      -0.011430   0.030888   0.047858   0.069955   0.093957   0.071149
     32       0.000328  -0.016921  -0.026413  -0.039101  -0.054876  -0.041623
     33       0.005537   0.198764   0.224285   0.080350  -0.113212  -0.142284
     34      -0.008275  -0.515028  -0.577213  -0.195440   0.298702   0.366179
     35       0.000560   0.021338   0.024042   0.008522  -0.012195  -0.015251
     36       0.437216  -0.000321   0.000010  -0.000195   0.000035   0.000002
     37       0.531685  -0.000392   0.000000  -0.000242  -0.000035  -0.000001
     38       0.027484  -0.000021   0.000001  -0.000013   0.000003  -0.000002
     39      -0.099178   0.000088  -0.000007  -0.000011  -0.000022  -0.000084
     40      -0.120757   0.000106   0.000001  -0.000014   0.000015  -0.000105
     41      -0.006252   0.000005  -0.000000  -0.000000  -0.000002  -0.000005
# -----------------------------------------------------------
$ THERMOCHEMISTRY_Energies
   description: The Thermochemistry energies
   geom. index: 5
   prop. index: 1
        Temperature (Kelvin)           :        298.1500000000
        Pressure (atm)                 :          1.0000000000
        Total Mass (AMU)               :        119.0371137851
        Spin Degeneracy                :          1.0000000000
        Electronic Energy (Hartree)    :       -399.5600749200
        Translational Energy (Hartree) :          0.0014162714
        Rotational Energy (Hartree)    :          0.0014162714
        Vibrational Energy (Hartree)   :          0.0046462838
        Number of frequencies          :     42      
        Scaling Factor for frequencies :          1.0000000000
        Vibrational frequencies        :     
                  0    
      0       0.000000
      1       0.000000
      2       0.000000
      3       0.000000
      4       0.000000
      5       0.000000
      6      23.314854
      7      68.883652
      8     253.955121
      9     402.509449
     10     408.202570
     11     411.005391
     12     447.669709
     13     482.053734
     14     483.492930
     15     636.050254
     16     692.491089
     17     737.121821
     18     752.483290
     19     845.767078
     20     919.972533
     21     974.404605
     22     992.772056
     23     1019.771796
     24     1049.244606
     25     1104.935964
     26     1128.438263
     27     1189.850915
     28     1206.555505
     29     1321.343951
     30     1357.914312
     31     1447.912356
     32     1471.657225
     33     1530.255895
     34     1603.735391
     35     1633.641981
     36     2433.838513
     37     3171.599382
     38     3178.614762
     39     3189.135531
     40     3195.729084
     41     3199.542367
        Zero Point Energy (Hartree)    :          0.1024397848
        Inner Energy (Hartree)         :       -399.4501563085
        Enthalpy (Hartree)             :       -399.4492120995
        Electronic entropy             :          0.0000000000
        Rotational entropy             :          0.0137137273
        Vibrational entropy            :          0.0079026509
        Translational entropy          :          0.0137137273
        Entropy                        :          0.0407344271
        Gibbs Energy (Hartree)         :       -399.4899465266
        Is Linear                      :                 false
# -------------------------------------------------------------
----------------------- !GEOMETRIES! ------------------------
# -------------------------------------------------------------
------------------------ !GEOMETRY! -------------------------
    Number of atoms:    14 
    Geometry Index:     1 
    Coordinates:
               0 C     -0.082734707830   -0.070642114497    0.352379607359
               1 C      0.782472665880    1.021935175151    0.417553955336
               2 C      0.421197370634   -1.376236661908    0.406102943575
               3 C      2.173885212976    0.813079366508    0.538037743888
               4 C      2.676679977816   -0.505698071948    0.592332944305
               5 C      1.800257643518   -1.588890042038    0.526009965561
               6 H      0.397049615050    2.034356339001    0.376355653643
               7 C      3.065622949442    1.920910256736    0.603642865506
               8 H     -1.150541570181    0.096505268850    0.259820604825
               9 H     -0.255927549755   -2.222202920585    0.354837381560
              10 H      3.745041251875   -0.664438463612    0.685138465338
              11 H      2.193632181397   -2.598933470329    0.567751237599
              12 N      3.814845936970    2.824036500318    0.649438592450
              13 O      4.614819022207    3.784518838353    0.696598039055
------------------------ !GEOMETRY! -------------------------
    Number of atoms:    14 
    Geometry Index:     2 
    Coordinates:
               0 C     -0.072059139225   -0.065860771409    0.353245189812
               1 C      0.788598810379    1.021683612052    0.417804860817
               2 C      0.429272076130   -1.365932783856    0.406863235455
               3 C      2.173779237807    0.811450521394    0.537471327040
               4 C      2.675789755026   -0.501286295820    0.591856077515
               5 C      1.802292335326   -1.578304155523    0.526118890237
               6 H      0.403951050210    2.035210716486    0.376700319508
               7 C      3.060865520817    1.914410925534    0.602985484989
               8 H     -1.140487496126    0.102012285756    0.260688620641
               9 H     -0.248705957269   -2.212122852568    0.355837652998
              10 H      3.744946758745   -0.660012476829    0.684738063732
              11 H      2.195486727530   -2.589207293311    0.568050827742
              12 N      3.802857293838    2.810405804880    0.648613728702
              13 O      4.579713026813    3.745852763214    0.695025720813
------------------------ !GEOMETRY! -------------------------
    Number of atoms:    14 
    Geometry Index:     3 
    Coordinates:
               0 C     -0.069052494356   -0.065079058292    0.353497664066
               1 C      0.790767117089    1.021136816390    0.417800020222
               2 C      0.430725060225   -1.363820255684    0.407127745533
               3 C      2.174827173511    0.811198004066    0.537333651757
               4 C      2.675376183771   -0.500828072212    0.591614401896
               5 C      1.801993710446   -1.576008997179    0.526100712422
               6 H      0.406709218954    2.035048448550    0.376699173195
               7 C      3.060927318617    1.913644288658    0.602796051355
               8 H     -1.137781294968    0.103409317319    0.260940728359
               9 H     -0.247802027506   -2.209899120517    0.356266328275
              10 H      3.744626181899   -0.659976200724    0.684415666036
              11 H      2.194831346075   -2.587464005327    0.568083654118
              12 N      3.802152635310    2.810638172210    0.648498968209
              13 O      4.567999870933    3.736300662742    0.694825234557
------------------------ !GEOMETRY! -------------------------
    Number of atoms:    14 
    Geometry Index:     4 
    Coordinates:
               0 C     -0.069352693058   -0.065335499002    0.353486839678
               1 C      0.790843055987    1.020915401035    0.417723208621
               2 C      0.430119707951   -1.364445610321    0.407143150494
               3 C      2.175295009463    0.811156925941    0.537236759379
               4 C      2.675333723633   -0.501393989975    0.591534907976
               5 C      1.801619716798   -1.576648970793    0.526090792213
               6 H      0.407020318810    2.034901262578    0.376618803001
               7 C      3.061512008142    1.913893091008    0.602728805933
               8 H     -1.138016114484    0.103457075960    0.260973701222
               9 H     -0.248522375442   -2.210385825020    0.356365444718
              10 H      3.744543474845   -0.660728813037    0.684304778747
              11 H      2.194363100645   -2.588116586925    0.568108536210
              12 N      3.802637815156    2.811608185865    0.648501934042
              13 O      4.568903251554    3.739423352686    0.695182337767
------------------------ !GEOMETRY! -------------------------
    Number of atoms:    14 
    Geometry Index:     5 
    Coordinates:
               0 C     -0.069210152880   -0.065295743925    0.353512437877
               1 C      0.791194807816    1.020773317247    0.417688750403
               2 C      0.429899319721   -1.364571916280    0.407187541669
               3 C      2.175756663200    0.811021592761    0.537191495500
               4 C      2.675334826980   -0.501767704372    0.591475476494
               5 C      1.801408186801   -1.576848733761    0.526092150367
               6 H      0.407658364960    2.034876430648    0.376569109043
               7 C      3.061914891064    1.913794229901    0.602642161228
               8 H     -1.137825997816    0.103841267435    0.261020546681
               9 H     -0.248893232003   -2.210375176654    0.356465631175
              10 H      3.744528674052   -0.661290867327    0.684203265817
              11 H      2.194048423313   -2.588361252416    0.568125773171
              12 N      3.802598852626    2.811966824083    0.648429319615
              13 O      4.567886372167    3.740537732659    0.695396340961
