17
Coordinates from ORCA-job TS1/TS1 E -948.596902764033
  C      -2.451818     -0.806591     -0.442958
  C      -1.613633      0.302308     -0.554956
  C      -1.976182     -1.999508      0.117654
  C      -0.278637      0.211185     -0.101382
  C       0.200766     -0.987407      0.462254
  C      -0.653801     -2.084412      0.568934
  H      -1.978649      1.227306     -0.986921
  C       0.601009      1.330786     -0.208963
  H      -3.476791     -0.741168     -0.791394
  H      -2.633881     -2.858079      0.202086
  H       1.226204     -1.026433      0.804457
  H      -0.285006     -3.006364      1.004288
  N       0.941353      2.425952     -0.544483
  O       1.829290      3.348666     -0.527293
  O       2.419319      0.922583      0.924951
  S       3.563478      2.084379      0.631522
  O       4.566978      1.656798     -0.557796
17
Coordinates from ORCA-job TS1/TS1 E -948.628721424110
  C      -2.428500     -0.790930     -0.436555
  C      -1.585237      0.310140     -0.548877
  C      -1.960301     -1.985022      0.120079
  C      -0.255174      0.207566     -0.099420
  C       0.217989     -0.989256      0.458951
  C      -0.640635     -2.079324      0.566578
  H      -1.943797      1.238873     -0.977766
  C       0.630656      1.326346     -0.207723
  H      -3.453733     -0.717528     -0.781993
  H      -2.623654     -2.838922      0.205331
  H       1.244247     -1.035358      0.798017
  H      -0.276127     -3.003908      0.999701
  N       0.928859      2.421095     -0.566730
  O       1.837428      3.313118     -0.522278
  O       2.379646      0.936618      0.898635
  S       3.481974      2.047087      0.616650
  O       4.446359      1.639406     -0.522601
17
Coordinates from ORCA-job TS1/TS1 E -948.649152208127
  C      -2.408006     -0.776231     -0.429106
  C      -1.558243      0.316321     -0.542875
  C      -1.947674     -1.972162      0.123459
  C      -0.231859      0.201397     -0.098438
  C       0.234884     -0.995349      0.455141
  C      -0.629864     -2.077787      0.564279
  H      -1.909507      1.249119     -0.968542
  C       0.656576      1.321906     -0.210850
  H      -3.433778     -0.693904     -0.770401
  H      -2.617658     -2.820544      0.210332
  H       1.261922     -1.048523      0.790312
  H      -0.271155     -3.005733      0.994848
  N       0.921761      2.417867     -0.591548
  O       1.854889      3.277814     -0.514642
  O       2.340079      0.955995      0.870958
  S       3.407117      2.015713      0.599574
  O       4.330516      1.634100     -0.482502
17
Coordinates from ORCA-job TS1/TS1 E -948.655183024563
  C      -2.408167     -0.772653     -0.418880
  C      -1.556346      0.313830     -0.544410
  C      -1.946654     -1.966556      0.130646
  C      -0.230314      0.191224     -0.113941
  C       0.239819     -1.001529      0.436126
  C      -0.626994     -2.078603      0.556720
  H      -1.905668      1.248638     -0.966767
  C       0.654424      1.315651     -0.236841
  H      -3.437566     -0.686118     -0.747393
  H      -2.620038     -2.810936      0.228230
  H       1.270094     -1.055657      0.761646
  H      -0.269147     -3.007485      0.985687
  N       0.953278      2.397835     -0.608009
  O       1.907421      3.226286     -0.491237
  O       2.338257      1.005897      0.884354
  S       3.358448      2.023216      0.605349
  O       4.279153      1.656961     -0.461281
17
Coordinates from ORCA-job TS1/TS1 E -948.655802556651
  C      -2.427486     -0.775323     -0.402136
  C      -1.573409      0.306301     -0.549713
  C      -1.960066     -1.967665      0.143764
  C      -0.240165      0.178391     -0.146110
  C       0.236901     -1.014033      0.399045
  C      -0.632949     -2.084899      0.542667
  H      -1.926853      1.241633     -0.967269
  C       0.641923      1.302194     -0.282558
  H      -3.463541     -0.685156     -0.707606
  H      -2.635738     -2.807553      0.262133
  H       1.271376     -1.077640      0.708247
  H      -0.271649     -3.013131      0.970033
  N       1.009760      2.363716     -0.628404
  O       1.961418      3.189354     -0.493126
  O       2.346178      1.038555      0.940466
  S       3.380184      2.082315      0.624154
  O       4.284116      1.722942     -0.413588
17
Coordinates from ORCA-job TS1/TS1 E -948.654154089779
  C      -2.429354     -0.766652     -0.382193
  C      -1.569533      0.306827     -0.550169
  C      -1.960752     -1.960515      0.157862
  C      -0.229600      0.166007     -0.176007
  C       0.250042     -1.028835      0.359606
  C      -0.626691     -2.089669      0.526944
  H      -1.923356      1.245102     -0.960531
  C       0.655100      1.286138     -0.320455
  H      -3.471287     -0.667608     -0.663583
  H      -2.641937     -2.792666      0.297242
  H       1.288439     -1.106987      0.651143
  H      -0.265112     -3.018975      0.951514
  N       1.043623      2.337549     -0.671656
  O       1.993723      3.155240     -0.488057
  O       2.291467      1.094935      0.998602
  S       3.319940      2.116485      0.669029
  O       4.275289      1.723623     -0.399289
17
Coordinates from ORCA-job TS1/TS1 E -948.656080458038
  C      -2.427032     -0.749460     -0.349763
  C      -1.557120      0.311304     -0.546100
  C      -1.959929     -1.948229      0.181288
  C      -0.206973      0.149496     -0.218982
  C       0.271689     -1.052677      0.299879
  C      -0.615956     -2.097517      0.505020
  H      -1.910106      1.254462     -0.945867
  C       0.688061      1.259047     -0.373129
  H      -3.475993     -0.635105     -0.597180
  H      -2.649822     -2.767406      0.351359
  H       1.316506     -1.149144      0.562207
  H      -0.255382     -3.028807      0.926036
  N       1.075444      2.305265     -0.748201
  O       2.008282      3.138410     -0.514794
  O       2.225525      1.143625      1.053938
  S       3.265247      2.139853      0.713127
  O       4.207558      1.726884     -0.298837
17
Coordinates from ORCA-job TS1/TS1 E -948.656470502226
  C      -2.413727     -0.735316     -0.341635
  C      -1.531115      0.315049     -0.534697
  C      -1.961878     -1.940733      0.185568
  C      -0.180872      0.135556     -0.218935
  C       0.281995     -1.077595      0.291408
  C      -0.619047     -2.109141      0.502451
  H      -1.872868      1.263199     -0.932505
  C       0.720474      1.243859     -0.373171
  H      -3.460834     -0.607826     -0.590566
  H      -2.662318     -2.750647      0.356616
  H       1.325676     -1.191814      0.549235
  H      -0.270397     -3.044871      0.923635
  N       1.053875      2.302936     -0.781717
  O       1.948719      3.169139     -0.526024
  O       2.196879      1.156793      1.055400
  S       3.242249      2.156278      0.710348
  O       4.203189      1.715136     -0.275411
17
Coordinates from ORCA-job TS1/TS1 E -948.656673174058
  C      -2.413978     -0.744069     -0.360268
  C      -1.537767      0.315011     -0.534008
  C      -1.960333     -1.947877      0.169724
  C      -0.193396      0.148937     -0.186828
  C       0.270752     -1.059490      0.332814
  C      -0.623031     -2.103074      0.515920
  H      -1.880666      1.260744     -0.936546
  C       0.704530      1.260505     -0.339270
  H      -3.456751     -0.626542     -0.631370
  H      -2.654557     -2.767809      0.316808
  H       1.311831     -1.161829      0.606559
  H      -0.272645     -3.038846      0.935662
  N       1.031675      2.322920     -0.742078
  O       1.950604      3.173853     -0.516975
  O       2.241580      1.122643      1.018573
  S       3.268972      2.133506      0.675274
  O       4.213182      1.711417     -0.323991
17
Coordinates from ORCA-job TS1/TS1 E -948.656699975604
  C      -2.414849     -0.750865     -0.372303
  C      -1.545188      0.315359     -0.533553
  C      -1.956898     -1.953257      0.157548
  C      -0.204700      0.158208     -0.168716
  C       0.263722     -1.045612      0.355359
  C      -0.622765     -2.098601      0.520501
  H      -1.890737      1.260204     -0.935958
  C       0.688768      1.273714     -0.311337
  H      -3.455974     -0.639928     -0.652490
  H      -2.645922     -2.779724      0.291967
  H       1.303148     -1.132590      0.642187
  H      -0.269813     -3.034035      0.938802
  N       1.019265      2.333325     -0.717551
  O       1.962143      3.165159     -0.518977
  O       2.261142      1.105831      1.004923
  S       3.283463      2.124183      0.654284
  O       4.225195      1.698628     -0.354685
17
Coordinates from ORCA-job TS1/TS1 E -948.656770092924
  C      -2.412659     -0.748883     -0.371236
  C      -1.542137      0.317444     -0.527083
  C      -1.956006     -1.953608      0.154424
  C      -0.201449      0.158256     -0.162846
  C       0.265256     -1.048256      0.357664
  C      -0.622297     -2.101123      0.518039
  H      -1.886794      1.264116     -0.925979
  C       0.690284      1.276000     -0.301621
  H      -3.453256     -0.636330     -0.652706
  H      -2.645556     -2.780283      0.284735
  H       1.303716     -1.139126      0.646133
  H      -0.270384     -3.038201      0.933513
  N       1.017028      2.330540     -0.728133
  O       1.961942      3.163441     -0.532073
  O       2.255246      1.117829      1.006750
  S       3.277491      2.129094      0.647974
  O       4.219573      1.689092     -0.347556
17
Coordinates from ORCA-job TS1/TS1 E -948.656831557123
  C      -2.411751     -0.744743     -0.363174
  C      -1.540179      0.322031     -0.508411
  C      -1.955225     -1.954694      0.149785
  C      -0.196725      0.156680     -0.157046
  C       0.270238     -1.057226      0.346801
  C      -0.619816     -2.108261      0.504494
  H      -1.885386      1.274396     -0.893160
  C       0.688501      1.280987     -0.286420
  H      -3.452954     -0.627707     -0.640424
  H      -2.645858     -2.780799      0.277691
  H       1.309487     -1.161701      0.627704
  H      -0.268215     -3.048783      0.912308
  N       1.030101      2.308853     -0.768915
  O       1.972635      3.148540     -0.584413
  O       2.228460      1.171572      1.049512
  S       3.264571      2.158523      0.654856
  O       4.212115      1.662333     -0.321188
17
Coordinates from ORCA-job TS1/TS1 E -948.656953940450
  C      -2.412811     -0.745977     -0.362658
  C      -1.545873      0.325625     -0.500297
  C      -1.951144     -1.957132      0.143344
  C      -0.202953      0.163789     -0.145355
  C       0.268871     -1.049351      0.354626
  C      -0.616084     -2.106256      0.502178
  H      -1.893857      1.278041     -0.882415
  C       0.683570      1.285528     -0.280216
  H      -3.453838     -0.632495     -0.642113
  H      -2.637674     -2.788062      0.261870
  H       1.309068     -1.145676      0.636288
  H      -0.261033     -3.048376      0.903238
  N       1.033135      2.304855     -0.772981
  O       1.983505      3.138298     -0.602466
  O       2.226340      1.180466      1.056348
  S       3.265169      2.154670      0.646497
  O       4.205610      1.642054     -0.315886
17
Coordinates from ORCA-job TS1/TS1 E -948.656761662733
  C      -2.417922     -0.753718     -0.361182
  C      -1.573414      0.339598     -0.462368
  C      -1.932050     -1.969213      0.109895
  C      -0.232672      0.194814     -0.095826
  C       0.260518     -1.016120      0.388371
  C      -0.600211     -2.097860      0.489415
  H      -1.935942      1.293328     -0.827339
  C       0.653190      1.311994     -0.255172
  H      -3.458655     -0.655666     -0.647595
  H      -2.598371     -2.821494      0.183948
  H       1.298573     -1.079813      0.687919
  H      -0.229420     -3.045233      0.862710
  N       1.046480      2.287465     -0.796580
  O       2.033206      3.086783     -0.679293
  O       2.208444      1.230747      1.099969
  S       3.274426      2.149816      0.619042
  O       4.203820      1.544573     -0.315913
17
Coordinates from ORCA-job TS1/TS1 E -948.657092706481
  C      -2.415259     -0.745149     -0.349722
  C      -1.556871      0.335020     -0.473479
  C      -1.940723     -1.961472      0.131093
  C      -0.211069      0.176093     -0.129655
  C       0.272807     -1.039858      0.351344
  C      -0.603286     -2.105946      0.484471
  H      -1.912696      1.290943     -0.839244
  C       0.673804      1.296284     -0.279092
  H      -3.458653     -0.634807     -0.621508
  H      -2.619580     -2.800698      0.234740
  H       1.314964     -1.127857      0.629752
  H      -0.240189     -3.052607      0.867192
  N       1.055889      2.280005     -0.816775
  O       2.016818      3.105284     -0.665556
  O       2.185038      1.244595      1.105306
  S       3.253731      2.165929      0.648050
  O       4.185276      1.574241     -0.276918
17
Coordinates from ORCA-job TS1/TS1 E -948.657050529128
  C      -2.415104     -0.742320     -0.351220
  C      -1.545455      0.326071     -0.497863
  C      -1.953190     -1.954880      0.150862
  C      -0.199956      0.159550     -0.155347
  C       0.272356     -1.056373      0.337859
  C      -0.614938     -2.109686      0.495205
  H      -1.893448      1.278914     -0.878881
  C       0.692549      1.275228     -0.300870
  H      -3.458119     -0.625750     -0.621966
  H      -2.641829     -2.783055      0.276610
  H       1.315513     -1.157522      0.606447
  H      -0.259564     -3.053576      0.891776
  N       1.047562      2.292071     -0.794609
  O       1.986483      3.135406     -0.609168
  O       2.208305      1.202720      1.076096
  S       3.254170      2.169888      0.664009
  O       4.204665      1.643314     -0.288941
17
Coordinates from ORCA-job TS1/TS1 E -948.657116053073
  C      -2.414439     -0.744546     -0.354265
  C      -1.550355      0.329715     -0.489761
  C      -1.947193     -1.958333      0.140048
  C      -0.206290      0.168138     -0.140265
  C       0.270524     -1.046064      0.352272
  C      -0.610751     -2.106553      0.494830
  H      -1.901093      1.283192     -0.866634
  C       0.684561      1.283594     -0.291299
  H      -3.456958     -0.631810     -0.628426
  H      -2.630719     -2.792639      0.252233
  H       1.312296     -1.137699      0.630154
  H      -0.252117     -3.051403      0.886134
  N       1.042386      2.295391     -0.791965
  O       1.995600      3.126661     -0.626160
  O       2.207152      1.205650      1.077463
  S       3.258131      2.161003      0.650375
  O       4.199266      1.615703     -0.294736
17
Coordinates from ORCA-job TS1/TS1 E -948.657156612722
  C      -2.415014     -0.745426     -0.352253
  C      -1.554623      0.332661     -0.481332
  C      -1.943364     -1.960549      0.134399
  C      -0.210212      0.173700     -0.132210
  C       0.270499     -1.040973      0.355383
  C      -0.606875     -2.105668      0.490584
  H      -1.908514      1.286794     -0.853564
  C       0.680456      1.288850     -0.287031
  H      -3.457868     -0.634886     -0.626113
  H      -2.623558     -2.798528      0.239463
  H       1.312400     -1.128762      0.634380
  H      -0.245268     -3.051732      0.876175
  N       1.046930      2.290621     -0.802006
  O       2.005920      3.117136     -0.643511
  O       2.196738      1.224945      1.090136
  S       3.257460      2.162304      0.646403
  O       4.194891      1.589514     -0.288903
17
Coordinates from ORCA-job TS1/TS1 E -948.657215935828
  C      -2.414917     -0.741828     -0.343825
  C      -1.552067      0.333845     -0.476786
  C      -1.943601     -1.958915      0.138111
  C      -0.205243      0.170358     -0.138926
  C       0.275219     -1.047113      0.342233
  C      -0.604729     -2.108848      0.483502
  H      -1.905728      1.289778     -0.844585
  C       0.685477      1.285085     -0.296186
  H      -3.459325     -0.627679     -0.610166
  H      -2.625819     -2.794641      0.248099
  H       1.318622     -1.140746      0.613562
  H      -0.243509     -3.056417      0.865761
  N       1.057894      2.278914     -0.823030
  O       2.010660      3.112180     -0.658008
  O       2.177590      1.248899      1.107581
  S       3.246228      2.173796      0.657209
  O       4.183247      1.583331     -0.264545
17
Coordinates from ORCA-job TS1/TS1 E -948.657236847475
  C      -2.415211     -0.740623     -0.341542
  C      -1.551002      0.333797     -0.475768
  C      -1.944777     -1.958504      0.139150
  C      -0.203832      0.168292     -0.140274
  C       0.275774     -1.050099      0.339673
  C      -0.605507     -2.110578      0.482145
  H      -1.903813      1.290285     -0.842929
  C       0.688200      1.281662     -0.299565
  H      -3.459886     -0.624918     -0.606172
  H      -2.628020     -2.793286      0.249969
  H       1.319693     -1.145565      0.608577
  H      -0.245114     -3.058905      0.863293
  N       1.059708      2.275522     -0.827159
  O       2.009663      3.111620     -0.660733
  O       2.175350      1.255068      1.110191
  S       3.243842      2.179773      0.659407
  O       4.184932      1.586458     -0.258264
17
Coordinates from ORCA-job TS1/TS1 E -948.657337383107
  C      -2.415484     -0.724492     -0.310833
  C      -1.537205      0.335567     -0.466474
  C      -1.952405     -1.950438      0.156525
  C      -0.184819      0.147340     -0.165650
  C       0.287265     -1.079257      0.299135
  C      -0.607028     -2.125315      0.464191
  H      -1.882870      1.298204     -0.824216
  C       0.720266      1.244741     -0.349663
  H      -3.464630     -0.591443     -0.548257
  H      -2.646185     -2.774037      0.284565
  H       1.337364     -1.193998      0.536565
  H      -0.252687     -3.080542      0.833555
  N       1.085852      2.237259     -0.884392
  O       2.007034      3.101778     -0.697178
  O       2.128313      1.308861      1.143648
  S       3.201457      2.230389      0.696117
  O       4.175762      1.615381     -0.167638
17
Coordinates from ORCA-job TS1/TS1 E -948.657380145021
  C      -2.416196     -0.726027     -0.310243
  C      -1.540428      0.336453     -0.463883
  C      -1.950299     -1.951776      0.154329
  C      -0.187827      0.151058     -0.162890
  C       0.287010     -1.075606      0.301090
  C      -0.604761     -2.124280      0.462647
  H      -1.888279      1.298761     -0.820382
  C       0.716059      1.250048     -0.346356
  H      -3.465595     -0.595117     -0.547736
  H      -2.642165     -2.777384      0.279751
  H       1.337072     -1.187303      0.539663
  H      -0.248563     -3.079677      0.829747
  N       1.086630      2.238155     -0.886370
  O       2.012903      3.097955     -0.701898
  O       2.123591      1.316468      1.143399
  S       3.202885      2.228926      0.692823
  O       4.177962      1.599348     -0.163691
17
Coordinates from ORCA-job TS1/TS1 E -948.657533936168
  C      -2.417742     -0.725137     -0.283672
  C      -1.555907      0.348578     -0.440011
  C      -1.929423     -1.952243      0.154111
  C      -0.196920      0.172793     -0.165670
  C       0.299184     -1.052040      0.278366
  C      -0.576723     -2.114060      0.438119
  H      -1.919578      1.311602     -0.778350
  C       0.703575      1.270617     -0.363885
  H      -3.472951     -0.602743     -0.498890
  H      -2.609664     -2.787702      0.278532
  H       1.355894     -1.148629      0.495932
  H      -0.203620     -3.071578      0.782282
  N       1.119971      2.214665     -0.950330
  O       2.070181      3.053526     -0.769632
  O       2.034436      1.386949      1.181439
  S       3.169166      2.217403      0.709601
  O       4.130122      1.477998     -0.067942
17
Coordinates from ORCA-job TS1/TS1 E -948.657498868800
  C      -2.417308     -0.719751     -0.249613
  C      -1.563890      0.358925     -0.420008
  C      -1.912236     -1.948725      0.162037
  C      -0.198889      0.184407     -0.184968
  C       0.314436     -1.042329      0.238543
  C      -0.551790     -2.109104      0.410562
  H      -1.938472      1.324461     -0.738545
  C       0.701445      1.276446     -0.401755
  H      -3.478411     -0.599544     -0.434085
  H      -2.585558     -2.788428      0.294466
  H       1.376742     -1.133610      0.431203
  H      -0.166731     -3.068583      0.735516
  N       1.164136      2.182015     -1.013611
  O       2.121096      3.013024     -0.825216
  O       1.937682      1.473004      1.213619
  S       3.125206      2.218668      0.737415
  O       4.072541      1.379124      0.044441
17
Coordinates from ORCA-job TS1/TS1 E -948.657251770725
  C      -2.417769     -0.709668     -0.204751
  C      -1.569715      0.368205     -0.407499
  C      -1.897943     -1.940629      0.184423
  C      -0.198033      0.187093     -0.225950
  C       0.329533     -1.037869      0.174404
  C      -0.528421     -2.104849      0.378751
  H      -1.953624      1.335191     -0.710098
  C       0.714080      1.259523     -0.462157
  H      -3.485292     -0.588233     -0.346635
  H      -2.567048     -2.779272      0.342722
  H       1.400276     -1.121953      0.324504
  H      -0.132134     -3.065507      0.686018
  N       1.222389      2.134736     -1.080190
  O       2.169670      2.969838     -0.860419
  O       1.827878      1.552243      1.232457
  S       3.069816      2.226763      0.785786
  O       4.016334      1.314389      0.188634
17
Coordinates from ORCA-job TS1/TS1 E -948.657378605255
  C      -2.414465     -0.703304     -0.199700
  C      -1.550878      0.361808     -0.403497
  C      -1.914920     -1.943340      0.183234
  C      -0.179105      0.165851     -0.227401
  C       0.326858     -1.075971      0.172366
  C      -0.549003     -2.129192      0.373128
  H      -1.924701      1.333883     -0.702243
  C       0.733007      1.247960     -0.458792
  H      -3.480451     -0.565089     -0.337955
  H      -2.596732     -2.772100      0.339578
  H       1.390862     -1.196265      0.330431
  H      -0.166778     -3.096983      0.675778
  N       1.214513      2.137577     -1.081934
  O       2.148890      2.990672     -0.869702
  O       1.844538      1.582464      1.224875
  S       3.072396      2.280596      0.777317
  O       4.045970      1.381432      0.204519
17
Coordinates from ORCA-job TS1/TS1 E -948.657391708614
  C      -2.411045     -0.687635     -0.189502
  C      -1.527582      0.360050     -0.397091
  C      -1.932023     -1.936637      0.193525
  C      -0.158928      0.135316     -0.230914
  C       0.327112     -1.113103      0.153337
  C      -0.567303     -2.148263      0.368493
  H      -1.882502      1.339551     -0.694754
  C       0.768646      1.197506     -0.472043
  H      -3.474637     -0.529174     -0.324646
  H      -2.628024     -2.752005      0.357654
  H       1.393713     -1.257984      0.278787
  H      -0.200513     -3.123042      0.667881
  N       1.225160      2.102245     -1.089949
  O       2.120084      2.992563     -0.875214
  O       1.841591      1.587446      1.234568
  S       3.042358      2.339412      0.797596
  O       4.063895      1.493755      0.222272
17
Coordinates from ORCA-job TS1/TS1 E -948.657477552327
  C      -2.410234     -0.687931     -0.200798
  C      -1.520423      0.355425     -0.400456
  C      -1.940665     -1.938595      0.186438
  C      -0.153477      0.126479     -0.223022
  C       0.323471     -1.126510      0.169193
  C      -0.579199     -2.156625      0.375239
  H      -1.868478      1.336933     -0.699645
  C       0.768382      1.197678     -0.460033
  H      -3.471850     -0.523999     -0.344342
  H      -2.642200     -2.750461      0.344048
  H       1.386273     -1.278112      0.311802
  H      -0.221119     -3.133072      0.679718
  N       1.208895      2.113735     -1.073211
  O       2.097045      3.011587     -0.862221
  O       1.879572      1.562162      1.225818
  S       3.055890      2.349793      0.786875
  O       4.088117      1.541512      0.184597
17
Coordinates from ORCA-job TS1/TS1 E -948.657428096799
  C      -2.416076     -0.698552     -0.243135
  C      -1.520193      0.344523     -0.413888
  C      -1.959338     -1.946572      0.165726
  C      -0.158874      0.119923     -0.188093
  C       0.306288     -1.132284      0.220137
  C      -0.604545     -2.161060      0.400391
  H      -1.859466      1.324402     -0.728173
  C       0.755007      1.205940     -0.401793
  H      -3.472101     -0.535237     -0.424349
  H      -2.664953     -2.758459      0.304068
  H       1.363818     -1.288797      0.396553
  H      -0.256673     -3.135825      0.721755
  N       1.160163      2.143137     -1.007418
  O       2.047573      3.042973     -0.819353
  O       2.003232      1.480799      1.208141
  S       3.115719      2.351824      0.756208
  O       4.160420      1.643266      0.053224
17
Coordinates from ORCA-job TS1/TS1 E -948.657397507600
  C      -2.419413     -0.716782     -0.268663
  C      -1.542711      0.345616     -0.419354
  C      -1.946538     -1.955320      0.149515
  C      -0.182085      0.150077     -0.165077
  C       0.300163     -1.095738      0.251169
  C      -0.593368     -2.142239      0.412078
  H      -1.897317      1.318168     -0.739549
  C       0.716635      1.255242     -0.357047
  H      -3.474566     -0.575571     -0.471946
  H      -2.637923     -2.781484      0.273630
  H       1.355215     -1.234911      0.451229
  H      -0.231351     -3.109002      0.741753
  N       1.139526      2.179901     -0.969161
  O       2.066269      3.045013     -0.807921
  O       2.035476      1.458987      1.208619
  S       3.157168      2.298189      0.724654
  O       4.154818      1.559856     -0.013930
17
Coordinates from ORCA-job TS1/TS1 E -948.657594888619
  C      -2.419970     -0.716652     -0.245962
  C      -1.557223      0.354113     -0.416202
  C      -1.924809     -1.951303      0.160681
  C      -0.191396      0.167436     -0.190653
  C       0.312482     -1.067558      0.220337
  C      -0.564394     -2.125344      0.397178
  H      -1.925292      1.324519     -0.727503
  C       0.706515      1.265123     -0.395547
  H      -3.480772     -0.585449     -0.424719
  H      -2.605481     -2.784354      0.297363
  H       1.374022     -1.178840      0.405176
  H      -0.186393     -3.088834      0.718451
  N       1.170847      2.168331     -1.006565
  O       2.110145      3.016625     -0.825938
  O       1.954563      1.489598      1.226428
  S       3.127490      2.260219      0.752000
  O       4.099665      1.452370      0.055476
17
Coordinates from ORCA-job TS1/TS1 E -948.657566257471
  C      -2.417269     -0.707339     -0.209625
  C      -1.557691      0.361591     -0.408888
  C      -1.912445     -1.943381      0.180868
  C      -0.186523      0.169729     -0.227393
  C       0.326057     -1.065985      0.171450
  C      -0.545726     -2.121955      0.375815
  H      -1.932726      1.332943     -0.708626
  C       0.720248      1.253915     -0.451656
  H      -3.483041     -0.574310     -0.354030
  H      -2.590722     -2.774664      0.338754
  H       1.392512     -1.174274      0.326870
  H      -0.160330     -3.086136      0.685951
  N       1.212662      2.143078     -1.062342
  O       2.144227      2.994889     -0.848582
  O       1.861514      1.533277      1.232107
  S       3.075491      2.258633      0.791334
  O       4.053762      1.399990      0.167995
17
Coordinates from ORCA-job TS1/TS1 E -948.657449293313
  C      -2.413986     -0.689616     -0.173144
  C      -1.541924      0.364752     -0.396517
  C      -1.919496     -1.936179      0.198677
  C      -0.169492      0.147492     -0.256006
  C       0.331068     -1.096321      0.125526
  C      -0.550804     -2.139061      0.352677
  H      -1.909013      1.342723     -0.684239
  C       0.757792      1.208724     -0.498211
  H      -3.481256     -0.538399     -0.285679
  H      -2.607211     -2.756367      0.373595
  H       1.400029     -1.221579      0.250946
  H      -0.172715     -3.110831      0.647718
  N       1.245916      2.099878     -1.112536
  O       2.148046      2.978250     -0.871141
  O       1.804179      1.570907      1.221516
  S       3.023699      2.314342      0.823153
  O       4.055169      1.461284      0.283665
17
Coordinates from ORCA-job TS1/TS1 E -948.657606307053
  C      -2.411872     -0.687490     -0.190840
  C      -1.525088      0.356998     -0.398690
  C      -1.937506     -1.938861      0.188366
  C      -0.156168      0.128592     -0.237446
  C       0.324993     -1.124818      0.149261
  C      -0.574053     -2.156353      0.362197
  H      -1.877543      1.339207     -0.690312
  C       0.764705      1.201962     -0.469305
  H      -3.475273     -0.523740     -0.320491
  H      -2.636738     -2.751323      0.352872
  H       1.388371     -1.274567      0.288037
  H      -0.211579     -3.132478      0.662494
  N       1.216126      2.113570     -1.082009
  O       2.109282      3.005185     -0.863954
  O       1.866019      1.544272      1.220310
  S       3.040541      2.346838      0.805894
  O       4.095783      1.553005      0.223616
17
Coordinates from ORCA-job TS1/TS1 E -948.657250165803
  C      -2.416675     -0.686358     -0.225412
  C      -1.507891      0.344644     -0.400190
  C      -1.971982     -1.943912      0.168667
  C      -0.146858      0.096247     -0.197815
  C       0.306080     -1.164051      0.192356
  C      -0.616978     -2.180463      0.381299
  H      -1.836075      1.332315     -0.701764
  C       0.779503      1.167587     -0.420116
  H      -3.472571     -0.506565     -0.391392
  H      -2.687544     -2.746347      0.311207
  H       1.365084     -1.334186      0.347316
  H      -0.279556     -3.162569      0.691104
  N       1.175840      2.109391     -1.023284
  O       2.035353      3.032810     -0.827279
  O       2.001740      1.487387      1.205565
  S       3.086920      2.405147      0.777157
  O       4.185609      1.748923      0.112582
17
Coordinates from ORCA-job TS1/TS1 E -948.657561638969
  C      -2.418396     -0.698404     -0.231826
  C      -1.529030      0.349717     -0.406405
  C      -1.951931     -1.946778      0.166722
  C      -0.165073      0.126281     -0.198597
  C       0.309624     -1.124925      0.196516
  C      -0.593741     -2.158103      0.384689
  H      -1.874857      1.330484     -0.710758
  C       0.751480      1.206779     -0.411867
  H      -3.476962     -0.539131     -0.401137
  H      -2.652907     -2.761720      0.310056
  H       1.370414     -1.272957      0.358438
  H      -0.237988     -3.132086      0.699524
  N       1.173562      2.135153     -1.017522
  O       2.066439      3.028692     -0.824405
  O       1.977216      1.483386      1.215444
  S       3.098953      2.346046      0.772627
  O       4.153196      1.627565      0.098502
17
Coordinates from ORCA-job TS1/TS1 E -948.657642864444
  C      -2.420353     -0.707564     -0.237824
  C      -1.543489      0.351610     -0.409132
  C      -1.940375     -1.950544      0.161354
  C      -0.178016      0.144895     -0.195568
  C       0.310018     -1.099825      0.206209
  C      -0.581078     -2.144948      0.387720
  H      -1.900428      1.328020     -0.714625
  C       0.730691      1.233478     -0.404511
  H      -3.480254     -0.561207     -0.410475
  H      -2.632072     -2.774301      0.299550
  H       1.370908     -1.229782      0.381217
  H      -0.215314     -3.114660      0.704330
  N       1.170674      2.153322     -1.010614
  O       2.084370      3.027143     -0.820375
  O       1.970780      1.480166      1.215999
  S       3.114765      2.308025      0.764857
  O       4.139172      1.556172      0.081889
17
Coordinates from ORCA-job TS1/TS1 E -948.657681618538
  C      -2.419596     -0.707836     -0.227820
  C      -1.548877      0.354598     -0.410514
  C      -1.930393     -1.948443      0.167697
  C      -0.181169      0.153597     -0.209037
  C       0.315828     -1.087512      0.192791
  C      -0.568187     -2.136900      0.382093
  H      -1.912443      1.329308     -0.713525
  C       0.724875      1.242838     -0.421460
  H      -3.481891     -0.565823     -0.388666
  H      -2.617239     -2.774892      0.313614
  H       1.378516     -1.209295      0.362582
  H      -0.195049     -3.104692      0.696023
  N       1.182566      2.154400     -1.026406
  O       2.104143      3.018588     -0.827590
  O       1.933932      1.487838      1.219634
  S       3.100335      2.287745      0.778002
  O       4.114649      1.506481      0.112580
17
Coordinates from ORCA-job TS1/TS1 E -948.657691742948
  C      -2.419761     -0.705695     -0.223331
  C      -1.547028      0.354520     -0.409488
  C      -1.932200     -1.947433      0.170603
  C      -0.179024      0.150039     -0.213336
  C       0.316363     -1.092590      0.186042
  C      -0.569615     -2.139562      0.379259
  H      -1.909340      1.330121     -0.711135
  C       0.729201      1.237150     -0.427438
  H      -3.482316     -0.561088     -0.380146
  H      -2.620614     -2.772010      0.319703
  H       1.379492     -1.217624      0.350916
  H      -0.197762     -3.108275      0.691837
  N       1.187274      2.148370     -1.032727
  O       2.104611      3.016297     -0.830890
  O       1.928695      1.492274      1.219266
  S       3.094367      2.296763      0.782987
  O       4.117657      1.518741      0.127880
17
Coordinates from ORCA-job TS1/TS1 E -948.657513321502
  C      -2.419176     -0.689494     -0.214986
  C      -1.522571      0.350891     -0.399533
  C      -1.958556     -1.943282      0.175071
  C      -0.157574      0.113601     -0.212520
  C       0.309587     -1.140553      0.174956
  C      -0.599318     -2.166798      0.374575
  H      -1.863660      1.335093     -0.698100
  C       0.768479      1.182746     -0.433268
  H      -3.478473     -0.520809     -0.370419
  H      -2.664909     -2.752293      0.326135
  H       1.371229     -1.295632      0.324236
  H      -0.247914     -3.144228      0.683589
  N       1.188450      2.110477     -1.043105
  O       2.066342      3.017310     -0.839306
  O       1.963380      1.478489      1.203872
  S       3.071313      2.374171      0.791307
  O       4.173368      1.690310      0.157496
17
Coordinates from ORCA-job TS1/TS1 E -948.657688732558
  C      -2.419942     -0.701054     -0.220690
  C      -1.539856      0.353109     -0.406567
  C      -1.940789     -1.946447      0.172012
  C      -0.172724      0.138872     -0.213148
  C       0.314160     -1.108254      0.182464
  C      -0.579231     -2.148553      0.377620
  H      -1.895792      1.331467     -0.706924
  C       0.740332      1.221792     -0.428892
  H      -3.481566     -0.548957     -0.376813
  H      -2.634833     -2.766137      0.321983
  H       1.376740     -1.243803      0.342281
  H      -0.213780     -3.120020      0.689156
  N       1.187013      2.137807     -1.036112
  O       2.093872      3.016567     -0.834945
  O       1.940152      1.488257      1.213697
  S       3.088243      2.322488      0.785559
  O       4.138001      1.572866      0.139320
17
Coordinates from ORCA-job TS1/TS1 E -948.657672743016
  C      -2.420452     -0.701727     -0.224813
  C      -1.539205      0.352161     -0.406531
  C      -1.943395     -1.947477      0.169285
  C      -0.172716      0.137445     -0.208136
  C       0.312051     -1.110173      0.188374
  C      -0.582736     -2.150058      0.380006
  H      -1.893737      1.330680     -0.708032
  C       0.740379      1.220972     -0.422409
  H      -3.481366     -0.549164     -0.385359
  H      -2.638319     -2.767011      0.316079
  H       1.373969     -1.247087      0.351362
  H      -0.218895     -3.121802      0.692570
  N       1.182101      2.139417     -1.029674
  O       2.088209      3.019494     -0.832108
  O       1.953333      1.482713      1.211712
  S       3.094300      2.325589      0.780841
  O       4.146479      1.586028      0.126834
17
Coordinates from ORCA-job TS1/TS1 E -948.657369175567
  C      -2.420030     -0.717361     -0.280515
  C      -1.542002      0.345832     -0.415604
  C      -1.950953     -1.958197      0.137044
  C      -0.183942      0.145511     -0.151847
  C       0.294409     -1.099129      0.262970
  C      -0.600441     -2.146180      0.413814
  H      -1.891775      1.320491     -0.734788
  C       0.718467      1.244601     -0.342340
  H      -3.472644     -0.575338     -0.496040
  H      -2.643627     -2.785012      0.249015
  H       1.348900     -1.231720      0.470305
  H      -0.242447     -3.113791      0.745373
  N       1.122841      2.185255     -0.940005
  O       2.042695      3.056263     -0.781664
  O       2.076313      1.416404      1.196993
  S       3.167765      2.297933      0.720365
  O       4.176471      1.614437     -0.053077
17
Coordinates from ORCA-job TS1/TS1 E -948.657643755050
  C      -2.421065     -0.707323     -0.239259
  C      -1.542988      0.350569     -0.412027
  C      -1.942562     -1.950165      0.162238
  C      -0.177853      0.142765     -0.197296
  C       0.308747     -1.101807      0.205871
  C      -0.583465     -2.145656      0.388790
  H      -1.898734      1.326939     -0.719033
  C       0.730882      1.231538     -0.404393
  H      -3.480760     -0.559938     -0.412231
  H      -2.635178     -2.772772      0.302485
  H       1.369461     -1.232749      0.381087
  H      -0.218557     -3.115098      0.707209
  N       1.166874      2.155850     -1.006017
  O       2.079641      3.029852     -0.815227
  O       1.980482      1.462384      1.210020
  S       3.114662      2.308561      0.767993
  O       4.150414      1.577049      0.079790
17
Coordinates from ORCA-job TS1/TS1 E -948.657673726636
  C      -2.421054     -0.707169     -0.233983
  C      -1.545541      0.352215     -0.411455
  C      -1.938667     -1.949216      0.165376
  C      -0.179325      0.146341     -0.203103
  C       0.311037     -1.097209      0.198839
  C      -0.578229     -2.142607      0.385931
  H      -1.904258      1.328016     -0.716782
  C       0.729879      1.233795     -0.412901
  H      -3.481819     -0.561648     -0.401799
  H      -2.629261     -2.772984      0.308709
  H       1.372728     -1.225534      0.370055
  H      -0.210151     -3.111340      0.702860
  N       1.173593      2.154138     -1.015025
  O       2.088497      3.025282     -0.819532
  O       1.963665      1.467903      1.211770
  S       3.107547      2.302447      0.773968
  O       4.141358      1.557570      0.097072
17
Coordinates from ORCA-job TS1/TS1 E -948.657693417882
  C      -2.421197     -0.705838     -0.227312
  C      -1.546257      0.353108     -0.410447
  C      -1.936993     -1.948137      0.169016
  C      -0.179056      0.146589     -0.209983
  C       0.312984     -1.096995      0.190256
  C      -0.575403     -2.142231      0.381955
  H      -1.906298      1.329109     -0.713552
  C       0.730866      1.232761     -0.422704
  H      -3.482935     -0.559829     -0.388391
  H      -2.627158     -2.771583      0.316271
  H       1.375478     -1.224733      0.356897
  H      -0.206011     -3.111205      0.696615
  N       1.180648      2.149829     -1.025420
  O       2.095684      3.020154     -0.825667
  O       1.948516      1.474058      1.211601
  S       3.099337      2.303309      0.781371
  O       4.137795      1.551633      0.119494
17
Coordinates from ORCA-job TS1/TS1 E -948.657685979807
  C      -2.420401     -0.686812     -0.177245
  C      -1.534276      0.357752     -0.390200
  C      -1.943424     -1.940360      0.191383
  C      -0.163818      0.126338     -0.246454
  C       0.319304     -1.128509      0.130591
  C      -0.578188     -2.159957      0.349708
  H      -1.889522      1.341433     -0.673399
  C       0.762241      1.194841     -0.479973
  H      -3.485125     -0.521685     -0.294504
  H      -2.641729     -2.752910      0.359918
  H       1.384336     -1.277131      0.258968
  H      -0.213748     -3.137601      0.642550
  N       1.232630      2.090545     -1.102147
  O       2.126746      2.979346     -0.883653
  O       1.870993      1.522791      1.199498
  S       3.029591      2.368772      0.823887
  O       4.144389      1.623146      0.291070
17
Coordinates from ORCA-job TS1/TS1 E -948.657637327828
  C      -2.417324     -0.674133     -0.144983
  C      -1.525646      0.360615     -0.381187
  C      -1.944474     -1.933584      0.209138
  C      -0.154936      0.113898     -0.271330
  C       0.324180     -1.147733      0.087435
  C      -0.577953     -2.170207      0.327158
  H      -1.876913      1.349328     -0.651593
  C       0.779053      1.172462     -0.513667
  H      -3.483028     -0.496672     -0.230814
  H      -2.647195     -2.737645      0.398595
  H       1.391085     -1.309038      0.182049
  H      -0.216644     -3.153015      0.606192
  N       1.267840      2.051408     -1.146362
  O       2.156391      2.945202     -0.921287
  O       1.815561      1.556085      1.195132
  S       2.978915      2.409481      0.849894
  O       4.131089      1.663548      0.405631
17
Coordinates from ORCA-job TS1/TS1 E -948.657411101000
  C      -2.410777     -0.657252     -0.091063
  C      -1.520450      0.369313     -0.366052
  C      -1.934759     -1.922725      0.238186
  C      -0.149937      0.107109     -0.315574
  C       0.332127     -1.158988      0.018229
  C      -0.566685     -2.174961      0.292405
  H      -1.872344      1.363421     -0.614832
  C       0.796329      1.147303     -0.575161
  H      -3.477455     -0.468994     -0.125346
  H      -2.636313     -2.719820      0.458770
  H       1.401662     -1.325464      0.064832
  H      -0.202794     -3.162612      0.550174
  N       1.336485      1.988733     -1.216931
  O       2.222799      2.881017     -0.972996
  O       1.706344      1.609742      1.179552
  S       2.895008      2.446647      0.884041
  O       4.080760      1.677532      0.591766
17
Coordinates from ORCA-job TS1/TS1 E -948.657655692018
  C      -2.416507     -0.672042     -0.132694
  C      -1.526608      0.362311     -0.376265
  C      -1.941268     -1.932492      0.214319
  C      -0.155318      0.114703     -0.279689
  C       0.326709     -1.148628      0.073014
  C      -0.574042     -2.170964      0.318307
  H      -1.879393      1.352253     -0.639993
  C       0.776845      1.174448     -0.525000
  H      -3.482820     -0.493432     -0.206980
  H      -2.642833     -2.736255      0.409024
  H       1.394127     -1.312134      0.157573
  H      -0.210960     -3.154850      0.591224
  N       1.284361      2.038190     -1.163378
  O       2.179176      2.926257     -0.940702
  O       1.788012      1.580789      1.196407
  S       2.963141      2.418660      0.854813
  O       4.117378      1.653186      0.450020
17
Coordinates from ORCA-job TS1/TS1 E -948.657710114825
  C      -2.418783     -0.678311     -0.144372
  C      -1.534567      0.362294     -0.382398
  C      -1.936630     -1.934023      0.210520
  C      -0.162613      0.124125     -0.273868
  C       0.326620     -1.133738      0.084695
  C      -0.568309     -2.161863      0.326615
  H      -1.892172      1.348957     -0.651954
  C       0.766153      1.186313     -0.515454
  H      -3.485752     -0.508013     -0.228388
  H      -2.633665     -2.742448      0.402165
  H       1.395361     -1.285368      0.177691
  H      -0.200246     -3.141962      0.606329
  N       1.276063      2.051350     -1.148619
  O       2.175768      2.934096     -0.926478
  O       1.798586      1.571580      1.205052
  S       2.980854      2.393072      0.849080
  O       4.113332      1.613939      0.409384
17
Coordinates from ORCA-job TS1/TS1 E -948.657737465337
  C      -2.418944     -0.681594     -0.147867
  C      -1.538699      0.362287     -0.385192
  C      -1.932414     -1.935035      0.208873
  C      -0.166033      0.130001     -0.273686
  C       0.327861     -1.125538      0.088779
  C      -0.563610     -2.157223      0.328797
  H      -1.899620      1.347431     -0.655864
  C       0.757470      1.197737     -0.512179
  H      -3.486405     -0.515458     -0.233647
  H      -2.626717     -2.745973      0.399680
  H       1.396633     -1.271432      0.188230
  H      -0.192472     -3.135482      0.610861
  N       1.273462      2.059207     -1.145002
  O       2.179796      2.935454     -0.923881
  O       1.796867      1.573999      1.208467
  S       2.988452      2.378763      0.847061
  O       4.104374      1.582855      0.396570
17
Coordinates from ORCA-job TS1/TS1 E -948.657745893499
  C      -2.419682     -0.685039     -0.148979
  C      -1.545335      0.363669     -0.387128
  C      -1.925801     -1.935254      0.209084
  C      -0.171727      0.138713     -0.275572
  C       0.329718     -1.112938      0.088713
  C      -0.555633     -2.149436      0.329774
  H      -1.911424      1.346713     -0.658490
  C       0.747921      1.209346     -0.512113
  H      -3.488043     -0.525012     -0.234807
  H      -2.615350     -2.750003      0.400766
  H       1.399466     -1.250704      0.190341
  H      -0.178821     -3.124980      0.613715
  N       1.277826      2.061960     -1.144475
  O       2.191293      2.930365     -0.923064
  O       1.786154      1.579634      1.214710
  S       2.991047      2.360671      0.847175
  O       4.088390      1.542294      0.390350
17
Coordinates from ORCA-job TS1/TS1 E -948.657746559128
  C      -2.420219     -0.686972     -0.148384
  C      -1.549142      0.364616     -0.385329
  C      -1.922485     -1.936133      0.207921
  C      -0.174925      0.143524     -0.274669
  C       0.330640     -1.107121      0.088567
  C      -0.551729     -2.146456      0.328513
  H      -1.918039      1.347042     -0.655105
  C       0.741721      1.216867     -0.510593
  H      -3.489047     -0.530006     -0.233851
  H      -2.609642     -2.753146      0.398493
  H       1.400787     -1.241378      0.190865
  H      -0.172216     -3.121166      0.611715
  N       1.281410      2.060271     -1.146957
  O       2.201178      2.922743     -0.927937
  O       1.779150      1.591142      1.217904
  S       2.993171      2.355433      0.846015
  O       4.079388      1.520740      0.392830
17
Coordinates from ORCA-job TS1/TS1 E -948.657660042785
  C      -2.420420     -0.690847     -0.142818
  C      -1.559618      0.368884     -0.381121
  C      -1.909811     -1.936156      0.208928
  C      -0.183542      0.158641     -0.277937
  C       0.335237     -1.087601      0.081211
  C      -0.536627     -2.134865      0.323709
  H      -1.937622      1.348988     -0.646702
  C       0.726435      1.236174     -0.514659
  H      -3.490909     -0.543147     -0.223182
  H      -2.588840     -2.759502      0.401177
  H       1.407227     -1.210051      0.180262
  H      -0.147386     -3.106330      0.604843
  N       1.298808      2.051919     -1.157671
  O       2.233286      2.898984     -0.940537
  O       1.745051      1.621957      1.227658
  S       2.987448      2.333176      0.847868
  O       4.041283      1.449774      0.408972
17
Coordinates from ORCA-job TS1/TS1 E -948.657512902313
  C      -2.421529     -0.695463     -0.135999
  C      -1.571473      0.372978     -0.374436
  C      -1.898350     -1.937572      0.208314
  C      -0.193578      0.174182     -0.278226
  C       0.338303     -1.068993      0.074888
  C      -0.523045     -2.124893      0.316911
  H      -1.959413      1.350687     -0.634358
  C       0.711960      1.255304     -0.516742
  H      -3.493668     -0.557277     -0.210954
  H      -2.569274     -2.767738      0.399671
  H       1.412017     -1.181008      0.169600
  H      -0.124170     -3.093937      0.592846
  N       1.314362      2.041032     -1.170256
  O       2.267609      2.868142     -0.956850
  O       1.715753      1.664991      1.233123
  S       2.987914      2.317665      0.847235
  O       4.006582      1.381900      0.435234
17
Coordinates from ORCA-job TS1/TS1 E -948.657548857559
  C      -2.421553     -0.693189     -0.130717
  C      -1.568940      0.373240     -0.369575
  C      -1.901237     -1.937914      0.208665
  C      -0.191012      0.170671     -0.277782
  C       0.337360     -1.074988      0.071332
  C      -0.526223     -2.129305      0.312607
  H      -1.955383      1.352224     -0.626892
  C       0.717807      1.248983     -0.519647
  H      -3.493552     -0.551858     -0.202268
  H      -2.573988     -2.766822      0.399309
  H       1.410791     -1.191776      0.161804
  H      -0.129076     -3.100506      0.583440
  N       1.319071      2.032862     -1.176855
  O       2.269185      2.864344     -0.964006
  O       1.710950      1.672592      1.227768
  S       2.982342      2.331446      0.847197
  O       4.013457      1.399995      0.455621
17
Coordinates from ORCA-job TS1/TS1 E -948.657259810465
  C      -2.412462     -0.670397     -0.071819
  C      -1.555384      0.384498     -0.345762
  C      -1.895848     -1.926812      0.232449
  C      -0.179602      0.157277     -0.314638
  C       0.343938     -1.093623      0.003718
  C      -0.520057     -2.140443      0.271052
  H      -1.936498      1.371701     -0.578415
  C       0.752462      1.204362     -0.578866
  H      -3.484308     -0.512064     -0.089162
  H      -2.571815     -2.747042      0.447677
  H       1.420049     -1.215248      0.043583
  H      -0.124597     -3.120471      0.510757
  N       1.379937      1.958249     -1.250582
  O       2.319857      2.797648     -1.008988
  O       1.603904      1.713175      1.188014
  S       2.888995      2.383321      0.883856
  O       3.971429      1.455869      0.657127
17
Coordinates from ORCA-job TS1/TS1 E -948.657268299438
  C      -2.409480     -0.654305     -0.045283
  C      -1.530256      0.382119     -0.319238
  C      -1.921179     -1.928857      0.228512
  C      -0.158808      0.121376     -0.316910
  C       0.335407     -1.147464     -0.019206
  C      -0.551269     -2.177448      0.242820
  H      -1.891777      1.381003     -0.532581
  C       0.789071      1.157323     -0.585582
  H      -3.477223     -0.468656     -0.041261
  H      -2.615033     -2.735294      0.439683
  H       1.407547     -1.296240      0.010108
  H      -0.178099     -3.171494      0.459361
  N       1.400803      1.911789     -1.275258
  O       2.317142      2.781058     -1.041145
  O       1.611085      1.720018      1.157746
  S       2.853590      2.483012      0.881147
  O       4.018479      1.642060      0.757087
17
Coordinates from ORCA-job TS1/TS1 E -948.657578948473
  C      -2.414110     -0.664938     -0.076225
  C      -1.534708      0.375216     -0.333002
  C      -1.925134     -1.933750      0.218049
  C      -0.161184      0.125678     -0.299006
  C       0.334557     -1.143998      0.011168
  C      -0.554941     -2.174196      0.263300
  H      -1.897649      1.371002     -0.558231
  C       0.770446      1.183163     -0.554230
  H      -3.482604     -0.485574     -0.100114
  H      -2.618621     -2.742850      0.419552
  H       1.405034     -1.301757      0.058502
  H      -0.181587     -3.164391      0.496499
  N       1.367380      1.952988     -1.236937
  O       2.287415      2.819745     -1.021368
  O       1.662502      1.706264      1.188891
  S       2.897826      2.462624      0.869953
  O       4.045380      1.614774      0.653199
17
Coordinates from ORCA-job TS1/TS1 E -948.657751878132
  C      -2.418748     -0.675845     -0.126942
  C      -1.534099      0.365361     -0.357501
  C      -1.934645     -1.937388      0.202707
  C      -0.161632      0.122168     -0.271189
  C       0.330869     -1.142095      0.061136
  C      -0.565285     -2.170366      0.298820
  H      -1.890419      1.358032     -0.606090
  C       0.756830      1.192166     -0.511024
  H      -3.485967     -0.501160     -0.196887
  H      -2.631330     -2.747130      0.389740
  H       1.400618     -1.300253      0.135928
  H      -0.197906     -3.155764      0.560112
  N       1.312092      2.008805     -1.168989
  O       2.215997      2.889218     -0.960011
  O       1.757355      1.642932      1.227307
  S       2.958889      2.430232      0.857076
  O       4.087381      1.621086      0.465807
17
Coordinates from ORCA-job TS1/TS1 E -948.657768568130
  C      -2.417022     -0.675296     -0.123860
  C      -1.535951      0.367108     -0.363356
  C      -1.929135     -1.935073      0.208231
  C      -0.162817      0.125346     -0.284009
  C       0.332771     -1.136888      0.051436
  C      -0.559201     -2.166250      0.298383
  H      -1.895767      1.358166     -0.613266
  C       0.759936      1.191810     -0.521192
  H      -3.485055     -0.503091     -0.187053
  H      -2.623679     -2.744580      0.404002
  H       1.403270     -1.285888      0.129392
  H      -0.188543     -3.149196      0.564149
  N       1.315273      2.013967     -1.172282
  O       2.217857      2.894788     -0.955118
  O       1.742585      1.636057      1.224724
  S       2.950969      2.413887      0.863993
  O       4.074510      1.595133      0.475827
17
Coordinates from ORCA-job TS1/TS1 E -948.657759673117
  C      -2.417480     -0.681360     -0.133870
  C      -1.543101      0.366210     -0.375008
  C      -1.921992     -1.935565      0.208015
  C      -0.168933      0.134426     -0.287337
  C       0.334651     -1.121050      0.059731
  C      -0.550895     -2.155883      0.307517
  H      -1.908631      1.353096     -0.632950
  C       0.749630      1.204943     -0.520420
  H      -3.486422     -0.517251     -0.203003
  H      -2.611720     -2.748926      0.404843
  H       1.405827     -1.257752      0.150816
  H      -0.174549     -3.134220      0.582145
  N       1.304026      2.037556     -1.156643
  O       2.213152      2.909182     -0.934757
  O       1.746792      1.629748      1.233806
  S       2.969997      2.379898      0.863077
  O       4.059650      1.536948      0.434036
17
Coordinates from ORCA-job TS1/TS1 E -948.657754492458
  C      -2.416284     -0.681315     -0.133113
  C      -1.542941      0.367265     -0.373920
  C      -1.919799     -1.935401      0.207944
  C      -0.168525      0.137300     -0.285332
  C       0.335767     -1.118065      0.061711
  C      -0.548577     -2.154186      0.307896
  H      -1.909597      1.353854     -0.631340
  C       0.749438      1.208247     -0.519941
  H      -3.485352     -0.518281     -0.202545
  H      -2.608642     -2.749798      0.403522
  H       1.406795     -1.255669      0.150941
  H      -0.170836     -3.132424      0.581015
  N       1.304134      2.038762     -1.159499
  O       2.215008      2.909572     -0.937881
  O       1.740698      1.632241      1.232259
  S       2.967204      2.375294      0.861278
  O       4.051509      1.522603      0.437004
17
Coordinates from ORCA-job TS1/TS1 E -948.657474081148
  C      -2.416502     -0.692900     -0.131289
  C      -1.563776      0.374472     -0.366005
  C      -1.896297     -1.938800      0.202306
  C      -0.186731      0.172081     -0.271260
  C       0.342833     -1.074781      0.075554
  C      -0.521236     -2.130515      0.308836
  H      -1.949504      1.354489     -0.620362
  C       0.723070      1.248733     -0.518125
  H      -3.488381     -0.551262     -0.203650
  H      -2.569220     -2.769170      0.385763
  H       1.417132     -1.192263      0.162438
  H      -0.124927     -3.103914      0.572981
  N       1.315262      2.042986     -1.171359
  O       2.260461      2.879360     -0.951742
  O       1.697631      1.698308      1.237333
  S       2.983225      2.323900      0.846898
  O       3.976959      1.359276      0.441682
17
Coordinates from ORCA-job TS1/TS1 E -948.657610835243
  C      -2.420751     -0.685967     -0.113730
  C      -1.557754      0.374783     -0.339872
  C      -1.911550     -1.942455      0.197565
  C      -0.180433      0.156424     -0.264558
  C       0.336255     -1.102036      0.057283
  C      -0.537958     -2.150632      0.286790
  H      -1.936099      1.361609     -0.578738
  C       0.732928      1.230326     -0.514562
  H      -3.491731     -0.532118     -0.175568
  H      -2.591941     -2.767987      0.375926
  H       1.409079     -1.236213      0.131859
  H      -0.150280     -3.131882      0.534028
  N       1.341420      1.991043     -1.194235
  O       2.280742      2.838871     -0.991834
  O       1.692233      1.733718      1.227243
  S       2.963971      2.394758      0.845114
  O       4.021866      1.467757      0.517288
17
Coordinates from ORCA-job TS1/TS1 E -948.657483520686
  C      -2.415842     -0.668200     -0.063889
  C      -1.547670      0.381682     -0.318985
  C      -1.911268     -1.934672      0.215600
  C      -0.172839      0.141793     -0.298969
  C       0.339043     -1.122048     -0.004822
  C      -0.537750     -2.162901      0.247719
  H      -1.919565      1.376976     -0.531611
  C       0.753182      1.198420     -0.559680
  H      -3.486083     -0.498365     -0.076900
  H      -2.595483     -2.751793      0.416536
  H       1.413438     -1.259355      0.029816
  H      -0.154015     -3.151348      0.471203
  N       1.401488      1.915788     -1.251498
  O       2.334837      2.767773     -1.038645
  O       1.611674      1.767105      1.195818
  S       2.887379      2.450372      0.875006
  O       3.999474      1.548773      0.693301
17
Coordinates from ORCA-job TS1/TS1 E -948.657192091374
  C      -2.417585     -0.655099     -0.041725
  C      -1.530180      0.377925     -0.297848
  C      -1.935734     -1.935450      0.214321
  C      -0.159753      0.108116     -0.307356
  C       0.328536     -1.169330     -0.036947
  C      -0.567084     -2.193627      0.219978
  H      -1.883530      1.383905     -0.491196
  C       0.775431      1.157471     -0.565365
  H      -3.483977     -0.461701     -0.034302
  H      -2.634298     -2.739586      0.418845
  H       1.400196     -1.326497     -0.017929
  H      -0.202633     -3.192535      0.428652
  N       1.436902      1.856993     -1.262530
  O       2.349340      2.731539     -1.065071
  O       1.624115      1.761373      1.184389
  S       2.848767      2.542720      0.881476
  O       4.051487      1.753784      0.772606
17
Coordinates from ORCA-job TS1/TS1 E -948.657589036718
  C      -2.416926     -0.666894     -0.075996
  C      -1.537929      0.374797     -0.325880
  C      -1.925439     -1.936432      0.211177
  C      -0.164257      0.124921     -0.297146
  C       0.334493     -1.145056      0.001527
  C      -0.554528     -2.176317      0.252402
  H      -1.900296      1.372688     -0.542775
  C       0.760539      1.187360     -0.547003
  H      -3.485523     -0.487755     -0.097700
  H      -2.618051     -2.746694      0.411163
  H       1.406345     -1.296767      0.045339
  H      -0.181580     -3.167161      0.483398
  N       1.384611      1.932637     -1.229662
  O       2.302761      2.800381     -1.024621
  O       1.655900      1.733257      1.207777
  S       2.897387      2.472849      0.876368
  O       4.042495      1.624187      0.651633
17
Coordinates from ORCA-job TS1/TS1 E -948.657739881448
  C      -2.418021     -0.673548     -0.109756
  C      -1.536892      0.369715     -0.345032
  C      -1.928945     -1.938067      0.202656
  C      -0.163453      0.124825     -0.280565
  C       0.332839     -1.139341      0.039065
  C      -0.558318     -2.171159      0.280141
  H      -1.896805      1.364104     -0.581230
  C       0.758659      1.189779     -0.523415
  H      -3.486262     -0.498920     -0.162699
  H      -2.622988     -2.749592      0.392074
  H       1.403896     -1.289277      0.105721
  H      -0.186974     -3.158049      0.529906
  N       1.340276      1.982406     -1.188671
  O       2.243628      2.863581     -0.978902
  O       1.715639      1.681152      1.225660
  S       2.938732      2.438770      0.867369
  O       4.064989      1.603621      0.527677
17
Coordinates from ORCA-job TS1/TS1 E -948.657765172820
  C      -2.415164     -0.682412     -0.142630
  C      -1.538594      0.367020     -0.367605
  C      -1.922814     -1.938677      0.196133
  C      -0.165043      0.135656     -0.267922
  C       0.334926     -1.121813      0.076172
  C      -0.552642     -2.158297      0.309012
  H      -1.901792      1.355088     -0.624277
  C       0.751821      1.207278     -0.502652
  H      -3.483230     -0.518538     -0.224355
  H      -2.613815     -2.754393      0.378101
  H       1.404888     -1.265009      0.168953
  H      -0.178009     -3.138511      0.579345
  N       1.294525      2.043413     -1.146241
  O       2.197586      2.923783     -0.928743
  O       1.756577      1.639143      1.240661
  S       2.978994      2.380306      0.853096
  O       4.051786      1.525964      0.402952
17
Coordinates from ORCA-job TS1/TS1 E -948.657778166956
  C      -2.415319     -0.678982     -0.128129
  C      -1.538606      0.368454     -0.361679
  C      -1.922538     -1.937568      0.201311
  C      -0.164627      0.133662     -0.277381
  C       0.335751     -1.126416      0.058376
  C      -0.551868     -2.161506      0.297397
  H      -1.902455      1.358143     -0.611095
  C       0.754433      1.203570     -0.514449
  H      -3.483907     -0.512008     -0.195690
  H      -2.613693     -2.751683      0.389867
  H       1.406342     -1.271641      0.139985
  H      -0.176910     -3.143563      0.560499
  N       1.310746      2.025508     -1.164631
  O       2.218900      2.901022     -0.949016
  O       1.733135      1.655905      1.234921
  S       2.960607      2.396816      0.861471
  O       4.050008      1.540288      0.458243
17
Coordinates from ORCA-job TS1/TS1 E -948.657715631137
  C      -2.414686     -0.675580     -0.103308
  C      -1.543054      0.373345     -0.349002
  C      -1.915210     -1.935591      0.210267
  C      -0.167980      0.138778     -0.290935
  C       0.339334     -1.122888      0.030269
  C      -0.542965     -2.159942      0.279013
  H      -1.911789      1.364209     -0.586229
  C       0.751395      1.206452     -0.536331
  H      -3.484446     -0.508925     -0.149073
  H      -2.602355     -2.751009      0.407541
  H       1.411439     -1.268236      0.091042
  H      -0.162700     -3.143533      0.528343
  N       1.345593      1.993250     -1.197233
  O       2.265907      2.856428     -0.977755
  O       1.678901      1.701542      1.225434
  S       2.930970      2.410400      0.869806
  O       4.021646      1.521298      0.548151
17
Coordinates from ORCA-job TS1/TS1 E -948.657696007208
  C      -2.414143     -0.671159     -0.089952
  C      -1.540036      0.374244     -0.341559
  C      -1.917303     -1.934714      0.213559
  C      -0.165416      0.133276     -0.298088
  C       0.339182     -1.131746      0.013725
  C      -0.545435     -2.165907      0.266945
  H      -1.906581      1.367894     -0.570426
  C       0.755933      1.198928     -0.544634
  H      -3.483557     -0.499074     -0.122611
  H      -2.606320     -2.747387      0.415776
  H       1.411368     -1.280560      0.064191
  H      -0.167666     -3.152356      0.508661
  N       1.362804      1.969758     -1.213932
  O       2.281440      2.834927     -0.994285
  O       1.660786      1.718139      1.218630
  S       2.913292      2.433520      0.876752
  O       4.021652      1.552219      0.597249
17
Coordinates from ORCA-job TS1/TS1 E -948.657475762305
  C      -2.416885     -0.660846     -0.063052
  C      -1.531171      0.374555     -0.315164
  C      -1.932604     -1.935644      0.213868
  C      -0.158991      0.113115     -0.302096
  C       0.331616     -1.161550     -0.017421
  C      -0.563137     -2.186615      0.238542
  H      -1.887185      1.376474     -0.524016
  C       0.769361      1.170834     -0.553053
  H      -3.484191     -0.473113     -0.074793
  H      -2.629453     -2.741373      0.417625
  H       1.402228     -1.324444      0.010907
  H      -0.195796     -3.181575      0.460625
  N       1.406553      1.902196     -1.239026
  O       2.314421      2.780327     -1.032708
  O       1.647295      1.742187      1.202945
  S       2.875786      2.510385      0.880558
  O       4.052154      1.695086      0.696260
17
Coordinates from ORCA-job TS1/TS1 E -948.657695372144
  C      -2.415331     -0.668928     -0.087813
  C      -1.535978      0.372973     -0.335449
  C      -1.924439     -1.935992      0.210630
  C      -0.162133      0.125506     -0.294649
  C       0.336123     -1.143234      0.011605
  C      -0.553636     -2.173778      0.262200
  H      -1.898042      1.369113     -0.560701
  C       0.760832      1.190317     -0.540629
  H      -3.483933     -0.491587     -0.119893
  H      -2.617225     -2.746171      0.410122
  H       1.407354     -1.298509      0.060246
  H      -0.180645     -3.162877      0.500485
  N       1.366887      1.957953     -1.214247
  O       2.279907      2.829924     -1.001958
  O       1.670252      1.717672      1.217476
  S       2.909664      2.456596      0.875922
  O       4.040343      1.601021      0.606653
17
Coordinates from ORCA-job TS1/TS1 E -948.657779622132
  C      -2.415732     -0.676179     -0.118028
  C      -1.535903      0.368650     -0.350803
  C      -1.925986     -1.938543      0.200844
  C      -0.162000      0.128517     -0.276960
  C       0.335355     -1.136041      0.048097
  C      -0.555637     -2.168611      0.286348
  H      -1.897222      1.361245     -0.592237
  C       0.756338      1.199036     -0.516793
  H      -3.484008     -0.504333     -0.178124
  H      -2.619259     -2.751092      0.388525
  H       1.405632     -1.289419      0.120145
  H      -0.183518     -3.154255      0.539887
  N       1.326101      2.004255     -1.177004
  O       2.232722      2.882592     -0.964322
  O       1.720284      1.682960      1.232903
  S       2.949844      2.423498      0.861708
  O       4.052989      1.567719      0.495815
17
Coordinates from ORCA-job TS1/TS1 E -948.657672215891
  C      -2.409822     -0.678503     -0.133950
  C      -1.535039      0.369143     -0.373929
  C      -1.915320     -1.933584      0.206397
  C      -0.161486      0.137039     -0.283823
  C       0.341023     -1.119404      0.061375
  C      -0.544442     -2.154528      0.306284
  H      -1.899606      1.356554     -0.631132
  C       0.758490      1.204855     -0.520961
  H      -3.478501     -0.514066     -0.204823
  H      -2.605159     -2.747454      0.400211
  H       1.411822     -1.263065      0.144163
  H      -0.167294     -3.133699      0.576890
  N       1.297054      2.051120     -1.154411
  O       2.201549      2.927733     -0.924199
  O       1.726170      1.637956      1.238821
  S       2.959089      2.366850      0.865098
  O       4.021470      1.493054      0.427989
17
Coordinates from ORCA-job TS1/TS1 E -948.657768900559
  C      -2.413551     -0.676524     -0.119679
  C      -1.536716      0.369869     -0.357399
  C      -1.920652     -1.936495      0.204254
  C      -0.162680      0.132812     -0.282125
  C       0.337886     -1.128883      0.047908
  C      -0.549764     -2.163043      0.290429
  H      -1.900503      1.360630     -0.602586
  C       0.757515      1.201075     -0.521811
  H      -3.482286     -0.507743     -0.179778
  H      -2.611838     -2.749859      0.395866
  H       1.408739     -1.277138      0.121131
  H      -0.174592     -3.146392      0.548345
  N       1.320937      2.016563     -1.174413
  O       2.229318      2.891762     -0.955565
  O       1.713099      1.673080      1.233863
  S       2.948180      2.404272      0.865560
  O       4.036906      1.536013      0.486003
17
Coordinates from ORCA-job TS1/TS1 E -948.657753883272
  C      -2.413076     -0.672752     -0.105480
  C      -1.536001      0.371908     -0.349599
  C      -1.919964     -1.935169      0.208707
  C      -0.162000      0.130805     -0.289881
  C       0.338759     -1.133102      0.031030
  C      -0.548832     -2.165936      0.279052
  H      -1.899528      1.364675     -0.586976
  C       0.759459      1.196888     -0.532776
  H      -3.481948     -0.500852     -0.152740
  H      -2.611247     -2.747209      0.405469
  H       1.410049     -1.283503      0.092675
  H      -0.173606     -3.151195      0.529441
  N       1.339921      1.994590     -1.192984
  O       2.249874      2.868437     -0.973901
  O       1.688777      1.691071      1.227373
  S       2.928558      2.420534      0.872406
  O       4.030805      1.550811      0.538186
17
Coordinates from ORCA-job TS1/TS1 E -948.657757528595
  C      -2.414104     -0.672787     -0.103397
  C      -1.536261      0.371389     -0.346727
  C      -1.921759     -1.936194      0.207749
  C      -0.162121      0.129234     -0.289498
  C       0.337811     -1.135959      0.028738
  C      -0.550753     -2.168331      0.275908
  H      -1.899436      1.364826     -0.581833
  C       0.758888      1.196353     -0.531960
  H      -3.482916     -0.499785     -0.148749
  H      -2.613613     -2.747928      0.403976
  H       1.409025     -1.287386      0.089601
  H      -0.176521     -3.154544      0.524022
  N       1.344554      1.988004     -1.194910
  O       2.254704      2.862068     -0.978533
  O       1.688204      1.700566      1.227551
  S       2.929002      2.429273      0.871666
  O       4.035297      1.561200      0.546395
17
Coordinates from ORCA-job TS1/TS1 E -948.657756802670
  C      -2.413861     -0.671229     -0.100568
  C      -1.534519      0.371643     -0.344010
  C      -1.923187     -1.935927      0.208098
  C      -0.160731      0.126964     -0.289621
  C       0.337434     -1.139432      0.025714
  C      -0.552447     -2.170533      0.273298
  H      -1.896259      1.366062     -0.577205
  C       0.761234      1.192878     -0.532860
  H      -3.482426     -0.496283     -0.144064
  H      -2.616061     -2.746740      0.404488
  H       1.408409     -1.293504      0.083467
  H      -0.179359     -3.157683      0.519399
  N       1.347989      1.981766     -1.198236
  O       2.256671      2.857550     -0.983283
  O       1.686100      1.702447      1.226083
  S       2.923834      2.437207      0.872662
  O       4.037180      1.574815      0.556639
17
Coordinates from ORCA-job TS1/TS1 E -948.657602331788
  C      -2.415306     -0.660531     -0.082811
  C      -1.518190      0.368759     -0.317878
  C      -1.945340     -1.938236      0.202829
  C      -0.147556      0.099124     -0.282746
  C       0.329286     -1.181885      0.007772
  C      -0.578632     -2.198842      0.250925
  H      -1.863943      1.372848     -0.533490
  C       0.780939      1.160377     -0.528730
  H      -3.480845     -0.465406     -0.115674
  H      -2.651404     -2.739041      0.393696
  H       1.397087     -1.361054      0.048527
  H      -0.222779     -3.196435      0.479781
  N       1.374512      1.927896     -1.213765
  O       2.266234      2.824056     -1.019216
  O       1.695883      1.726754      1.217252
  S       2.898381      2.525075      0.870271
  O       4.081673      1.736543      0.623257
17
Coordinates from ORCA-job TS1/TS1 E -948.657759884663
  C      -2.414151     -0.669927     -0.098898
  C      -1.532291      0.371248     -0.340422
  C      -1.926430     -1.936425      0.206933
  C      -0.158920      0.123247     -0.287638
  C       0.336209     -1.145240      0.024481
  C      -0.556239     -2.174483      0.270837
  H      -1.891809      1.366962     -0.571540
  C       0.764194      1.188270     -0.531571
  H      -3.482312     -0.492360     -0.141941
  H      -2.621179     -2.746003      0.401849
  H       1.406751     -1.303065      0.080196
  H      -0.185531     -3.163076      0.514730
  N       1.350305      1.975484     -1.199601
  O       2.256587      2.854296     -0.987756
  O       1.688907      1.705327      1.225198
  S       2.921557      2.449283      0.871820
  O       4.044352      1.596461      0.563322
17
Coordinates from ORCA-job TS1/TS1 E -948.657766009975
  C      -2.414119     -0.670344     -0.101127
  C      -1.532057      0.370847     -0.341761
  C      -1.926686     -1.936551      0.206309
  C      -0.158692      0.123151     -0.286644
  C       0.336166     -1.145074      0.027041
  C      -0.556564     -2.174287      0.272649
  H      -1.891375      1.366330     -0.574186
  C       0.764090      1.188664     -0.529962
  H      -3.482236     -0.492973     -0.146100
  H      -2.621626     -2.746128      0.400551
  H       1.406624     -1.302742      0.084687
  H      -0.186121     -3.162674      0.517779
  N       1.346915      1.979231     -1.196884
  O       2.252431      2.858776     -0.984747
  O       1.692873      1.701810      1.226043
  S       2.924396      2.446887      0.871029
  O       4.045982      1.595076      0.555325
17
Coordinates from ORCA-job TS1/TS1 E -948.657751753902
  C      -2.411822     -0.678646     -0.132544
  C      -1.533892      0.368026     -0.364761
  C      -1.920837     -1.936740      0.200832
  C      -0.160262      0.133174     -0.275686
  C       0.338556     -1.127514      0.062791
  C      -0.550642     -2.161302      0.300986
  H      -1.896356      1.357425     -0.617293
  C       0.757617      1.204496     -0.512062
  H      -3.480020     -0.511253     -0.204394
  H      -2.612858     -2.750284      0.388425
  H       1.408480     -1.277418      0.145786
  H      -0.176797     -3.143298      0.565887
  N       1.302626      2.038500     -1.156787
  O       2.206511      2.918057     -0.935507
  O       1.732054      1.657954      1.239799
  S       2.962655      2.388795      0.858798
  O       4.034986      1.520026      0.435731
17
Coordinates from ORCA-job TS1/TS1 E -948.657776573951
  C      -2.413224     -0.675191     -0.116920
  C      -1.534642      0.369861     -0.353889
  C      -1.922269     -1.936757      0.203720
  C      -0.160816      0.130108     -0.281537
  C       0.337739     -1.133307      0.045108
  C      -0.551694     -2.166130      0.287164
  H      -1.896912      1.361768     -0.596689
  C       0.759998      1.197871     -0.521793
  H      -3.481723     -0.504217     -0.175155
  H      -2.614750     -2.749177      0.394720
  H       1.408372     -1.284379      0.115854
  H      -0.178157     -3.150792      0.542430
  N       1.324817      2.010219     -1.177302
  O       2.231152      2.887958     -0.960065
  O       1.709909      1.681700      1.233957
  S       2.944710      2.413683      0.865640
  O       4.037490      1.546783      0.494757
17
Coordinates from ORCA-job TS1/TS1 E -948.657761680523
  C      -2.412397     -0.671281     -0.102702
  C      -1.533571      0.371788     -0.347104
  C      -1.921294     -1.935139      0.208763
  C      -0.159825      0.127829     -0.290663
  C       0.338878     -1.137671      0.027663
  C      -0.550528     -2.168917      0.276040
  H      -1.895509      1.365595     -0.582560
  C       0.762349      1.193326     -0.533987
  H      -3.481008     -0.497071     -0.147575
  H      -2.613927     -2.745968      0.405841
  H       1.409932     -1.290461      0.087399
  H      -0.177071     -3.155376      0.524328
  N       1.343680      1.989532     -1.195247
  O       2.250883      2.866332     -0.976494
  O       1.684695      1.699127      1.227652
  S       2.924752      2.428614      0.872757
  O       4.029962      1.559741      0.545890
17
Coordinates from ORCA-job TS1/TS1 E -948.657664595663
  C      -2.412984     -0.661644     -0.072924
  C      -1.526161      0.372838     -0.324240
  C      -1.930908     -1.934901      0.213234
  C      -0.154088      0.112299     -0.300201
  C       0.335236     -1.163173     -0.007186
  C      -0.561984     -2.186343      0.247590
  H      -1.880856      1.373843     -0.539519
  C       0.772698      1.173395     -0.547628
  H      -3.480124     -0.473859     -0.092310
  H      -2.629235     -2.739369      0.416558
  H       1.405319     -1.330526      0.026779
  H      -0.196345     -3.180467      0.476102
  N       1.386478      1.929471     -1.227817
  O       2.290412      2.811236     -1.019200
  O       1.654043      1.741175      1.213631
  S       2.886741      2.495894      0.880924
  O       4.041759      1.660132      0.656205
17
Coordinates from ORCA-job TS1/TS1 E -948.657761974924
  C      -2.413196     -0.668961     -0.096433
  C      -1.531168      0.371553     -0.340159
  C      -1.925694     -1.935839      0.208279
  C      -0.157882      0.122541     -0.290195
  C       0.337022     -1.146259      0.020961
  C      -0.555552     -2.174976      0.269023
  H      -1.890470      1.367541     -0.570422
  C       0.765947      1.186767     -0.534486
  H      -3.481332     -0.490606     -0.136761
  H      -2.620608     -2.744863      0.404905
  H       1.407625     -1.304425      0.074645
  H      -0.185025     -3.163885      0.511906
  N       1.352928      1.973909     -1.201844
  O       2.258273      2.853418     -0.988422
  O       1.682423      1.709589      1.225052
  S       2.917575      2.450336      0.873779
  O       4.039133      1.594159      0.570174
17
Coordinates from ORCA-job TS1/TS1 E -948.657782794976
  C      -2.413047     -0.672055     -0.109044
  C      -1.531597      0.370138     -0.347517
  C      -1.925159     -1.936511      0.204761
  C      -0.158200      0.124939     -0.283973
  C       0.337237     -1.141541      0.035869
  C      -0.555035     -2.171592      0.279540
  H      -1.891234      1.364314     -0.584937
  C       0.763639      1.191565     -0.525464
  H      -3.481176     -0.496664     -0.160662
  H      -2.619756     -2.746771      0.397282
  H       1.407614     -1.297446      0.099866
  H      -0.184153     -3.158608      0.529494
  N       1.335104      1.994759     -1.186906
  O       2.238738      2.875752     -0.971703
  O       1.701586      1.692679      1.230745
  S       2.933588      2.432624      0.868534
  O       4.041852      1.574419      0.524117
17
Coordinates from ORCA-job TS1/TS1 E -948.657726783790
  C      -2.411021     -0.677250     -0.124640
  C      -1.535473      0.369777     -0.364179
  C      -1.916794     -1.935193      0.205255
  C      -0.161437      0.134926     -0.284318
  C       0.340605     -1.124459      0.051810
  C      -0.545771     -2.159283      0.295815
  H      -1.899973      1.359159     -0.613801
  C       0.758165      1.203493     -0.522632
  H      -3.479865     -0.510354     -0.187599
  H      -2.607151     -2.748864      0.398410
  H       1.411602     -1.269592      0.129456
  H      -0.169579     -3.140982      0.558467
  N       1.313078      2.031335     -1.166627
  O       2.218933      2.907919     -0.940735
  O       1.711392      1.667538      1.238278
  S       2.951742      2.386284      0.865442
  O       4.021548      1.505545      0.461599
17
Coordinates from ORCA-job TS1/TS1 E -948.657769331649
  C      -2.412400     -0.674244     -0.113625
  C      -1.534100      0.370451     -0.353118
  C      -1.921000     -1.936094      0.205313
  C      -0.160238      0.129995     -0.284674
  C       0.338785     -1.133615      0.040519
  C      -0.550293     -2.166202      0.284687
  H      -1.896550      1.362638     -0.594497
  C       0.760857      1.197191     -0.525427
  H      -3.480997     -0.502773     -0.168375
  H      -2.613291     -2.748179      0.398389
  H       1.409611     -1.284532      0.108741
  H      -0.176469     -3.151081      0.538675
  N       1.328999      2.007112     -1.181109
  O       2.235166      2.884791     -0.962192
  O       1.701216      1.687535      1.233750
  S       2.939594      2.414443      0.867960
  O       4.031110      1.542564      0.504984
17
Coordinates from ORCA-job TS1/TS1 E -948.657766795312
  C      -2.412003     -0.668849     -0.098094
  C      -1.530398      0.371603     -0.343452
  C      -1.924055     -1.934905      0.209403
  C      -0.157184      0.123074     -0.292094
  C       0.338278     -1.144711      0.021936
  C      -0.553850     -2.173410      0.271410
  H      -1.889767      1.367097     -0.575731
  C       0.766538      1.187090     -0.536167
  H      -3.480171     -0.490960     -0.139104
  H      -2.618731     -2.743765      0.407428
  H       1.408986     -1.301684      0.077128
  H      -0.182956     -3.161627      0.516519
  N       1.349393      1.980360     -1.199691
  O       2.253036      2.860962     -0.982403
  O       1.681382      1.704352      1.225834
  S       2.917633      2.442605      0.874827
  O       4.033869      1.582765      0.562250
17
Coordinates from ORCA-job TS1/TS1 E -948.657616466868
  C      -2.413303     -0.658292     -0.073270
  C      -1.517928      0.370668     -0.316503
  C      -1.941412     -1.936288      0.208313
  C      -0.147359      0.100557     -0.291393
  C       0.331364     -1.180377     -0.004475
  C      -0.574455     -2.197540      0.244604
  H      -1.864995      1.374960     -0.528975
  C       0.782112      1.159963     -0.539063
  H      -3.478995     -0.462738     -0.096295
  H      -2.646036     -2.736832      0.405384
  H       1.399435     -1.359869      0.027839
  H      -0.216694     -3.195427      0.469164
  N       1.385617      1.919410     -1.224944
  O       2.279881      2.812308     -1.025110
  O       1.673291      1.737133      1.212978
  S       2.884143      2.525938      0.876235
  O       4.065335      1.726425      0.655510
17
Coordinates from ORCA-job TS1/TS1 E -948.657771490705
  C      -2.412857     -0.668552     -0.097969
  C      -1.529227      0.371010     -0.339842
  C      -1.927296     -1.936075      0.207075
  C      -0.156217      0.120469     -0.288200
  C       0.336712     -1.149146      0.022919
  C      -0.557527     -2.176772      0.269638
  H      -1.887034      1.367446     -0.570495
  C       0.767925      1.184589     -0.532153
  H      -3.480714     -0.488956     -0.140151
  H      -2.623420     -2.744398      0.402297
  H       1.406950     -1.309508      0.077356
  H      -0.188508     -3.166212      0.512659
  N       1.350307      1.975289     -1.199350
  O       2.252983      2.857663     -0.986661
  O       1.686986      1.708179      1.226254
  S       2.918784      2.453473      0.872762
  O       4.042153      1.601500      0.563860
17
Coordinates from ORCA-job TS1/TS1 E -948.657782498750
  C      -2.412806     -0.670162     -0.104338
  C      -1.529564      0.370321     -0.343589
  C      -1.926904     -1.936419      0.205306
  C      -0.156465      0.121799     -0.285169
  C       0.336867     -1.146553      0.030359
  C      -0.557104     -2.174938      0.274947
  H      -1.887647      1.365807     -0.577882
  C       0.766649      1.187138     -0.527675
  H      -3.480686     -0.492162     -0.152188
  H      -2.622791     -2.745423      0.398503
  H       1.407030     -1.305462      0.090125
  H      -0.187802     -3.163368      0.521627
  N       1.341384      1.985865     -1.191769
  O       2.243176      2.868990     -0.978243
  O       1.696377      1.699784      1.229198
  S       2.926949      2.444110      0.870202
  O       4.043335      1.590672      0.540588
17
Coordinates from ORCA-job TS1/TS1 E -948.657752131863
  C      -2.411040     -0.675199     -0.120742
  C      -1.532866      0.369652     -0.359955
  C      -1.919718     -1.935345      0.205035
  C      -0.159211      0.130631     -0.284355
  C       0.339845     -1.131087      0.047346
  C      -0.549132     -2.163725      0.291420
  H      -1.895033      1.360700     -0.606375
  C       0.761570      1.198132     -0.523293
  H      -3.479532     -0.504966     -0.180810
  H      -2.612008     -2.747395      0.398131
  H       1.410566     -1.280185      0.121150
  H      -0.175307     -3.147177      0.550861
  N       1.317714      2.022269     -1.171182
  O       2.220661      2.902224     -0.947753
  O       1.709712      1.673327      1.237012
  S       2.946186      2.400349      0.867005
  O       4.027594      1.527795      0.476505
17
Coordinates from ORCA-job TS1/TS1 E -948.657775183804
  C      -2.412040     -0.673102     -0.111991
  C      -1.532253      0.370313     -0.351473
  C      -1.922348     -1.936031      0.205296
  C      -0.158645      0.127597     -0.284892
  C       0.338626     -1.137174      0.038463
  C      -0.551934     -2.168469      0.282814
  H      -1.893329      1.363306     -0.591607
  C       0.763157      1.194141     -0.525934
  H      -3.480413     -0.499830     -0.165496
  H      -2.615755     -2.747148      0.398457
  H       1.409246     -1.290273      0.104981
  H      -0.179483     -3.154209      0.535470
  N       1.330724      2.003818     -1.182451
  O       2.234724      2.883791     -0.964107
  O       1.700257      1.689996      1.233539
  S       2.936749      2.420708      0.868707
  O       4.032716      1.552565      0.510223
17
Coordinates from ORCA-job TS1/TS1 E -948.657774064817
  C      -2.411838     -0.669260     -0.100253
  C      -1.529804      0.371314     -0.343553
  C      -1.924468     -1.935333      0.208026
  C      -0.156625      0.122927     -0.289667
  C       0.338248     -1.145009      0.024869
  C      -0.554379     -2.173702      0.272671
  H      -1.888829      1.366745     -0.576622
  C       0.766987      1.187244     -0.533354
  H      -3.479929     -0.491474     -0.143679
  H      -2.619473     -2.744328      0.404347
  H       1.408789     -1.302652      0.081474
  H      -0.183890     -3.161954      0.518266
  N       1.346408      1.983119     -1.196809
  O       2.249290      2.864686     -0.980201
  O       1.684805      1.704684      1.227663
  S       2.920637      2.441995      0.873194
  O       4.034071      1.580999      0.553628
17
Coordinates from ORCA-job TS1/TS1 E -948.657721287818
  C      -2.412752     -0.662658     -0.083938
  C      -1.522483      0.371021     -0.326252
  C      -1.934843     -1.936242      0.207507
  C      -0.150772      0.109372     -0.289555
  C       0.334203     -1.166705      0.007787
  C      -0.566571     -2.188561      0.255427
  H      -1.874270      1.371952     -0.546569
  C       0.776557      1.170549     -0.536071
  H      -3.479454     -0.474056     -0.115407
  H      -2.635794     -2.740285      0.403306
  H       1.403323     -1.337784      0.049937
  H      -0.203849     -3.182886      0.487725
  N       1.369943      1.944249     -1.214214
  O       2.267280      2.833348     -1.008582
  O       1.676979      1.727770      1.219287
  S       2.899286      2.494051      0.874678
  O       4.053216      1.666865      0.614933
17
Coordinates from ORCA-job TS1/TS1 E -948.657777532792
  C      -2.412372     -0.668543     -0.099192
  C      -1.528409      0.370899     -0.340324
  C      -1.927246     -1.936063      0.206567
  C      -0.155478      0.120204     -0.287333
  C       0.337019     -1.149394      0.024461
  C      -0.557569     -2.176867      0.270576
  H      -1.885856      1.367309     -0.571642
  C       0.768771      1.184222     -0.531195
  H      -3.480162     -0.488856     -0.142589
  H      -2.623645     -2.744302      0.401141
  H       1.407171     -1.309983      0.079860
  H      -0.188874     -3.166297      0.514127
  N       1.348307      1.977663     -1.197589
  O       2.249791      2.861247     -0.984500
  O       1.687951      1.707983      1.227345
  S       2.919873      2.452118      0.872117
  O       4.040729      1.598661      0.558170
17
Coordinates from ORCA-job TS1/TS1 E -948.657782749597
  C      -2.412194     -0.669358     -0.102632
  C      -1.528545      0.370555     -0.342848
  C      -1.926764     -1.936075      0.205945
  C      -0.155569      0.121008     -0.286253
  C       0.337280     -1.147756      0.028265
  C      -0.557047     -2.175630      0.273638
  H      -1.886201      1.366379     -0.576349
  C       0.768176      1.185595     -0.529326
  H      -3.480013     -0.490591     -0.148915
  H      -2.622966     -2.744639      0.399839
  H       1.407428     -1.307351      0.086540
  H      -0.188099     -3.164413      0.519431
  N       1.343275      1.984051     -1.193448
  O       2.244183      2.868000     -0.979273
  O       1.692523      1.702802      1.228956
  S       2.924018      2.446091      0.871090
  O       4.040514      1.591333      0.545342
17
Coordinates from ORCA-job TS1/TS1 E -948.657773125625
  C      -2.411151     -0.672503     -0.112839
  C      -1.530534      0.370027     -0.352985
  C      -1.922452     -1.935482      0.205785
  C      -0.157135      0.126298     -0.285768
  C       0.339168     -1.138514      0.038709
  C      -0.552229     -2.168907      0.283788
  H      -1.890688      1.363132     -0.594041
  C       0.764917      1.192557     -0.526402
  H      -3.479368     -0.498429     -0.166720
  H      -2.616511     -2.745855      0.399672
  H       1.409660     -1.292385      0.105651
  H      -0.180580     -3.154687      0.537453
  N       1.328572      2.006677     -1.180746
  O       2.230092      2.888833     -0.960607
  O       1.700784      1.687574      1.234336
  S       2.936319      2.419539      0.869264
  O       4.031137      1.552125      0.505451
17
Coordinates from ORCA-job TS1/TS1 E -948.657779316030
  C      -2.411570     -0.671230     -0.107773
  C      -1.530136      0.370499     -0.348392
  C      -1.923704     -1.935712      0.206140
  C      -0.156817      0.124698     -0.286398
  C       0.338577     -1.141693      0.033510
  C      -0.553579     -2.171360      0.278992
  H      -1.889699      1.364668     -0.585932
  C       0.765996      1.190158     -0.528352
  H      -3.479714     -0.495497     -0.157762
  H      -2.618326     -2.745558      0.400284
  H       1.409029     -1.297549      0.096267
  H      -0.182617     -3.158349      0.528939
  N       1.335990      1.996374     -1.187191
  O       2.238012      2.878525     -0.969439
  O       1.694919      1.696234      1.232030
  S       2.930462      2.430299      0.870337
  O       4.033179      1.565495      0.524741
17
Coordinates from ORCA-job TS1/TS1 E -948.657777703776
  C      -2.411809     -0.667827     -0.097980
  C      -1.527476      0.371047     -0.340089
  C      -1.927113     -1.935651      0.207251
  C      -0.154678      0.119448     -0.288495
  C       0.337412     -1.150385      0.022842
  C      -0.557521     -2.177345      0.269812
  H      -1.884463      1.367721     -0.570985
  C       0.769917      1.182976     -0.532681
  H      -3.479528     -0.487453     -0.140151
  H      -2.623816     -2.743428      0.402630
  H       1.407556     -1.311408      0.077283
  H      -0.189190     -3.167004      0.512975
  N       1.349423      1.976593     -1.198916
  O       2.249912      2.861085     -0.984911
  O       1.685161      1.709208      1.226890
  S       2.917450      2.453120      0.872921
  O       4.038762      1.599305      0.561603
17
Coordinates from ORCA-job TS1/TS1 E -948.657782994581
  C      -2.411871     -0.669062     -0.102033
  C      -1.528098      0.370659     -0.342632
  C      -1.926602     -1.935926      0.206220
  C      -0.155160      0.120777     -0.286637
  C       0.337519     -1.148130      0.027559
  C      -0.556916     -2.175830      0.273236
  H      -1.885627      1.366580     -0.575908
  C       0.768871      1.185036     -0.529935
  H      -3.479671     -0.490051     -0.147785
  H      -2.622904     -2.744342      0.400374
  H       1.407660     -1.307986      0.085279
  H      -0.188075     -3.164727      0.518728
  N       1.343977      1.983559     -1.193963
  O       2.244519      2.867860     -0.979559
  O       1.690692      1.704629      1.229142
  S       2.923011      2.446574      0.871373
  O       4.038676      1.590379      0.546541
17
Coordinates from ORCA-job TS1/TS1 E -948.657768779418
  C      -2.410706     -0.672192     -0.111794
  C      -1.530240      0.370330     -0.352473
  C      -1.921838     -1.935275      0.206216
  C      -0.156845      0.126476     -0.286324
  C       0.339655     -1.138407      0.037626
  C      -0.551581     -2.168824      0.283154
  H      -1.890487      1.363487     -0.593172
  C       0.765353      1.192454     -0.527523
  H      -3.478953     -0.498060     -0.164837
  H      -2.615811     -2.745641      0.400438
  H       1.410198     -1.292241      0.103840
  H      -0.179788     -3.154680      0.536321
  N       1.329922      2.005818     -1.182034
  O       2.231427      2.887944     -0.961134
  O       1.697294      1.690823      1.234328
  S       2.934774      2.419423      0.869392
  O       4.027625      1.548565      0.507979
17
Coordinates from ORCA-job TS1/TS1 E -948.657782459559
  C      -2.411492     -0.670005     -0.104852
  C      -1.528772      0.370603     -0.345524
  C      -1.925067     -1.935737      0.206244
  C      -0.155671      0.122580     -0.286568
  C       0.338227     -1.145124      0.030492
  C      -0.555187     -2.173692      0.276130
  H      -1.887189      1.365688     -0.580968
  C       0.767839      1.187329     -0.529267
  H      -3.479446     -0.492498     -0.152692
  H      -2.620626     -2.744775      0.400430
  H       1.408510     -1.303132      0.090675
  H      -0.185398     -3.161683      0.523839
  N       1.339914      1.990165     -1.190570
  O       2.240825      2.873758     -0.974255
  O       1.692146      1.701228      1.230828
  S       2.926496      2.438386      0.870845
  O       4.034890      1.576911      0.535214
17
Coordinates from ORCA-job TS1/TS1 E -948.657783646986
  C      -2.411525     -0.668977     -0.102461
  C      -1.527719      0.370628     -0.343400
  C      -1.926314     -1.935704      0.206472
  C      -0.154816      0.120719     -0.287016
  C       0.337825     -1.148020      0.027836
  C      -0.556645     -2.175610      0.273823
  H      -1.885153      1.366463     -0.577181
  C       0.769263      1.184891     -0.530233
  H      -3.479311     -0.489959     -0.148433
  H      -2.622662     -2.744003      0.400927
  H       1.407966     -1.307755      0.085906
  H      -0.187848     -3.164391      0.519847
  N       1.343076      1.985095     -1.193309
  O       2.243012      2.869857     -0.978035
  O       1.690482      1.703840      1.229513
  S       2.923089      2.445046      0.871520
  O       4.037280      1.587879      0.544225
17
Coordinates from ORCA-job TS1/TS1 E -948.657785013574
  C      -2.411576     -0.668786     -0.102395
  C      -1.527265      0.370514     -0.342791
  C      -1.926961     -1.935831      0.206142
  C      -0.154440      0.120028     -0.286415
  C       0.337580     -1.149089      0.027933
  C      -0.557403     -2.176337      0.273532
  H      -1.884261      1.366570     -0.576304
  C       0.769799      1.184106     -0.529651
  H      -3.479279     -0.489300     -0.148540
  H      -2.623677     -2.743916      0.400179
  H       1.407614     -1.309600      0.085795
  H      -0.189072     -3.165377      0.519215
  N       1.343179      1.984195     -1.193272
  O       2.242615      2.869589     -0.978715
  O       1.691424      1.704329      1.229540
  S       2.923016      2.447185      0.871224
  O       4.038707      1.591720      0.544524
17
Coordinates from ORCA-job TS1/TS1 E -948.657783479370
  C      -2.411346     -0.669563     -0.104210
  C      -1.528100      0.370575     -0.344938
  C      -1.925529     -1.935668      0.206322
  C      -0.155102      0.121740     -0.286673
  C       0.338173     -1.146355      0.029776
  C      -0.555762     -2.174453      0.275530
  H      -1.886021      1.365938     -0.579969
  C       0.768684      1.186212     -0.529559
  H      -3.479213     -0.491415     -0.151587
  H      -2.621481     -2.744352      0.400574
  H       1.408378     -1.305123      0.089351
  H      -0.186459     -3.162738      0.522790
  N       1.340630      1.988886     -1.191191
  O       2.240781      2.873281     -0.975029
  O       1.691670      1.702085      1.230576
  S       2.925364      2.440557      0.870996
  O       4.035334      1.580392      0.537240
17
Coordinates from ORCA-job TS1/TS1 E -948.657784403607
  C      -2.411351     -0.669203     -0.103502
  C      -1.527634      0.370544     -0.344165
  C      -1.926073     -1.935691      0.206296
  C      -0.154717      0.120984     -0.286640
  C       0.337999     -1.147524      0.029038
  C      -0.556401     -2.175230      0.274780
  H      -1.885135      1.366190     -0.578643
  C       0.769286      1.185264     -0.529659
  H      -3.479145     -0.490468     -0.150378
  H      -2.622370     -2.744091      0.400512
  H       1.408131     -1.307025      0.087951
  H      -0.187534     -3.163825      0.521452
  N       1.341556      1.987188     -1.191961
  O       2.241253      2.872131     -0.976307
  O       1.691414      1.703088      1.230253
  S       2.924370      2.443103      0.871118
  O       4.036351      1.584567      0.539857
