17
Coordinates from ORCA-job orca E -948.110676919129
  C       0.228599      0.006310     -0.493573
  C       1.321999      0.872359     -0.513824
  C       0.223505     -1.094580      0.376555
  C       2.413876      0.597190      0.324081
  C       2.409314     -0.481437      1.221494
  C       1.308387     -1.338778      1.231865
  H       1.344172      1.740756     -1.161365
  C       3.812503      1.324930      0.006146
  H      -0.620989      0.194216     -1.140124
  H      -0.635184     -1.757192      0.397120
  H       3.252060     -0.636192      1.884526
  H       1.288103     -2.184414      1.909879
  N       3.413123      2.139488      0.901641
  O       5.182368      3.451771      0.637470
  O       4.695208      1.027993     -0.839434
  S       6.069349      3.041337     -0.682555
  O       5.668009      3.893244     -1.989201
17
Coordinates from ORCA-job orca E -948.127569971839
  C       0.236872      0.010399     -0.494762
  C       1.333973      0.866656     -0.531903
  C       0.231236     -1.081749      0.382364
  C       2.429076      0.588108      0.296747
  C       2.424698     -0.480728      1.202138
  C       1.319378     -1.327358      1.228655
  H       1.355136      1.732119     -1.184399
  C       3.797823      1.330321      0.005612
  H      -0.618074      0.200987     -1.134216
  H      -0.633588     -1.736423      0.417458
  H       3.271117     -0.635037      1.861598
  H       1.298344     -2.166582      1.915304
  N       3.445021      2.170638      0.891544
  O       5.166626      3.433405      0.624413
  O       4.681810      1.038017     -0.839046
  S       6.009966      3.021181     -0.655293
  O       5.624990      3.833049     -1.915513
17
Coordinates from ORCA-job orca E -948.135375415173
  C       0.246438      0.015844     -0.496184
  C       1.345191      0.865251     -0.545273
  C       0.240986     -1.070108      0.384877
  C       2.443233      0.582791      0.274692
  C       2.439313     -0.478208      1.186282
  C       1.331211     -1.316888      1.224019
  H       1.365898      1.728179     -1.202028
  C       3.782112      1.342751      0.011671
  H      -0.612109      0.207910     -1.131155
  H      -0.627822     -1.719656      0.429593
  H       3.289272     -0.633672      1.841838
  H       1.310303     -2.152661      1.915633
  N       3.469923      2.202129      0.889422
  O       5.151107      3.409435      0.613834
  O       4.667653      1.057205     -0.832331
  S       5.951756      2.993616     -0.635458
  O       5.579938      3.763082     -1.858731
17
Coordinates from ORCA-job orca E -948.136987328388
  C       0.251498      0.019766     -0.497011
  C       1.344837      0.872885     -0.548477
  C       0.252498     -1.065231      0.383237
  C       2.446647      0.590880      0.265416
  C       2.447763     -0.467157      1.179431
  C       1.344364     -1.308589      1.218880
  H       1.363208      1.733730     -1.208756
  C       3.773048      1.368765      0.019139
  H      -0.609168      0.207349     -1.130967
  H      -0.613947     -1.718285      0.429821
  H       3.302780     -0.622324      1.829167
  H       1.328496     -2.145786      1.909376
  N       3.441649      2.207436      0.896628
  O       5.154774      3.366095      0.616236
  O       4.667358      1.098225     -0.815700
  S       5.926856      2.952687     -0.623674
  O       5.551743      3.706556     -1.852045
17
Coordinates from ORCA-job orca E -948.136924632326
  C       0.246453      0.017142     -0.495519
  C       1.335665      0.873749     -0.557663
  C       0.258558     -1.065391      0.387033
  C       2.446360      0.597873      0.246854
  C       2.456344     -0.456985      1.165414
  C       1.357850     -1.303039      1.214131
  H       1.345900      1.732334     -1.221276
  C       3.755217      1.390642      0.014396
  H      -0.620596      0.200453     -1.122080
  H      -0.605610     -1.720787      0.443304
  H       3.317706     -0.608124      1.807971
  H       1.350614     -2.138746      1.906675
  N       3.411620      2.228326      0.887009
  O       5.166172      3.340488      0.647699
  O       4.667987      1.128308     -0.807263
  S       5.931120      2.922807     -0.614812
  O       5.553041      3.657951     -1.831173
17
Coordinates from ORCA-job orca E -948.136524903632
  C       0.241013      0.013824     -0.494050
  C       1.331897      0.866921     -0.571231
  C       0.258597     -1.062740      0.394977
  C       2.448607      0.594674      0.225677
  C       2.463317     -0.452789      1.152580
  C       1.364642     -1.297335      1.213893
  H       1.338552      1.721313     -1.240381
  C       3.745682      1.398995      0.000531
  H      -0.631414      0.196349     -1.113389
  H      -0.607020     -1.715056      0.463991
  H       3.328888     -0.601455      1.790144
  H       1.361336     -2.128585      1.911843
  N       3.403432      2.252357      0.859317
  O       5.188097      3.312914      0.669655
  O       4.675320      1.131981     -0.803460
  S       5.928105      2.909688     -0.576986
  O       5.535352      3.655944     -1.812410
17
Coordinates from ORCA-job orca E -948.136604456232
  C       0.233589      0.010312     -0.490551
  C       1.323262      0.864318     -0.580084
  C       0.260377     -1.063532      0.400737
  C       2.445654      0.597799      0.209354
  C       2.469530     -0.445638      1.139965
  C       1.374009     -1.293534      1.210627
  H       1.322923      1.716417     -1.252189
  C       3.734387      1.415794     -0.009564
  H      -0.644488      0.190496     -1.102629
  H      -0.603333     -1.717365      0.478986
  H       3.340178     -0.591210      1.771401
  H       1.378986     -2.123743      1.909889
  N       3.391839      2.283864      0.834511
  O       5.188668      3.293640      0.702655
  O       4.678282      1.137753     -0.795985
  S       5.936982      2.894544     -0.576749
  O       5.543558      3.627088     -1.779674
17
Coordinates from ORCA-job orca E -948.136804344833
  C       0.227605      0.007929     -0.488013
  C       1.315199      0.863843     -0.586832
  C       0.262359     -1.062699      0.406336
  C       2.440988      0.605712      0.200000
  C       2.473010     -0.434881      1.133743
  C       1.381366     -1.286772      1.211004
  H       1.309710      1.712684     -1.263043
  C       3.730203      1.419747     -0.028785
  H      -0.654079      0.183656     -1.096223
  H      -0.598318     -1.719832      0.490406
  H       3.347530     -0.576513      1.760822
  H       1.393294     -2.116163      1.911201
  N       3.380619      2.301013      0.797150
  O       5.204990      3.256724      0.719452
  O       4.687180      1.122604     -0.791436
  S       5.939507      2.882943     -0.548509
  O       5.533239      3.637005     -1.756574
17
Coordinates from ORCA-job orca E -948.137134049827
  C       0.250391      0.015867     -0.501708
  C       1.342088      0.868780     -0.577591
  C       0.264050     -1.057233      0.390289
  C       2.451808      0.604006      0.229017
  C       2.464276     -0.441001      1.156933
  C       1.366158     -1.286744      1.215256
  H       1.351910      1.719175     -1.251970
  C       3.748550      1.401353      0.002513
  H      -0.618053      0.195040     -1.127844
  H      -0.600039     -1.712084      0.455093
  H       3.326324     -0.587214      1.799966
  H       1.361444     -2.116621      1.914986
  N       3.434478      2.282357      0.845260
  O       5.220197      3.248478      0.701328
  O       4.683864      1.109455     -0.790163
  S       5.903289      2.899266     -0.609753
  O       5.423665      3.654121     -1.780911
17
Coordinates from ORCA-job orca E -948.137241056361
  C       0.274091      0.022323     -0.517105
  C       1.372402      0.867522     -0.576251
  C       0.263831     -1.047635      0.379260
  C       2.466716      0.596227      0.249485
  C       2.456108     -0.446417      1.179306
  C       1.349009     -1.281946      1.224283
  H       1.400342      1.715045     -1.253884
  C       3.772145      1.379205      0.023174
  H      -0.581193      0.204528     -1.160337
  H      -0.606203     -1.695795      0.430707
  H       3.305892     -0.596596      1.837472
  H       1.324995     -2.107846      1.928296
  N       3.483926      2.247557      0.888599
  O       5.251314      3.229496      0.692684
  O       4.681032      1.103281     -0.805312
  S       5.866323      2.923037     -0.663615
  O       5.293673      3.685017     -1.786060
17
Coordinates from ORCA-job orca E -948.137244034634
  C       0.277062      0.023299     -0.519069
  C       1.377339      0.865876     -0.578165
  C       0.263121     -1.045045      0.379233
  C       2.470064      0.593214      0.249438
  C       2.455967     -0.447813      1.180870
  C       1.346733     -1.280536      1.225934
  H       1.408056      1.712157     -1.257235
  C       3.775778      1.375872      0.024278
  H      -0.576994      0.206385     -1.163629
  H      -0.608528     -1.690982      0.430840
  H       3.304797     -0.598982      1.840062
  H       1.320020     -2.105290      1.931205
  N       3.488625      2.242700      0.891862
  O       5.255526      3.226545      0.693677
  O       4.682931      1.103257     -0.807180
  S       5.860965      2.927345     -0.668492
  O       5.272942      3.689001     -1.782929
17
Coordinates from ORCA-job orca E -948.137244266406
  C       0.277619      0.023264     -0.519592
  C       1.378168      0.865450     -0.578792
  C       0.263057     -1.044581      0.379301
  C       2.470615      0.592840      0.249222
  C       2.455919     -0.447682      1.181179
  C       1.346345     -1.279974      1.226413
  H       1.409371      1.711335     -1.258340
  C       3.776327      1.375423      0.024013
  H      -0.576158      0.206249     -1.164552
  H      -0.608823     -1.690195      0.431000
  H       3.304505     -0.598783      1.840694
  H       1.319130     -2.104311      1.932151
  N       3.489855      2.241768      0.892342
  O       5.257635      3.224499      0.694644
  O       4.682884      1.103429     -0.808295
  S       5.859989      2.927921     -0.669434
  O       5.267965      3.690348     -1.781253
