3
Coordinates from ORCA-job mol E -548.574239228019
  S       0.000000     -0.000000      0.384002
  O       0.000000      1.259640     -0.373585
  O       0.000000     -1.259640     -0.373585
3
Coordinates from ORCA-job mol E -548.574260243930
  S       0.000000      0.000000      0.387022
  O       0.000000      1.257345     -0.375095
  O       0.000000     -1.257345     -0.375095
3
Coordinates from ORCA-job mol E -548.574264930128
  S       0.000000     -0.000000      0.389248
  O       0.000000      1.255860     -0.376208
  O       0.000000     -1.255860     -0.376208
3
Coordinates from ORCA-job mol E -548.574264975372
  S       0.000000     -0.000000      0.389266
  O       0.000000      1.255952     -0.376217
  O       0.000000     -1.255952     -0.376217
