-------------------------------------------------------------
----------------------- !PROPERTIES! ------------------------
-------------------------------------------------------------
# -----------------------------------------------------------
$ PAL_Flags
   description: The PAL Flags
   geom. index: 1
   prop. index: 1
        Diskflag:     2
# -----------------------------------------------------------
$ SCF_Energy
   description: The SCF energy
   geom. index: 1
   prop. index: 1
        SCF Energy:    -1407.8222607293
# -----------------------------------------------------------
$ DFT_Energy
   description: The DFT energy
   geom. index: 1
   prop. index: 1
   Number of Alpha Electrons                 54.9999797529 
   Number of Beta  Electrons                 54.9999797529 
   Total number of  Electrons               109.9999595058 
   Exchange energy                         -121.9119588435 
   Correlation energy                        -3.8460942314 
   Correlation energy NL                      0.0000000000 
   Exchange-Correlation energy             -125.7580530749 
   Embedding correction                       0.0000000000 
   Total DFT Energy (No VdW correction)   -1407.8222607293 
# -----------------------------------------------------------
$ Solvation_Details
   description: Details concerning solvation
   geom. index: 1
   prop. index: 1
     Epsilon:                2.2800000000
     Refrac:                 1.5010000000
     RSolv:                  1.3000000000
     Surface Type:                      2
     Number of Points:               1066
     Surface Area:         863.7015365604
     Dielectric Energy:     -0.0051617173
# -----------------------------------------------------------
$ VdW_Correction
   description: The Van der Waals Correction
   geom. index: 1
   prop. index: 1
        Van der Waals Correction:       -0.0070172774
# -----------------------------------------------------------
$ PAL_Flags
   description: The PAL Flags
   geom. index: 2
   prop. index: 1
        Diskflag:     2
# -----------------------------------------------------------
$ SCF_Energy
   description: The SCF energy
   geom. index: 2
   prop. index: 1
        SCF Energy:    -1407.8222873823
# -----------------------------------------------------------
$ DFT_Energy
   description: The DFT energy
   geom. index: 2
   prop. index: 1
   Number of Alpha Electrons                 54.9999793160 
   Number of Beta  Electrons                 54.9999793160 
   Total number of  Electrons               109.9999586321 
   Exchange energy                         -121.9088505032 
   Correlation energy                        -3.8457416063 
   Correlation energy NL                      0.0000000000 
   Exchange-Correlation energy             -125.7545921094 
   Embedding correction                       0.0000000000 
   Total DFT Energy (No VdW correction)   -1407.8222873823 
# -----------------------------------------------------------
$ Solvation_Details
   description: Details concerning solvation
   geom. index: 2
   prop. index: 1
     Epsilon:                2.2800000000
     Refrac:                 1.5010000000
     RSolv:                  1.3000000000
     Surface Type:                      2
     Number of Points:               1068
     Surface Area:         866.0765167904
     Dielectric Energy:     -0.0052230800
# -----------------------------------------------------------
$ VdW_Correction
   description: The Van der Waals Correction
   geom. index: 2
   prop. index: 1
        Van der Waals Correction:       -0.0069995830
# -----------------------------------------------------------
$ PAL_Flags
   description: The PAL Flags
   geom. index: 3
   prop. index: 1
        Diskflag:     2
# -----------------------------------------------------------
$ SCF_Energy
   description: The SCF energy
   geom. index: 3
   prop. index: 1
        SCF Energy:    -1407.8222938711
# -----------------------------------------------------------
$ DFT_Energy
   description: The DFT energy
   geom. index: 3
   prop. index: 1
   Number of Alpha Electrons                 54.9999789371 
   Number of Beta  Electrons                 54.9999789371 
   Total number of  Electrons               109.9999578741 
   Exchange energy                         -121.9075636262 
   Correlation energy                        -3.8455096067 
   Correlation energy NL                      0.0000000000 
   Exchange-Correlation energy             -125.7530732329 
   Embedding correction                       0.0000000000 
   Total DFT Energy (No VdW correction)   -1407.8222938711 
# -----------------------------------------------------------
$ Solvation_Details
   description: Details concerning solvation
   geom. index: 3
   prop. index: 1
     Epsilon:                2.2800000000
     Refrac:                 1.5010000000
     RSolv:                  1.3000000000
     Surface Type:                      2
     Number of Points:               1073
     Surface Area:         868.1898425821
     Dielectric Energy:     -0.0052786453
# -----------------------------------------------------------
$ VdW_Correction
   description: The Van der Waals Correction
   geom. index: 3
   prop. index: 1
        Van der Waals Correction:       -0.0069840658
# -----------------------------------------------------------
$ PAL_Flags
   description: The PAL Flags
   geom. index: 4
   prop. index: 1
        Diskflag:     2
# -----------------------------------------------------------
$ SCF_Energy
   description: The SCF energy
   geom. index: 4
   prop. index: 1
        SCF Energy:    -1407.8222942862
# -----------------------------------------------------------
$ DFT_Energy
   description: The DFT energy
   geom. index: 4
   prop. index: 1
   Number of Alpha Electrons                 54.9999787828 
   Number of Beta  Electrons                 54.9999787828 
   Total number of  Electrons               109.9999575655 
   Exchange energy                         -121.9076034472 
   Correlation energy                        -3.8454771824 
   Correlation energy NL                      0.0000000000 
   Exchange-Correlation energy             -125.7530806296 
   Embedding correction                       0.0000000000 
   Total DFT Energy (No VdW correction)   -1407.8222942862 
# -----------------------------------------------------------
$ Solvation_Details
   description: Details concerning solvation
   geom. index: 4
   prop. index: 1
     Epsilon:                2.2800000000
     Refrac:                 1.5010000000
     RSolv:                  1.3000000000
     Surface Type:                      2
     Number of Points:               1074
     Surface Area:         868.6874605060
     Dielectric Energy:     -0.0052897327
# -----------------------------------------------------------
$ VdW_Correction
   description: The Van der Waals Correction
   geom. index: 4
   prop. index: 1
        Van der Waals Correction:       -0.0069803897
# -----------------------------------------------------------
$ PAL_Flags
   description: The PAL Flags
   geom. index: 5
   prop. index: 1
        Diskflag:     2
# -----------------------------------------------------------
$ SCF_Energy
   description: The SCF energy
   geom. index: 5
   prop. index: 1
        SCF Energy:    -1407.8222947991
# -----------------------------------------------------------
$ DFT_Energy
   description: The DFT energy
   geom. index: 5
   prop. index: 1
   Number of Alpha Electrons                 54.9999784643 
   Number of Beta  Electrons                 54.9999784643 
   Total number of  Electrons               109.9999569286 
   Exchange energy                         -121.9078265976 
   Correlation energy                        -3.8454553455 
   Correlation energy NL                      0.0000000000 
   Exchange-Correlation energy             -125.7532819431 
   Embedding correction                       0.0000000000 
   Total DFT Energy (No VdW correction)   -1407.8222947991 
# -----------------------------------------------------------
$ Solvation_Details
   description: Details concerning solvation
   geom. index: 5
   prop. index: 1
     Epsilon:                2.2800000000
     Refrac:                 1.5010000000
     RSolv:                  1.3000000000
     Surface Type:                      2
     Number of Points:               1074
     Surface Area:         869.2368468442
     Dielectric Energy:     -0.0052995956
# -----------------------------------------------------------
$ VdW_Correction
   description: The Van der Waals Correction
   geom. index: 5
   prop. index: 1
        Van der Waals Correction:       -0.0069764702
# -----------------------------------------------------------
$ PAL_Flags
   description: The PAL Flags
   geom. index: 6
   prop. index: 1
        Diskflag:     2
# -----------------------------------------------------------
$ SCF_Energy
   description: The SCF energy
   geom. index: 6
   prop. index: 1
        SCF Energy:    -1407.8222956343
# -----------------------------------------------------------
$ DFT_Energy
   description: The DFT energy
   geom. index: 6
   prop. index: 1
   Number of Alpha Electrons                 54.9999780757 
   Number of Beta  Electrons                 54.9999780757 
   Total number of  Electrons               109.9999561515 
   Exchange energy                         -121.9080050678 
   Correlation energy                        -3.8454517649 
   Correlation energy NL                      0.0000000000 
   Exchange-Correlation energy             -125.7534568328 
   Embedding correction                       0.0000000000 
   Total DFT Energy (No VdW correction)   -1407.8222956343 
# -----------------------------------------------------------
$ Solvation_Details
   description: Details concerning solvation
   geom. index: 6
   prop. index: 1
     Epsilon:                2.2800000000
     Refrac:                 1.5010000000
     RSolv:                  1.3000000000
     Surface Type:                      2
     Number of Points:               1074
     Surface Area:         869.5214646587
     Dielectric Energy:     -0.0053029558
# -----------------------------------------------------------
$ VdW_Correction
   description: The Van der Waals Correction
   geom. index: 6
   prop. index: 1
        Van der Waals Correction:       -0.0069748090
# -----------------------------------------------------------
$ PAL_Flags
   description: The PAL Flags
   geom. index: 7
   prop. index: 1
        Diskflag:     2
# -----------------------------------------------------------
$ SCF_Energy
   description: The SCF energy
   geom. index: 7
   prop. index: 1
        SCF Energy:    -1407.8222973059
# -----------------------------------------------------------
$ DFT_Energy
   description: The DFT energy
   geom. index: 7
   prop. index: 1
   Number of Alpha Electrons                 54.9999774078 
   Number of Beta  Electrons                 54.9999774078 
   Total number of  Electrons               109.9999548156 
   Exchange energy                         -121.9081436036 
   Correlation energy                        -3.8454527986 
   Correlation energy NL                      0.0000000000 
   Exchange-Correlation energy             -125.7535964022 
   Embedding correction                       0.0000000000 
   Total DFT Energy (No VdW correction)   -1407.8222973059 
# -----------------------------------------------------------
$ Solvation_Details
   description: Details concerning solvation
   geom. index: 7
   prop. index: 1
     Epsilon:                2.2800000000
     Refrac:                 1.5010000000
     RSolv:                  1.3000000000
     Surface Type:                      2
     Number of Points:               1075
     Surface Area:         869.7612472381
     Dielectric Energy:     -0.0053046450
# -----------------------------------------------------------
$ VdW_Correction
   description: The Van der Waals Correction
   geom. index: 7
   prop. index: 1
        Van der Waals Correction:       -0.0069741713
# -----------------------------------------------------------
$ PAL_Flags
   description: The PAL Flags
   geom. index: 8
   prop. index: 1
        Diskflag:     2
# -----------------------------------------------------------
$ SCF_Energy
   description: The SCF energy
   geom. index: 8
   prop. index: 1
        SCF Energy:    -1407.8222992249
# -----------------------------------------------------------
$ DFT_Energy
   description: The DFT energy
   geom. index: 8
   prop. index: 1
   Number of Alpha Electrons                 54.9999767298 
   Number of Beta  Electrons                 54.9999767298 
   Total number of  Electrons               109.9999534597 
   Exchange energy                         -121.9081191219 
   Correlation energy                        -3.8454534842 
   Correlation energy NL                      0.0000000000 
   Exchange-Correlation energy             -125.7535726061 
   Embedding correction                       0.0000000000 
   Total DFT Energy (No VdW correction)   -1407.8222992249 
# -----------------------------------------------------------
$ Solvation_Details
   description: Details concerning solvation
   geom. index: 8
   prop. index: 1
     Epsilon:                2.2800000000
     Refrac:                 1.5010000000
     RSolv:                  1.3000000000
     Surface Type:                      2
     Number of Points:               1077
     Surface Area:         869.8617880596
     Dielectric Energy:     -0.0053051138
# -----------------------------------------------------------
$ VdW_Correction
   description: The Van der Waals Correction
   geom. index: 8
   prop. index: 1
        Van der Waals Correction:       -0.0069749702
# -----------------------------------------------------------
$ PAL_Flags
   description: The PAL Flags
   geom. index: 9
   prop. index: 1
        Diskflag:     2
# -----------------------------------------------------------
$ SCF_Energy
   description: The SCF energy
   geom. index: 9
   prop. index: 1
        SCF Energy:    -1407.8223007491
# -----------------------------------------------------------
$ DFT_Energy
   description: The DFT energy
   geom. index: 9
   prop. index: 1
   Number of Alpha Electrons                 54.9999761902 
   Number of Beta  Electrons                 54.9999761902 
   Total number of  Electrons               109.9999523804 
   Exchange energy                         -121.9079355956 
   Correlation energy                        -3.8454467126 
   Correlation energy NL                      0.0000000000 
   Exchange-Correlation energy             -125.7533823082 
   Embedding correction                       0.0000000000 
   Total DFT Energy (No VdW correction)   -1407.8223007491 
# -----------------------------------------------------------
$ Solvation_Details
   description: Details concerning solvation
   geom. index: 9
   prop. index: 1
     Epsilon:                2.2800000000
     Refrac:                 1.5010000000
     RSolv:                  1.3000000000
     Surface Type:                      2
     Number of Points:               1078
     Surface Area:         869.9000834626
     Dielectric Energy:     -0.0053060905
# -----------------------------------------------------------
$ VdW_Correction
   description: The Van der Waals Correction
   geom. index: 9
   prop. index: 1
        Van der Waals Correction:       -0.0069762287
# -----------------------------------------------------------
$ PAL_Flags
   description: The PAL Flags
   geom. index: 10
   prop. index: 1
        Diskflag:     2
# -----------------------------------------------------------
$ SCF_Energy
   description: The SCF energy
   geom. index: 10
   prop. index: 1
        SCF Energy:    -1407.8223014841
# -----------------------------------------------------------
$ DFT_Energy
   description: The DFT energy
   geom. index: 10
   prop. index: 1
   Number of Alpha Electrons                 54.9999757790 
   Number of Beta  Electrons                 54.9999757790 
   Total number of  Electrons               109.9999515580 
   Exchange energy                         -121.9077107940 
   Correlation energy                        -3.8454339752 
   Correlation energy NL                      0.0000000000 
   Exchange-Correlation energy             -125.7531447691 
   Embedding correction                       0.0000000000 
   Total DFT Energy (No VdW correction)   -1407.8223014841 
# -----------------------------------------------------------
$ Solvation_Details
   description: Details concerning solvation
   geom. index: 10
   prop. index: 1
     Epsilon:                2.2800000000
     Refrac:                 1.5010000000
     RSolv:                  1.3000000000
     Surface Type:                      2
     Number of Points:               1078
     Surface Area:         869.9396715171
     Dielectric Energy:     -0.0053080945
# -----------------------------------------------------------
$ VdW_Correction
   description: The Van der Waals Correction
   geom. index: 10
   prop. index: 1
        Van der Waals Correction:       -0.0069773302
# -----------------------------------------------------------
$ PAL_Flags
   description: The PAL Flags
   geom. index: 11
   prop. index: 1
        Diskflag:     2
# -----------------------------------------------------------
$ SCF_Energy
   description: The SCF energy
   geom. index: 11
   prop. index: 1
        SCF Energy:    -1407.8223012822
# -----------------------------------------------------------
$ DFT_Energy
   description: The DFT energy
   geom. index: 11
   prop. index: 1
   Number of Alpha Electrons                 54.9999753936 
   Number of Beta  Electrons                 54.9999753936 
   Total number of  Electrons               109.9999507871 
   Exchange energy                         -121.9074957676 
   Correlation energy                        -3.8454186777 
   Correlation energy NL                      0.0000000000 
   Exchange-Correlation energy             -125.7529144454 
   Embedding correction                       0.0000000000 
   Total DFT Energy (No VdW correction)   -1407.8223012822 
# -----------------------------------------------------------
$ Solvation_Details
   description: Details concerning solvation
   geom. index: 11
   prop. index: 1
     Epsilon:                2.2800000000
     Refrac:                 1.5010000000
     RSolv:                  1.3000000000
     Surface Type:                      2
     Number of Points:               1077
     Surface Area:         870.0062554203
     Dielectric Energy:     -0.0053107438
# -----------------------------------------------------------
$ VdW_Correction
   description: The Van der Waals Correction
   geom. index: 11
   prop. index: 1
        Van der Waals Correction:       -0.0069782804
# -----------------------------------------------------------
$ PAL_Flags
   description: The PAL Flags
   geom. index: 12
   prop. index: 1
        Diskflag:     2
# -----------------------------------------------------------
$ SCF_Energy
   description: The SCF energy
   geom. index: 12
   prop. index: 1
        SCF Energy:    -1407.8223001185
# -----------------------------------------------------------
$ DFT_Energy
   description: The DFT energy
   geom. index: 12
   prop. index: 1
   Number of Alpha Electrons                 54.9999750490 
   Number of Beta  Electrons                 54.9999750490 
   Total number of  Electrons               109.9999500981 
   Exchange energy                         -121.9073232228 
   Correlation energy                        -3.8454068137 
   Correlation energy NL                      0.0000000000 
   Exchange-Correlation energy             -125.7527300365 
   Embedding correction                       0.0000000000 
   Total DFT Energy (No VdW correction)   -1407.8223001185 
# -----------------------------------------------------------
$ Solvation_Details
   description: Details concerning solvation
   geom. index: 12
   prop. index: 1
     Epsilon:                2.2800000000
     Refrac:                 1.5010000000
     RSolv:                  1.3000000000
     Surface Type:                      2
     Number of Points:               1077
     Surface Area:         870.0843733727
     Dielectric Energy:     -0.0053127001
# -----------------------------------------------------------
$ VdW_Correction
   description: The Van der Waals Correction
   geom. index: 12
   prop. index: 1
        Van der Waals Correction:       -0.0069790793
# -----------------------------------------------------------
$ PAL_Flags
   description: The PAL Flags
   geom. index: 13
   prop. index: 1
        Diskflag:     2
# -----------------------------------------------------------
$ SCF_Energy
   description: The SCF energy
   geom. index: 13
   prop. index: 1
        SCF Energy:    -1407.8222982121
# -----------------------------------------------------------
$ DFT_Energy
   description: The DFT energy
   geom. index: 13
   prop. index: 1
   Number of Alpha Electrons                 54.9999746745 
   Number of Beta  Electrons                 54.9999746745 
   Total number of  Electrons               109.9999493489 
   Exchange energy                         -121.9073331220 
   Correlation energy                        -3.8453986575 
   Correlation energy NL                      0.0000000000 
   Exchange-Correlation energy             -125.7527317795 
   Embedding correction                       0.0000000000 
   Total DFT Energy (No VdW correction)   -1407.8222982121 
# -----------------------------------------------------------
$ Solvation_Details
   description: Details concerning solvation
   geom. index: 13
   prop. index: 1
     Epsilon:                2.2800000000
     Refrac:                 1.5010000000
     RSolv:                  1.3000000000
     Surface Type:                      2
     Number of Points:               1077
     Surface Area:         870.1761439284
     Dielectric Energy:     -0.0053153776
# -----------------------------------------------------------
$ VdW_Correction
   description: The Van der Waals Correction
   geom. index: 13
   prop. index: 1
        Van der Waals Correction:       -0.0069799366
# -----------------------------------------------------------
$ SCF_Electric_Properties
   description: The SCF Calculated Electric Properties
   geom. index: 13
   prop. index: 1
       Filename                          : mol.scfp 
       Do Dipole Moment Calculation      : true 
       Do Quadrupole Moment Calculation  : false 
       Do Polarizability Calculation     : false 
** Dipole moment part of electric properties **
        Magnitude of dipole moment (Debye) :        1.2904502331
        Electronic Contribution:
                  0    
      0       2.228752
      1       2.929158
      2       1.639108
        Nuclear Contribution:
                  0    
      0      -2.216292
      1      -2.539456
      2      -1.964266
        Total Dipole moment:
                  0    
      0       0.012460
      1       0.389702
      2      -0.325158
# -----------------------------------------------------------
$ PAL_Flags
   description: The PAL Flags
   geom. index: 14
   prop. index: 1
        Diskflag:     2
# -----------------------------------------------------------
$ SCF_Energy
   description: The SCF energy
   geom. index: 14
   prop. index: 1
        SCF Energy:    -1407.8222982124
# -----------------------------------------------------------
$ DFT_Energy
   description: The DFT energy
   geom. index: 14
   prop. index: 1
   Number of Alpha Electrons                 54.9999746744 
   Number of Beta  Electrons                 54.9999746744 
   Total number of  Electrons               109.9999493489 
   Exchange energy                         -121.9073349693 
   Correlation energy                        -3.8453986519 
   Correlation energy NL                      0.0000000000 
   Exchange-Correlation energy             -125.7527336212 
   Embedding correction                       0.0000000000 
   Total DFT Energy (No VdW correction)   -1407.8222982124 
# -----------------------------------------------------------
$ Solvation_Details
   description: Details concerning solvation
   geom. index: 14
   prop. index: 1
     Epsilon:                2.2800000000
     Refrac:                 1.5010000000
     RSolv:                  1.3000000000
     Surface Type:                      2
     Number of Points:               1077
     Surface Area:         870.1761439284
     Dielectric Energy:     -0.0053153962
# -----------------------------------------------------------
$ VdW_Correction
   description: The Van der Waals Correction
   geom. index: 14
   prop. index: 1
        Van der Waals Correction:       -0.0069799366
# -----------------------------------------------------------
$ THERMOCHEMISTRY_Energies
   description: The Thermochemistry energies
   geom. index: 14
   prop. index: 1
        Temperature (Kelvin)           :        298.1500000000
        Pressure (atm)                 :          1.0000000000
        Total Mass (AMU)               :        216.9600418485
        Spin Degeneracy                :          1.0000000000
        Electronic Energy (Hartree)    :      -1407.8170567207
        Translational Energy (Hartree) :          0.0014162714
        Rotational Energy (Hartree)    :          0.0014162714
        Vibrational Energy (Hartree)   :          0.0099008974
        Number of frequencies          :     51      
        Scaling Factor for frequencies :          1.0000000000
        Vibrational frequencies        :     
                  0    
      0       0.000000
      1       0.000000
      2       0.000000
      3       0.000000
      4       0.000000
      5       0.000000
      6     -12.584392
      7      11.159044
      8      40.276023
      9      43.235240
     10      55.109262
     11      58.647498
     12      80.469573
     13     112.458899
     14     133.501169
     15     267.239583
     16     330.477579
     17     345.556660
     18     418.149946
     19     431.634162
     20     495.842577
     21     496.876524
     22     557.806131
     23     569.672247
     24     645.270038
     25     669.167017
     26     695.877419
     27     797.023825
     28     822.562367
     29     835.665632
     30     946.302832
     31     965.652551
     32     1035.498930
     33     1093.515454
     34     1120.030340
     35     1131.618408
     36     1144.756610
     37     1200.428678
     38     1274.719659
     39     1321.066740
     40     1330.616818
     41     1432.758566
     42     1472.292535
     43     1536.462378
     44     1603.833654
     45     1623.541591
     46     2332.239379
     47     3185.302507
     48     3193.972203
     49     3201.724513
     50     3205.602862
        Zero Point Energy (Hartree)    :          0.1008444926
        Inner Energy (Hartree)         :      -1407.7034787878
        Enthalpy (Hartree)             :      -1407.7025345787
        Electronic entropy             :          0.0000000000
        Rotational entropy             :          0.0156676085
        Vibrational entropy            :          0.0186732077
        Translational entropy          :          0.0156676085
        Entropy                        :          0.0543090215
        Gibbs Energy (Hartree)         :      -1407.7568436002
        Is Linear                      :                 false
# -------------------------------------------------------------
----------------------- !GEOMETRIES! ------------------------
# -------------------------------------------------------------
------------------------ !GEOMETRY! -------------------------
    Number of atoms:    17 
    Geometry Index:     1 
    Coordinates:
               0 C      0.628128885573   -1.409134514814    0.023040448151
               1 C      1.379154800805   -0.807524948585   -0.977598962960
               2 C      0.642611235832   -0.868316187771    1.303239555917
               3 C      2.137694402530    0.328356967846   -0.694603939473
               4 C      2.145987936958    0.864311683249    0.596747485881
               5 C      1.396043520702    0.263355441050    1.597221823733
               6 H      1.381633728905   -1.214283811879   -1.983256083280
               7 C      3.610076803866    1.837068769847   -1.917226247383
               8 H      0.035785125315   -2.292263599917   -0.189562227647
               9 Cl    -0.302437925827   -1.625319804999    2.568601436427
              10 H      2.738227948668    1.747850193303    0.815187372763
              11 H      1.397395005242    0.672490406657    2.601693276552
              12 N      2.878399448984    0.901113891384   -1.729917455779
              13 O      4.332225385248    2.706274622682   -2.241721143564
              14 O      4.179255795460    3.818303621334    0.800097036981
              15 S      5.522172368929    4.003463639992    0.223730535103
              16 O      6.486115532811    2.908053630621    0.390957088579
------------------------ !GEOMETRY! -------------------------
    Number of atoms:    17 
    Geometry Index:     2 
    Coordinates:
               0 C      0.625004422797   -1.411700730733    0.022134307341
               1 C      1.376111094035   -0.809377658262   -0.978316529833
               2 C      0.640640354428   -0.870949243831    1.302592972284
               3 C      2.135188617812    0.326336857533   -0.694158261962
               4 C      2.144153098926    0.861803599445    0.597840098603
               5 C      1.394238385934    0.260429415689    1.598390984764
               6 H      1.377746444975   -1.215963936703   -1.984287153222
               7 C      3.607946044122    1.833222001329   -1.921362733600
               8 H      0.032319510678   -2.294637626971   -0.191821917857
               9 Cl    -0.305046623992   -1.629167168425    2.569019447799
              10 H      2.736566665305    1.744897359189    0.817624818026
              11 H      1.396298874409    0.669403910587    2.603276983419
              12 N      2.875925174465    0.898498209582   -1.730502541575
              13 O      4.330539375396    2.700755399167   -2.250654372876
              14 O      4.192504431401    3.835478838299    0.803734427614
              15 S      5.534664522258    4.017137060733    0.224491989810
              16 O      6.493669607052    2.917633713370    0.398627481264
------------------------ !GEOMETRY! -------------------------
    Number of atoms:    17 
    Geometry Index:     3 
    Coordinates:
               0 C      0.621921819771   -1.414335185768    0.021294147016
               1 C      1.373358237097   -0.811558606513   -0.979000619934
               2 C      0.638829402098   -0.873331363868    1.301496157797
               3 C      2.132855061747    0.323757152635   -0.693697513656
               4 C      2.142447561660    0.858946607073    0.598215460207
               5 C      1.392441702037    0.257472855190    1.599017896516
               6 H      1.374165905558   -1.218089173868   -1.984974182143
               7 C      3.605532051273    1.829918812312   -1.923253284844
               8 H      0.029037879685   -2.296776319324   -0.193944391347
               9 Cl    -0.307788795895   -1.632236238549    2.569060468671
              10 H      2.734959731589    1.741747258028    0.818947583353
              11 H      1.395160680612    0.666542203586    2.603798417863
              12 N      2.873433438551    0.896022148464   -1.729928937924
              13 O      4.328199263161    2.696060650713   -2.256236765035
              14 O      4.205676272834    3.852978684255    0.807176717191
              15 S      5.546864573587    4.030062220483    0.224334710319
              16 O      6.501375214635    2.926618295152    0.404324135948
------------------------ !GEOMETRY! -------------------------
    Number of atoms:    17 
    Geometry Index:     4 
    Coordinates:
               0 C      0.621082050503   -1.415127912424    0.021212414483
               1 C      1.372513507235   -0.812411692103   -0.979276907326
               2 C      0.638467766166   -0.873830389927    1.301131310359
               3 C      2.132078859053    0.322804141187   -0.693987035928
               4 C      2.141977444435    0.858052576660    0.597735478330
               5 C      1.392029633201    0.256760045281    1.598861678861
               6 H      1.373005958983   -1.219158810690   -1.985138370664
               7 C      3.604805078736    1.829183396911   -1.923130216387
               8 H      0.028187422615   -2.297467380216   -0.194182648596
               9 Cl    -0.308268444534   -1.632680804124    2.569159270016
              10 H      2.734509728950    1.740887641479    0.818391406323
              11 H      1.395060191899    0.666055266066    2.603496546212
              12 N      2.872690372491    0.895336508983   -1.729789924442
              13 O      4.327476389304    2.695222494453   -2.256103473425
              14 O      4.209148656842    3.858276479673    0.808488030053
              15 S      5.550087182407    4.033137814981    0.224427962336
              16 O      6.503618201714    2.928760623810    0.405334479793
------------------------ !GEOMETRY! -------------------------
    Number of atoms:    17 
    Geometry Index:     5 
    Coordinates:
               0 C      0.620136340206   -1.416144623263    0.021286871893
               1 C      1.371370000473   -0.813777988819   -0.979767188188
               2 C      0.638279112550   -0.874253691609    1.300738131344
               3 C      2.131046646555    0.321348818420   -0.694956175854
               4 C      2.141479469383    0.856923703662    0.596464461059
               5 C      1.391792662617    0.256142935861    1.598303485779
               6 H      1.371289581414   -1.221063690826   -1.985387874870
               7 C      3.603808319145    1.828391161349   -1.922566299093
               8 H      0.027221465127   -2.298418878152   -0.194012169304
               9 Cl    -0.308379585200   -1.632765417862    2.569535434546
              10 H      2.734010964605    1.739960777597    0.816493202781
              11 H      1.395385530163    0.665982053430    2.602647636291
              12 N      2.871714402438    0.894382863774   -1.730087358630
              13 O      4.326508445500    2.694827937753   -2.253992696449
              14 O      4.213188374886    3.865601341446    0.810751262036
              15 S      5.553815020624    4.036217469858    0.224807508157
              16 O      6.505803249513    2.930445227381    0.406371768504
------------------------ !GEOMETRY! -------------------------
    Number of atoms:    17 
    Geometry Index:     6 
    Coordinates:
               0 C      0.619789886413   -1.416742562863    0.021511540735
               1 C      1.370639417737   -0.814852601545   -0.980216520880
               2 C      0.638524737204   -0.874280002816    1.300626588398
               3 C      2.130389427974    0.320303260198   -0.696184445460
               4 C      2.141320794860    0.856375362621    0.595029320380
               5 C      1.392054211885    0.256174287320    1.597578814183
               6 H      1.370026019731   -1.222710256833   -1.985600239684
               7 C      3.603047414261    1.827962894652   -1.922118167334
               8 H      0.026846998129   -2.299074310132   -0.193366110252
               9 Cl    -0.307748674777   -1.632344737308    2.570106626365
              10 H      2.733834704727    1.739698600409    0.814096234083
              11 H      1.396147420413    0.666590466222    2.601658155615
              12 N      2.871006184992    0.893630055586   -1.731076169756
              13 O      4.325816968164    2.695233138998   -2.250953050096
              14 O      4.215277141956    3.870824746306    0.812931963207
              15 S      5.555694055140    4.037159670398    0.225384342515
              16 O      6.505803291190    2.929851988787    0.407221117980
------------------------ !GEOMETRY! -------------------------
    Number of atoms:    17 
    Geometry Index:     7 
    Coordinates:
               0 C      0.619852562887   -1.417232632328    0.021943266976
               1 C      1.369953956257   -0.816094507767   -0.980827054871
               2 C      0.639319070248   -0.873988155127    1.300717055485
               3 C      2.129767809522    0.319225178268   -0.698142099478
               4 C      2.141423896836    0.856185764773    0.592832112882
               5 C      1.392951161550    0.256812618457    1.596363579209
               6 H      1.368611076675   -1.224750388750   -1.985891380324
               7 C      3.602052091944    1.827518654365   -1.921868380267
               8 H      0.026842089686   -2.299756153321   -0.191992583808
               9 Cl    -0.306055191575   -1.631318857367    2.571159818608
              10 H      2.733901039968    1.739983369354    0.810265370577
              11 H      1.397687485287    0.668037417369    2.600110427650
              12 N      2.870095006600    0.892579113924   -1.733356151746
              13 O      4.324966333810    2.696296273247   -2.246209610468
              14 O      4.216732729098    3.876811340831    0.816268993022
              15 S      5.556875678098    4.036763626028    0.226456055399
              16 O      6.503493203110    2.926727338042    0.408800581155
------------------------ !GEOMETRY! -------------------------
    Number of atoms:    17 
    Geometry Index:     8 
    Coordinates:
               0 C      0.620450310959   -1.417371777454    0.022404622517
               1 C      1.369740781977   -0.816860036559   -0.981289102850
               2 C      0.640412495660   -0.873432313188    1.300952578095
               3 C      2.129504883611    0.318765522716   -0.699899969916
               4 C      2.141780386691    0.856642152878    0.590847739838
               5 C      1.394117045253    0.257895236314    1.595146722853
               6 H      1.367875580626   -1.226167086652   -1.986102521634
               7 C      3.601150179482    1.827289091070   -1.922172334244
               8 H      0.027414340010   -2.300185221493   -0.190402341497
               9 Cl    -0.303867743214   -1.630047562387    2.572265794813
              10 H      2.734229236739    1.740845003875    0.806843243047
              11 H      1.399274992369    0.669755773121    2.598661382696
              12 N      2.869275487776    0.891701173270   -1.736104893617
              13 O      4.324187894748    2.697454553536   -2.242472902725
              14 O      4.216763824107    3.880612702513    0.819490081188
              15 S      5.556704654144    4.034984803203    0.227773164547
              16 O      6.499455649063    2.921917985236    0.410688736889
------------------------ !GEOMETRY! -------------------------
    Number of atoms:    17 
    Geometry Index:     9 
    Coordinates:
               0 C      0.621209921230   -1.417295196276    0.022759325628
               1 C      1.369859249622   -0.817151323514   -0.981548263680
               2 C      0.641476574075   -0.872830809926    1.301176852844
               3 C      2.129512111585    0.318804058116   -0.701093360823
               4 C      2.142228675830    0.857418211896    0.589413870767
               5 C      1.395205887985    0.258971111539    1.594197180390
               6 H      1.367730170922   -1.226841621316   -1.986212694353
               7 C      3.600435245273    1.827195559011   -1.922854374290
               8 H      0.028170150075   -2.300385465476   -0.189057192635
               9 Cl    -0.301862061067   -1.628876190099    2.573193483068
              10 H      2.734643003188    1.741865059193    0.804559553508
              11 H      1.400552926591    0.671193578598    2.597598444540
              12 N      2.868620457756    0.891052405355   -1.738566308895
              13 O      4.323537110007    2.698178483010   -2.240775039962
              14 O      4.215999113833    3.882371283135    0.822147869497
              15 S      5.555825151441    4.032911424339    0.229123021163
              16 O      6.495326311654    2.917219432415    0.412567633232
------------------------ !GEOMETRY! -------------------------
    Number of atoms:    17 
    Geometry Index:     10 
    Coordinates:
               0 C      0.621905690317   -1.417184052483    0.023027900490
               1 C      1.370075400999   -0.817234489937   -0.981690459878
               2 C      0.642427024612   -0.872248293886    1.301306871237
               3 C      2.129601329214    0.319026378781   -0.701902378501
               4 C      2.142658045786    0.858217596885    0.588324156287
               5 C      1.396105996536    0.259890686022    1.593472158708
               6 H      1.367822246804   -1.227168909309   -1.986255022320
               7 C      3.599832608734    1.827190514168   -1.923610793260
               8 H      0.028895445060   -2.300504988450   -0.187998244761
               9 Cl    -0.300187301469   -1.627851834451    2.573959991312
              10 H      2.735022550723    1.742788802656    0.803100535920
              11 H      1.401553937944    0.672338400514    2.596802983592
              12 N      2.868074845293    0.890576312598   -1.740548912538
              13 O      4.322940739940    2.698470239434   -2.240623941471
              14 O      4.215044914204    3.883153950601    0.824431385029
              15 S      5.554832681257    4.031072143152    0.230553983646
              16 O      6.491863844046    2.913267543706    0.414279786508
------------------------ !GEOMETRY! -------------------------
    Number of atoms:    17 
    Geometry Index:     11 
    Coordinates:
               0 C      0.622561063985   -1.417103717180    0.023305731290
               1 C      1.370284532026   -0.817329862920   -0.981818793426
               2 C      0.643421809163   -0.871600613654    1.301364438643
               3 C      2.129685897569    0.319232452439   -0.702689921347
               4 C      2.143098411023    0.858985765582    0.587192477262
               5 C      1.396980287049    0.260787630043    1.592786531444
               6 H      1.367897844704   -1.227539090989   -1.986266559661
               7 C      3.599213150288    1.827270521030   -1.924350380668
               8 H      0.029613946961   -2.300637603946   -0.187004898336
               9 Cl    -0.298564936064   -1.626789229390    2.574738650348
              10 H      2.735378260049    1.743655261958    0.801772319970
              11 H      1.402586779702    0.673511976151    2.596008752229
              12 N      2.867548353862    0.890167871957   -1.742359079521
              13 O      4.322278692602    2.698582740532   -2.241206208185
              14 O      4.214019228834    3.883869882408    0.826847126271
              15 S      5.553834925669    4.029274850109    0.232318075497
              16 O      6.488631752577    2.909461165871    0.415991738191
------------------------ !GEOMETRY! -------------------------
    Number of atoms:    17 
    Geometry Index:     12 
    Coordinates:
               0 C      0.623122940892   -1.417047966672    0.023599135576
               1 C      1.370452474705   -0.817477707332   -0.981947122581
               2 C      0.644385327006   -0.870946426635    1.301383582709
               3 C      2.129759900570    0.319330199465   -0.703474848472
               4 C      2.143517275121    0.859589012411    0.586079673379
               5 C      1.397790117810    0.261599151007    1.592201486668
               6 H      1.367871336495   -1.228019099457   -1.986255714088
               7 C      3.598660737894    1.827446257428   -1.924957134848
               8 H      0.030256908373   -2.300752852415   -0.186154877062
               9 Cl    -0.297124535251   -1.625793867706    2.575464782637
              10 H      2.735679456995    1.744379994669    0.800478940836
              11 H      1.403651057030    0.674695799313    2.595256178422
              12 N      2.867144801275    0.889888665497   -1.743813343629
              13 O      4.321638703906    2.698674081899   -2.242060343320
              14 O      4.213001071120    3.884695285808    0.829129960186
              15 S      5.552927484274    4.027585735224    0.234211966424
              16 O      6.485734941786    2.905953737496    0.417487677163
------------------------ !GEOMETRY! -------------------------
    Number of atoms:    17 
    Geometry Index:     13 
    Coordinates:
               0 C      0.623739985008   -1.417013929948    0.023960222207
               1 C      1.370627834939   -0.817705670789   -0.982106890554
               2 C      0.645422598017   -0.870256277989    1.301428013195
               3 C      2.129812519797    0.319350088896   -0.704391848390
               4 C      2.143912769022    0.860130604643    0.584864333266
               5 C      1.398625262005    0.262482375480    1.591616511918
               6 H      1.367772551965   -1.228702633419   -1.986230768846
               7 C      3.598085023274    1.827738523986   -1.925529472962
               8 H      0.031014183105   -2.300913593506   -0.185298090152
               9 Cl    -0.295608915078   -1.624824453641    2.576228482306
              10 H      2.735927869947    1.745107284825    0.798876419436
              11 H      1.404844648962    0.676104822426    2.594433247460
              12 N      2.866800716876    0.889741004713   -1.745137080695
              13 O      4.320937427521    2.698992949990   -2.242725607564
              14 O      4.211974880577    3.886037709041    0.831404673025
              15 S      5.552129883456    4.025667347137    0.236260052764
              16 O      6.482450760607    2.901863848154    0.418977803585
------------------------ !GEOMETRY! -------------------------
    Number of atoms:    17 
    Geometry Index:     14 
    Coordinates:
               0 C      0.623739985008   -1.417013929948    0.023960222207
               1 C      1.370627834939   -0.817705670789   -0.982106890554
               2 C      0.645422598017   -0.870256277989    1.301428013195
               3 C      2.129812519797    0.319350088896   -0.704391848390
               4 C      2.143912769022    0.860130604643    0.584864333266
               5 C      1.398625262005    0.262482375480    1.591616511918
               6 H      1.367772551965   -1.228702633419   -1.986230768846
               7 C      3.598085023274    1.827738523986   -1.925529472962
               8 H      0.031014183105   -2.300913593506   -0.185298090152
               9 Cl    -0.295608915078   -1.624824453641    2.576228482306
              10 H      2.735927869947    1.745107284825    0.798876419436
              11 H      1.404844648962    0.676104822426    2.594433247460
              12 N      2.866800716876    0.889741004713   -1.745137080695
              13 O      4.320937427521    2.698992949990   -2.242725607564
              14 O      4.211974880577    3.886037709041    0.831404673025
              15 S      5.552129883456    4.025667347137    0.236260052764
              16 O      6.482450760607    2.901863848154    0.418977803585
