14
Coordinates from ORCA-job mol
  C   -0.08273470783010     -0.07064211449714      0.35237960735861
  C   0.78247266588008      1.02193517515067      0.41755395533647
  C   0.42119737063369     -1.37623666190761      0.40610294357462
  C   2.17388521297619      0.81307936650769      0.53803774388804
  C   2.67667997781601     -0.50569807194797      0.59233294430546
  C   1.80025764351845     -1.58889004203788      0.52600996556119
  H   0.39704961504994      2.03435633900075      0.37635565364327
  C   3.06562294944186      1.92091025673637      0.60364286550601
  H   -1.15054157018085      0.09650526885021      0.25982060482484
  H   -0.25592754975466     -2.22220292058534      0.35483738156043
  H   3.74504125187502     -0.66443846361238      0.68513846533755
  H   2.19363218139665     -2.59893347032894      0.56775123759861
  N   3.81484593697027      2.82403650031812      0.64943859245018
  O   4.61481902220746      3.78451883835344      0.69659803905473
