14
C7H5NO optimized with ADF in AMS.
 C       -0.06587176014818      -0.06402743707479       0.35399258192795
 C        0.79477818271686       1.01939781427523       0.41696798983790
 C        0.43101413644608      -1.36213015383975       0.40821498238617
 C        2.17729385855360       0.80910679406656       0.53632276631033
 C        2.67428028237174      -0.50251172769084       0.59053130480129
 C        1.80058776154995      -1.57528822442622       0.52621201062614
 H        0.41411106279921       2.03208346048318       0.37542732537489
 C        3.06228806524897       1.90900990540365       0.60113681983356
 H       -1.13189632481548       0.10671248751382       0.26206774313849
 H       -0.24712221007988      -2.20534752179416       0.35839977154359
 H        3.74120199636423      -0.66193568589173       0.68224089861586
 H        2.19207946127929      -2.58475109361603       0.56838818923776
 N        3.79639227715500       2.80729935810674       0.64814864481706
 O        4.55716321045859       3.74068202468434       0.69794897164902
