 $CONTRL SCFTYP=rhf RUNTYP=hessian d5=.t. 
!dfttyp=pbe0
 mplevl=2
 maxit=100 icut=20 inttyp=hondo itol=30 gencon=.f. wide=1                                
 mult=1 icharg=0 exetyp=run fstint=.t. nzvar=0 $END                            
 $SYSTEM TIMLIM=100000 mwords=360 nojac=1  $END                                  
 $system mxbcst=-1 $end                                                         
 $p2p p2p=.t. dlb=.t. $end                                                      
 $smp                                                                           
  mkl64=21 smppar=1 mklnp=18 np=36 httnp=1 dianp=1                              
  pts=0x101                                                                     
 $end                                                                           
 $mpi mxgsum=0x40000 mnpdot=1d9 $end                                            
 $MOORTH nostf=1 nozero=1 syms=1 symden=1 symvec=1 tole=0 tolz=0 $end           
 $BASIS GBASIS=apvtzs extfil=.t. $END                                          
 $GUESS GUESS=huckel                                                            
 $END                                                                           
! $RIMP2 AUXBAS=cc-pvdz/C VERBOSE=.T. $END
 $MP2 method=1 $END
 $MP2GRD dblbf=0 fused=0 asysnc=1 tol1=1d-12 tol2=1d-12 $END
 $FORCE NVIB=2 VIBSIZ=0.005 $END
 $trans mptran=2 dirtrf=.t. mode=112 cuttrf=1d-20 $end
 $DATA
 C7NH5O
C1
CARBON      6.0  -0.0729626763  -0.0699051432   0.3533261241
CARBON      6.0   0.7889055820   1.0190118996   0.4180684040
CARBON      6.0   0.4261386700  -1.3701981515   0.4065631656
CARBON      6.0   2.1703615833   0.8079551899   0.5374862694
CARBON      6.0   2.6733496197  -0.5003524108   0.5917881114
CARBON      6.0   1.7990302634  -1.5792822699   0.5258499558
HYDROGEN    1.0   0.4069943406   2.0293603957   0.3771283332
CARBON      6.0   3.0587838068   1.9185361403   0.6030732138
HYDROGEN    1.0  -1.1369722317   0.0988364310   0.2609740147
HYDROGEN    1.0  -0.2487547435  -2.2130331156   0.3555548175
HYDROGEN    1.0   3.7387955661  -0.6573039234   0.6843269609
HYDROGEN    1.0   2.1922719239  -2.5856274881   0.5677616086
NITROGEN    7.0   3.8172463952   2.8224651195   0.6479708219
OXYGEN      8.0   4.5831119005   3.7478373262   0.6961282000
 $END

