-------------------------------------------------------------
----------------------- !PROPERTIES! ------------------------
-------------------------------------------------------------
# -----------------------------------------------------------
$ PAL_Flags
   description: The PAL Flags
   geom. index: 1
   prop. index: 1
        Diskflag:     2
# -----------------------------------------------------------
$ SCF_Energy
   description: The SCF energy
   geom. index: 1
   prop. index: 1
        SCF Energy:    -1152.6370007073
# -----------------------------------------------------------
$ DFT_Energy
   description: The DFT energy
   geom. index: 1
   prop. index: 1
   Number of Alpha Electrons                 58.0000069026 
   Number of Beta  Electrons                 58.0000069026 
   Total number of  Electrons               116.0000138052 
   Exchange energy                         -117.4346179042 
   Correlation energy                        -3.9986477311 
   Correlation energy NL                      0.0000000000 
   Exchange-Correlation energy             -121.4332656352 
   Embedding correction                       0.0000000000 
   Total DFT Energy (No VdW correction)   -1152.6370007073 
# -----------------------------------------------------------
$ VdW_Correction
   description: The Van der Waals Correction
   geom. index: 1
   prop. index: 1
        Van der Waals Correction:       -0.0081825995
# -----------------------------------------------------------
$ PAL_Flags
   description: The PAL Flags
   geom. index: 2
   prop. index: 1
        Diskflag:     2
# -----------------------------------------------------------
$ SCF_Energy
   description: The SCF energy
   geom. index: 2
   prop. index: 1
        SCF Energy:    -1152.6368367477
# -----------------------------------------------------------
$ DFT_Energy
   description: The DFT energy
   geom. index: 2
   prop. index: 1
   Number of Alpha Electrons                 58.0000062451 
   Number of Beta  Electrons                 58.0000062451 
   Total number of  Electrons               116.0000124901 
   Exchange energy                         -117.4343069424 
   Correlation energy                        -3.9985630303 
   Correlation energy NL                      0.0000000000 
   Exchange-Correlation energy             -121.4328699727 
   Embedding correction                       0.0000000000 
   Total DFT Energy (No VdW correction)   -1152.6368367477 
# -----------------------------------------------------------
$ VdW_Correction
   description: The Van der Waals Correction
   geom. index: 2
   prop. index: 1
        Van der Waals Correction:       -0.0081825454
# -----------------------------------------------------------
$ PAL_Flags
   description: The PAL Flags
   geom. index: 3
   prop. index: 1
        Diskflag:     2
# -----------------------------------------------------------
$ SCF_Energy
   description: The SCF energy
   geom. index: 3
   prop. index: 1
        SCF Energy:    -1152.6363511186
# -----------------------------------------------------------
$ DFT_Energy
   description: The DFT energy
   geom. index: 3
   prop. index: 1
   Number of Alpha Electrons                 58.0000061448 
   Number of Beta  Electrons                 58.0000061448 
   Total number of  Electrons               116.0000122895 
   Exchange energy                         -117.4348636811 
   Correlation energy                        -3.9985174914 
   Correlation energy NL                      0.0000000000 
   Exchange-Correlation energy             -121.4333811725 
   Embedding correction                       0.0000000000 
   Total DFT Energy (No VdW correction)   -1152.6363511186 
# -----------------------------------------------------------
$ VdW_Correction
   description: The Van der Waals Correction
   geom. index: 3
   prop. index: 1
        Van der Waals Correction:       -0.0081848825
# -----------------------------------------------------------
$ PAL_Flags
   description: The PAL Flags
   geom. index: 4
   prop. index: 1
        Diskflag:     2
# -----------------------------------------------------------
$ SCF_Energy
   description: The SCF energy
   geom. index: 4
   prop. index: 1
        SCF Energy:    -1152.6354173048
# -----------------------------------------------------------
$ DFT_Energy
   description: The DFT energy
   geom. index: 4
   prop. index: 1
   Number of Alpha Electrons                 58.0000057225 
   Number of Beta  Electrons                 58.0000057225 
   Total number of  Electrons               116.0000114450 
   Exchange energy                         -117.4353288625 
   Correlation energy                        -3.9983586531 
   Correlation energy NL                      0.0000000000 
   Exchange-Correlation energy             -121.4336875156 
   Embedding correction                       0.0000000000 
   Total DFT Energy (No VdW correction)   -1152.6354173048 
# -----------------------------------------------------------
$ VdW_Correction
   description: The Van der Waals Correction
   geom. index: 4
   prop. index: 1
        Van der Waals Correction:       -0.0081874647
# -----------------------------------------------------------
$ PAL_Flags
   description: The PAL Flags
   geom. index: 5
   prop. index: 1
        Diskflag:     2
# -----------------------------------------------------------
$ SCF_Energy
   description: The SCF energy
   geom. index: 5
   prop. index: 1
        SCF Energy:    -1152.6340417896
# -----------------------------------------------------------
$ DFT_Energy
   description: The DFT energy
   geom. index: 5
   prop. index: 1
   Number of Alpha Electrons                 58.0000068540 
   Number of Beta  Electrons                 58.0000068540 
   Total number of  Electrons               116.0000137079 
   Exchange energy                         -117.4340167845 
   Correlation energy                        -3.9976730520 
   Correlation energy NL                      0.0000000000 
   Exchange-Correlation energy             -121.4316898365 
   Embedding correction                       0.0000000000 
   Total DFT Energy (No VdW correction)   -1152.6340417896 
# -----------------------------------------------------------
$ VdW_Correction
   description: The Van der Waals Correction
   geom. index: 5
   prop. index: 1
        Van der Waals Correction:       -0.0081820351
# -----------------------------------------------------------
$ PAL_Flags
   description: The PAL Flags
   geom. index: 6
   prop. index: 1
        Diskflag:     2
# -----------------------------------------------------------
$ SCF_Energy
   description: The SCF energy
   geom. index: 6
   prop. index: 1
        SCF Energy:    -1152.6330403155
# -----------------------------------------------------------
$ DFT_Energy
   description: The DFT energy
   geom. index: 6
   prop. index: 1
   Number of Alpha Electrons                 58.0000084159 
   Number of Beta  Electrons                 58.0000084159 
   Total number of  Electrons               116.0000168318 
   Exchange energy                         -117.4310120905 
   Correlation energy                        -3.9963960082 
   Correlation energy NL                      0.0000000000 
   Exchange-Correlation energy             -121.4274080987 
   Embedding correction                       0.0000000000 
   Total DFT Energy (No VdW correction)   -1152.6330403155 
# -----------------------------------------------------------
$ VdW_Correction
   description: The Van der Waals Correction
   geom. index: 6
   prop. index: 1
        Van der Waals Correction:       -0.0081654617
# -----------------------------------------------------------
$ PAL_Flags
   description: The PAL Flags
   geom. index: 7
   prop. index: 1
        Diskflag:     2
# -----------------------------------------------------------
$ SCF_Energy
   description: The SCF energy
   geom. index: 7
   prop. index: 1
        SCF Energy:    -1152.6329715757
# -----------------------------------------------------------
$ DFT_Energy
   description: The DFT energy
   geom. index: 7
   prop. index: 1
   Number of Alpha Electrons                 58.0000091686 
   Number of Beta  Electrons                 58.0000091686 
   Total number of  Electrons               116.0000183371 
   Exchange energy                         -117.4301855246 
   Correlation energy                        -3.9950051597 
   Correlation energy NL                      0.0000000000 
   Exchange-Correlation energy             -121.4251906843 
   Embedding correction                       0.0000000000 
   Total DFT Energy (No VdW correction)   -1152.6329715757 
# -----------------------------------------------------------
$ VdW_Correction
   description: The Van der Waals Correction
   geom. index: 7
   prop. index: 1
        Van der Waals Correction:       -0.0081432761
# -----------------------------------------------------------
$ PAL_Flags
   description: The PAL Flags
   geom. index: 8
   prop. index: 1
        Diskflag:     2
# -----------------------------------------------------------
$ SCF_Energy
   description: The SCF energy
   geom. index: 8
   prop. index: 1
        SCF Energy:    -1152.6342115660
# -----------------------------------------------------------
$ DFT_Energy
   description: The DFT energy
   geom. index: 8
   prop. index: 1
   Number of Alpha Electrons                 58.0000114191 
   Number of Beta  Electrons                 58.0000114191 
   Total number of  Electrons               116.0000228381 
   Exchange energy                         -117.4283552996 
   Correlation energy                        -3.9956537998 
   Correlation energy NL                      0.0000000000 
   Exchange-Correlation energy             -121.4240090994 
   Embedding correction                       0.0000000000 
   Total DFT Energy (No VdW correction)   -1152.6342115660 
# -----------------------------------------------------------
$ VdW_Correction
   description: The Van der Waals Correction
   geom. index: 8
   prop. index: 1
        Van der Waals Correction:       -0.0081483251
# -----------------------------------------------------------
$ PAL_Flags
   description: The PAL Flags
   geom. index: 9
   prop. index: 1
        Diskflag:     2
# -----------------------------------------------------------
$ SCF_Energy
   description: The SCF energy
   geom. index: 9
   prop. index: 1
        SCF Energy:    -1152.6338755869
# -----------------------------------------------------------
$ DFT_Energy
   description: The DFT energy
   geom. index: 9
   prop. index: 1
   Number of Alpha Electrons                 58.0000077172 
   Number of Beta  Electrons                 58.0000077172 
   Total number of  Electrons               116.0000154343 
   Exchange energy                         -117.4283377423 
   Correlation energy                        -3.9944451465 
   Correlation energy NL                      0.0000000000 
   Exchange-Correlation energy             -121.4227828888 
   Embedding correction                       0.0000000000 
   Total DFT Energy (No VdW correction)   -1152.6338755869 
# -----------------------------------------------------------
$ VdW_Correction
   description: The Van der Waals Correction
   geom. index: 9
   prop. index: 1
        Van der Waals Correction:       -0.0081332169
# -----------------------------------------------------------
$ PAL_Flags
   description: The PAL Flags
   geom. index: 10
   prop. index: 1
        Diskflag:     2
# -----------------------------------------------------------
$ SCF_Energy
   description: The SCF energy
   geom. index: 10
   prop. index: 1
        SCF Energy:    -1152.6348556257
# -----------------------------------------------------------
$ DFT_Energy
   description: The DFT energy
   geom. index: 10
   prop. index: 1
   Number of Alpha Electrons                 58.0000105978 
   Number of Beta  Electrons                 58.0000105978 
   Total number of  Electrons               116.0000211956 
   Exchange energy                         -117.4286000297 
   Correlation energy                        -3.9952014320 
   Correlation energy NL                      0.0000000000 
   Exchange-Correlation energy             -121.4238014617 
   Embedding correction                       0.0000000000 
   Total DFT Energy (No VdW correction)   -1152.6348556257 
# -----------------------------------------------------------
$ VdW_Correction
   description: The Van der Waals Correction
   geom. index: 10
   prop. index: 1
        Van der Waals Correction:       -0.0081354666
# -----------------------------------------------------------
$ PAL_Flags
   description: The PAL Flags
   geom. index: 11
   prop. index: 1
        Diskflag:     2
# -----------------------------------------------------------
$ SCF_Energy
   description: The SCF energy
   geom. index: 11
   prop. index: 1
        SCF Energy:    -1152.6347310409
# -----------------------------------------------------------
$ DFT_Energy
   description: The DFT energy
   geom. index: 11
   prop. index: 1
   Number of Alpha Electrons                 58.0000057861 
   Number of Beta  Electrons                 58.0000057861 
   Total number of  Electrons               116.0000115722 
   Exchange energy                         -117.4300486672 
   Correlation energy                        -3.9940362103 
   Correlation energy NL                      0.0000000000 
   Exchange-Correlation energy             -121.4240848775 
   Embedding correction                       0.0000000000 
   Total DFT Energy (No VdW correction)   -1152.6347310409 
# -----------------------------------------------------------
$ VdW_Correction
   description: The Van der Waals Correction
   geom. index: 11
   prop. index: 1
        Van der Waals Correction:       -0.0081195733
# -----------------------------------------------------------
$ PAL_Flags
   description: The PAL Flags
   geom. index: 12
   prop. index: 1
        Diskflag:     2
# -----------------------------------------------------------
$ SCF_Energy
   description: The SCF energy
   geom. index: 12
   prop. index: 1
        SCF Energy:    -1152.6353928270
# -----------------------------------------------------------
$ DFT_Energy
   description: The DFT energy
   geom. index: 12
   prop. index: 1
   Number of Alpha Electrons                 58.0000076519 
   Number of Beta  Electrons                 58.0000076519 
   Total number of  Electrons               116.0000153038 
   Exchange energy                         -117.4300453909 
   Correlation energy                        -3.9949039731 
   Correlation energy NL                      0.0000000000 
   Exchange-Correlation energy             -121.4249493640 
   Embedding correction                       0.0000000000 
   Total DFT Energy (No VdW correction)   -1152.6353928270 
# -----------------------------------------------------------
$ VdW_Correction
   description: The Van der Waals Correction
   geom. index: 12
   prop. index: 1
        Van der Waals Correction:       -0.0081229549
# -----------------------------------------------------------
$ PAL_Flags
   description: The PAL Flags
   geom. index: 13
   prop. index: 1
        Diskflag:     2
# -----------------------------------------------------------
$ SCF_Energy
   description: The SCF energy
   geom. index: 13
   prop. index: 1
        SCF Energy:    -1152.6356622966
# -----------------------------------------------------------
$ DFT_Energy
   description: The DFT energy
   geom. index: 13
   prop. index: 1
   Number of Alpha Electrons                 58.0000121523 
   Number of Beta  Electrons                 58.0000121523 
   Total number of  Electrons               116.0000243046 
   Exchange energy                         -117.4311044223 
   Correlation energy                        -3.9961540215 
   Correlation energy NL                      0.0000000000 
   Exchange-Correlation energy             -121.4272584438 
   Embedding correction                       0.0000000000 
   Total DFT Energy (No VdW correction)   -1152.6356622966 
# -----------------------------------------------------------
$ VdW_Correction
   description: The Van der Waals Correction
   geom. index: 13
   prop. index: 1
        Van der Waals Correction:       -0.0081381139
# -----------------------------------------------------------
$ PAL_Flags
   description: The PAL Flags
   geom. index: 14
   prop. index: 1
        Diskflag:     2
# -----------------------------------------------------------
$ SCF_Energy
   description: The SCF energy
   geom. index: 14
   prop. index: 1
        SCF Energy:    -1152.6361166603
# -----------------------------------------------------------
$ DFT_Energy
   description: The DFT energy
   geom. index: 14
   prop. index: 1
   Number of Alpha Electrons                 58.0000118645 
   Number of Beta  Electrons                 58.0000118645 
   Total number of  Electrons               116.0000237290 
   Exchange energy                         -117.4330365453 
   Correlation energy                        -3.9975009138 
   Correlation energy NL                      0.0000000000 
   Exchange-Correlation energy             -121.4305374591 
   Embedding correction                       0.0000000000 
   Total DFT Energy (No VdW correction)   -1152.6361166603 
# -----------------------------------------------------------
$ VdW_Correction
   description: The Van der Waals Correction
   geom. index: 14
   prop. index: 1
        Van der Waals Correction:       -0.0081544685
# -----------------------------------------------------------
$ PAL_Flags
   description: The PAL Flags
   geom. index: 15
   prop. index: 1
        Diskflag:     2
# -----------------------------------------------------------
$ SCF_Energy
   description: The SCF energy
   geom. index: 15
   prop. index: 1
        SCF Energy:    -1152.6366243104
# -----------------------------------------------------------
$ DFT_Energy
   description: The DFT energy
   geom. index: 15
   prop. index: 1
   Number of Alpha Electrons                 58.0000106952 
   Number of Beta  Electrons                 58.0000106952 
   Total number of  Electrons               116.0000213903 
   Exchange energy                         -117.4327373635 
   Correlation energy                        -3.9980505365 
   Correlation energy NL                      0.0000000000 
   Exchange-Correlation energy             -121.4307879000 
   Embedding correction                       0.0000000000 
   Total DFT Energy (No VdW correction)   -1152.6366243104 
# -----------------------------------------------------------
$ VdW_Correction
   description: The Van der Waals Correction
   geom. index: 15
   prop. index: 1
        Van der Waals Correction:       -0.0081594384
# -----------------------------------------------------------
$ PAL_Flags
   description: The PAL Flags
   geom. index: 16
   prop. index: 1
        Diskflag:     2
# -----------------------------------------------------------
$ SCF_Energy
   description: The SCF energy
   geom. index: 16
   prop. index: 1
        SCF Energy:    -1152.6368362822
# -----------------------------------------------------------
$ DFT_Energy
   description: The DFT energy
   geom. index: 16
   prop. index: 1
   Number of Alpha Electrons                 58.0000082176 
   Number of Beta  Electrons                 58.0000082176 
   Total number of  Electrons               116.0000164351 
   Exchange energy                         -117.4324278874 
   Correlation energy                        -3.9983257077 
   Correlation energy NL                      0.0000000000 
   Exchange-Correlation energy             -121.4307535951 
   Embedding correction                       0.0000000000 
   Total DFT Energy (No VdW correction)   -1152.6368362822 
# -----------------------------------------------------------
$ VdW_Correction
   description: The Van der Waals Correction
   geom. index: 16
   prop. index: 1
        Van der Waals Correction:       -0.0081668435
# -----------------------------------------------------------
$ PAL_Flags
   description: The PAL Flags
   geom. index: 17
   prop. index: 1
        Diskflag:     2
# -----------------------------------------------------------
$ SCF_Energy
   description: The SCF energy
   geom. index: 17
   prop. index: 1
        SCF Energy:    -1152.6367618247
# -----------------------------------------------------------
$ DFT_Energy
   description: The DFT energy
   geom. index: 17
   prop. index: 1
   Number of Alpha Electrons                 58.0000091848 
   Number of Beta  Electrons                 58.0000091848 
   Total number of  Electrons               116.0000183696 
   Exchange energy                         -117.4319050301 
   Correlation energy                        -3.9977769451 
   Correlation energy NL                      0.0000000000 
   Exchange-Correlation energy             -121.4296819752 
   Embedding correction                       0.0000000000 
   Total DFT Energy (No VdW correction)   -1152.6367618247 
# -----------------------------------------------------------
$ VdW_Correction
   description: The Van der Waals Correction
   geom. index: 17
   prop. index: 1
        Van der Waals Correction:       -0.0081614177
# -----------------------------------------------------------
$ PAL_Flags
   description: The PAL Flags
   geom. index: 18
   prop. index: 1
        Diskflag:     2
# -----------------------------------------------------------
$ SCF_Energy
   description: The SCF energy
   geom. index: 18
   prop. index: 1
        SCF Energy:    -1152.6367212931
# -----------------------------------------------------------
$ DFT_Energy
   description: The DFT energy
   geom. index: 18
   prop. index: 1
   Number of Alpha Electrons                 58.0000089376 
   Number of Beta  Electrons                 58.0000089376 
   Total number of  Electrons               116.0000178751 
   Exchange energy                         -117.4332558859 
   Correlation energy                        -3.9977778969 
   Correlation energy NL                      0.0000000000 
   Exchange-Correlation energy             -121.4310337828 
   Embedding correction                       0.0000000000 
   Total DFT Energy (No VdW correction)   -1152.6367212931 
# -----------------------------------------------------------
$ VdW_Correction
   description: The Van der Waals Correction
   geom. index: 18
   prop. index: 1
        Van der Waals Correction:       -0.0081665865
# -----------------------------------------------------------
$ PAL_Flags
   description: The PAL Flags
   geom. index: 19
   prop. index: 1
        Diskflag:     2
# -----------------------------------------------------------
$ SCF_Energy
   description: The SCF energy
   geom. index: 19
   prop. index: 1
        SCF Energy:    -1152.6368204948
# -----------------------------------------------------------
$ DFT_Energy
   description: The DFT energy
   geom. index: 19
   prop. index: 1
   Number of Alpha Electrons                 58.0000077428 
   Number of Beta  Electrons                 58.0000077428 
   Total number of  Electrons               116.0000154855 
   Exchange energy                         -117.4332038423 
   Correlation energy                        -3.9980277764 
   Correlation energy NL                      0.0000000000 
   Exchange-Correlation energy             -121.4312316187 
   Embedding correction                       0.0000000000 
   Total DFT Energy (No VdW correction)   -1152.6368204948 
# -----------------------------------------------------------
$ VdW_Correction
   description: The Van der Waals Correction
   geom. index: 19
   prop. index: 1
        Van der Waals Correction:       -0.0081678743
# -----------------------------------------------------------
$ PAL_Flags
   description: The PAL Flags
   geom. index: 20
   prop. index: 1
        Diskflag:     2
# -----------------------------------------------------------
$ SCF_Energy
   description: The SCF energy
   geom. index: 20
   prop. index: 1
        SCF Energy:    -1152.6369670484
# -----------------------------------------------------------
$ DFT_Energy
   description: The DFT energy
   geom. index: 20
   prop. index: 1
   Number of Alpha Electrons                 58.0000040596 
   Number of Beta  Electrons                 58.0000040596 
   Total number of  Electrons               116.0000081191 
   Exchange energy                         -117.4342482409 
   Correlation energy                        -3.9986236828 
   Correlation energy NL                      0.0000000000 
   Exchange-Correlation energy             -121.4328719236 
   Embedding correction                       0.0000000000 
   Total DFT Energy (No VdW correction)   -1152.6369670484 
# -----------------------------------------------------------
$ VdW_Correction
   description: The Van der Waals Correction
   geom. index: 20
   prop. index: 1
        Van der Waals Correction:       -0.0081809052
# -----------------------------------------------------------
$ PAL_Flags
   description: The PAL Flags
   geom. index: 21
   prop. index: 1
        Diskflag:     2
# -----------------------------------------------------------
$ SCF_Energy
   description: The SCF energy
   geom. index: 21
   prop. index: 1
        SCF Energy:    -1152.6369253325
# -----------------------------------------------------------
$ DFT_Energy
   description: The DFT energy
   geom. index: 21
   prop. index: 1
   Number of Alpha Electrons                 58.0000048213 
   Number of Beta  Electrons                 58.0000048213 
   Total number of  Electrons               116.0000096426 
   Exchange energy                         -117.4339541384 
   Correlation energy                        -3.9984147619 
   Correlation energy NL                      0.0000000000 
   Exchange-Correlation energy             -121.4323689003 
   Embedding correction                       0.0000000000 
   Total DFT Energy (No VdW correction)   -1152.6369253325 
# -----------------------------------------------------------
$ VdW_Correction
   description: The Van der Waals Correction
   geom. index: 21
   prop. index: 1
        Van der Waals Correction:       -0.0081780795
# -----------------------------------------------------------
$ PAL_Flags
   description: The PAL Flags
   geom. index: 22
   prop. index: 1
        Diskflag:     2
# -----------------------------------------------------------
$ SCF_Energy
   description: The SCF energy
   geom. index: 22
   prop. index: 1
        SCF Energy:    -1152.6369318268
# -----------------------------------------------------------
$ DFT_Energy
   description: The DFT energy
   geom. index: 22
   prop. index: 1
   Number of Alpha Electrons                 58.0000043877 
   Number of Beta  Electrons                 58.0000043877 
   Total number of  Electrons               116.0000087754 
   Exchange energy                         -117.4340610610 
   Correlation energy                        -3.9984182573 
   Correlation energy NL                      0.0000000000 
   Exchange-Correlation energy             -121.4324793183 
   Embedding correction                       0.0000000000 
   Total DFT Energy (No VdW correction)   -1152.6369318268 
# -----------------------------------------------------------
$ VdW_Correction
   description: The Van der Waals Correction
   geom. index: 22
   prop. index: 1
        Van der Waals Correction:       -0.0081789300
# -----------------------------------------------------------
$ PAL_Flags
   description: The PAL Flags
   geom. index: 23
   prop. index: 1
        Diskflag:     2
# -----------------------------------------------------------
$ SCF_Energy
   description: The SCF energy
   geom. index: 23
   prop. index: 1
        SCF Energy:    -1152.6370719309
# -----------------------------------------------------------
$ DFT_Energy
   description: The DFT energy
   geom. index: 23
   prop. index: 1
   Number of Alpha Electrons                 58.0000029177 
   Number of Beta  Electrons                 58.0000029177 
   Total number of  Electrons               116.0000058355 
   Exchange energy                         -117.4357565721 
   Correlation energy                        -3.9992274561 
   Correlation energy NL                      0.0000000000 
   Exchange-Correlation energy             -121.4349840281 
   Embedding correction                       0.0000000000 
   Total DFT Energy (No VdW correction)   -1152.6370719309 
# -----------------------------------------------------------
$ VdW_Correction
   description: The Van der Waals Correction
   geom. index: 23
   prop. index: 1
        Van der Waals Correction:       -0.0081963838
# -----------------------------------------------------------
$ PAL_Flags
   description: The PAL Flags
   geom. index: 24
   prop. index: 1
        Diskflag:     2
# -----------------------------------------------------------
$ SCF_Energy
   description: The SCF energy
   geom. index: 24
   prop. index: 1
        SCF Energy:    -1152.6369695110
# -----------------------------------------------------------
$ DFT_Energy
   description: The DFT energy
   geom. index: 24
   prop. index: 1
   Number of Alpha Electrons                 58.0000028770 
   Number of Beta  Electrons                 58.0000028770 
   Total number of  Electrons               116.0000057540 
   Exchange energy                         -117.4341852299 
   Correlation energy                        -3.9985484183 
   Correlation energy NL                      0.0000000000 
   Exchange-Correlation energy             -121.4327336482 
   Embedding correction                       0.0000000000 
   Total DFT Energy (No VdW correction)   -1152.6369695110 
# -----------------------------------------------------------
$ VdW_Correction
   description: The Van der Waals Correction
   geom. index: 24
   prop. index: 1
        Van der Waals Correction:       -0.0081826801
# -----------------------------------------------------------
$ PAL_Flags
   description: The PAL Flags
   geom. index: 25
   prop. index: 1
        Diskflag:     2
# -----------------------------------------------------------
$ SCF_Energy
   description: The SCF energy
   geom. index: 25
   prop. index: 1
        SCF Energy:    -1152.6369641753
# -----------------------------------------------------------
$ DFT_Energy
   description: The DFT energy
   geom. index: 25
   prop. index: 1
   Number of Alpha Electrons                 58.0000030581 
   Number of Beta  Electrons                 58.0000030581 
   Total number of  Electrons               116.0000061162 
   Exchange energy                         -117.4342465549 
   Correlation energy                        -3.9985294150 
   Correlation energy NL                      0.0000000000 
   Exchange-Correlation energy             -121.4327759699 
   Embedding correction                       0.0000000000 
   Total DFT Energy (No VdW correction)   -1152.6369641753 
# -----------------------------------------------------------
$ VdW_Correction
   description: The Van der Waals Correction
   geom. index: 25
   prop. index: 1
        Van der Waals Correction:       -0.0081825083
# -----------------------------------------------------------
$ PAL_Flags
   description: The PAL Flags
   geom. index: 26
   prop. index: 1
        Diskflag:     2
# -----------------------------------------------------------
$ SCF_Energy
   description: The SCF energy
   geom. index: 26
   prop. index: 1
        SCF Energy:    -1152.6369699771
# -----------------------------------------------------------
$ DFT_Energy
   description: The DFT energy
   geom. index: 26
   prop. index: 1
   Number of Alpha Electrons                 58.0000028862 
   Number of Beta  Electrons                 58.0000028862 
   Total number of  Electrons               116.0000057724 
   Exchange energy                         -117.4342920980 
   Correlation energy                        -3.9985525921 
   Correlation energy NL                      0.0000000000 
   Exchange-Correlation energy             -121.4328446901 
   Embedding correction                       0.0000000000 
   Total DFT Energy (No VdW correction)   -1152.6369699771 
# -----------------------------------------------------------
$ VdW_Correction
   description: The Van der Waals Correction
   geom. index: 26
   prop. index: 1
        Van der Waals Correction:       -0.0081832477
# -----------------------------------------------------------
$ PAL_Flags
   description: The PAL Flags
   geom. index: 27
   prop. index: 1
        Diskflag:     2
# -----------------------------------------------------------
$ SCF_Energy
   description: The SCF energy
   geom. index: 27
   prop. index: 1
        SCF Energy:    -1152.6369761007
# -----------------------------------------------------------
$ DFT_Energy
   description: The DFT energy
   geom. index: 27
   prop. index: 1
   Number of Alpha Electrons                 58.0000026099 
   Number of Beta  Electrons                 58.0000026099 
   Total number of  Electrons               116.0000052198 
   Exchange energy                         -117.4343307148 
   Correlation energy                        -3.9985753931 
   Correlation energy NL                      0.0000000000 
   Exchange-Correlation energy             -121.4329061079 
   Embedding correction                       0.0000000000 
   Total DFT Energy (No VdW correction)   -1152.6369761007 
# -----------------------------------------------------------
$ VdW_Correction
   description: The Van der Waals Correction
   geom. index: 27
   prop. index: 1
        Van der Waals Correction:       -0.0081840594
# -----------------------------------------------------------
$ PAL_Flags
   description: The PAL Flags
   geom. index: 28
   prop. index: 1
        Diskflag:     2
# -----------------------------------------------------------
$ SCF_Energy
   description: The SCF energy
   geom. index: 28
   prop. index: 1
        SCF Energy:    -1152.6369768388
# -----------------------------------------------------------
$ DFT_Energy
   description: The DFT energy
   geom. index: 28
   prop. index: 1
   Number of Alpha Electrons                 58.0000025250 
   Number of Beta  Electrons                 58.0000025250 
   Total number of  Electrons               116.0000050499 
   Exchange energy                         -117.4343403947 
   Correlation energy                        -3.9985743758 
   Correlation energy NL                      0.0000000000 
   Exchange-Correlation energy             -121.4329147705 
   Embedding correction                       0.0000000000 
   Total DFT Energy (No VdW correction)   -1152.6369768388 
# -----------------------------------------------------------
$ VdW_Correction
   description: The Van der Waals Correction
   geom. index: 28
   prop. index: 1
        Van der Waals Correction:       -0.0081841653
# -----------------------------------------------------------
$ SCF_Electric_Properties
   description: The SCF Calculated Electric Properties
   geom. index: 28
   prop. index: 1
       Filename                          : mol.scfp 
       Do Dipole Moment Calculation      : true 
       Do Quadrupole Moment Calculation  : false 
       Do Polarizability Calculation     : false 
** Dipole moment part of electric properties **
        Magnitude of dipole moment (Debye) :        1.9034316254
        Electronic Contribution:
                  0    
      0       4.446192
      1       3.775883
      2       0.523688
        Nuclear Contribution:
                  0    
      0      -4.618507
      1      -3.090311
      2      -0.276549
        Total Dipole moment:
                  0    
      0      -0.172316
      1       0.685573
      2       0.247138
# -----------------------------------------------------------
$ PAL_Flags
   description: The PAL Flags
   geom. index: 29
   prop. index: 1
        Diskflag:     2
# -----------------------------------------------------------
$ SCF_Energy
   description: The SCF energy
   geom. index: 29
   prop. index: 1
        SCF Energy:    -1152.6369768359
# -----------------------------------------------------------
$ DFT_Energy
   description: The DFT energy
   geom. index: 29
   prop. index: 1
   Number of Alpha Electrons                 58.0000025253 
   Number of Beta  Electrons                 58.0000025253 
   Total number of  Electrons               116.0000050506 
   Exchange energy                         -117.4343389097 
   Correlation energy                        -3.9985743214 
   Correlation energy NL                      0.0000000000 
   Exchange-Correlation energy             -121.4329132311 
   Embedding correction                       0.0000000000 
   Total DFT Energy (No VdW correction)   -1152.6369768359 
# -----------------------------------------------------------
$ VdW_Correction
   description: The Van der Waals Correction
   geom. index: 29
   prop. index: 1
        Van der Waals Correction:       -0.0081841653
# -----------------------------------------------------------
$ THERMOCHEMISTRY_Energies
   description: The Thermochemistry energies
   geom. index: 29
   prop. index: 1
        Temperature (Kelvin)           :        298.1500000000
        Pressure (atm)                 :          1.0000000000
        Total Mass (AMU)               :        227.9840924101
        Spin Degeneracy                :          1.0000000000
        Electronic Energy (Hartree)    :      -1152.6243791816
        Translational Energy (Hartree) :          0.0014162714
        Rotational Energy (Hartree)    :          0.0014162714
        Vibrational Energy (Hartree)   :          0.0101682462
        Number of frequencies          :     57      
        Scaling Factor for frequencies :          1.0000000000
        Vibrational frequencies        :     
                  0    
      0       0.000000
      1       0.000000
      2       0.000000
      3       0.000000
      4       0.000000
      5       0.000000
      6     -300.155598
      7      20.584933
      8      46.245283
      9      58.522074
     10      69.225341
     11     100.243713
     12     157.065909
     13     180.337392
     14     219.775437
     15     255.608076
     16     302.766609
     17     327.879187
     18     381.653878
     19     409.167646
     20     448.683992
     21     477.880053
     22     499.146471
     23     504.001343
     24     537.061921
     25     549.597975
     26     619.380299
     27     649.050875
     28     684.588069
     29     757.436413
     30     769.390355
     31     840.782561
     32     869.111591
     33     870.575404
     34     976.960884
     35     985.923701
     36     989.972380
     37     1034.523508
     38     1113.254382
     39     1131.585533
     40     1137.958887
     41     1206.384745
     42     1221.204674
     43     1316.927636
     44     1352.210212
     45     1354.488207
     46     1396.030899
     47     1433.506185
     48     1513.739964
     49     1569.928117
     50     1624.695540
     51     1629.543842
     52     2016.345552
     53     3197.340320
     54     3213.942991
     55     3219.742200
     56     3224.428290
        Zero Point Energy (Hartree)    :          0.1126927545
        Inner Energy (Hartree)         :      -1152.4986856381
        Enthalpy (Hartree)             :      -1152.4977414291
        Electronic entropy             :          0.0000000000
        Rotational entropy             :          0.0155775165
        Vibrational entropy            :          0.0181275013
        Translational entropy          :          0.0155775165
        Entropy                        :          0.0537434172
        Gibbs Energy (Hartree)         :      -1152.5514848463
        Is Linear                      :                 false
# -------------------------------------------------------------
----------------------- !GEOMETRIES! ------------------------
# -------------------------------------------------------------
------------------------ !GEOMETRY! -------------------------
    Number of atoms:    19 
    Geometry Index:     1 
    Coordinates:
               0 C     -2.384399409548   -0.777911331463   -0.484225851419
               1 C     -1.513952945578    0.293669620241   -0.552618630643
               2 C     -1.944995302360   -1.966449142546    0.088866792123
               3 C     -0.204343434567    0.161356408745   -0.052869661588
               4 C      0.218628467488   -1.047644008256    0.519690609388
               5 C     -0.659357761009   -2.116151314743    0.591766290704
               6 H     -1.831257080133    1.233631190225   -0.990892799075
               7 C      0.687666148077    1.262881586417   -0.129600820699
               8 H     -3.397015751872   -0.705681372661   -0.863042196580
               9 N     -2.879820052198   -3.108037544317    0.164602732422
              10 H      1.229111762751   -1.131316352503    0.900517229328
              11 H     -0.359284947434   -3.061122974525    1.028562529777
              12 N      0.907793703922    2.365680974192   -0.560063689499
              13 O      1.771140662282    3.253525946459   -0.528417328845
              14 O      2.354550294904    1.062810927519    1.025843149103
              15 S      3.439437340096    2.038723339250    0.587934488806
              16 O      4.261544506176    1.572412672388   -0.541726393276
              17 O     -4.005777687072   -2.943942557269   -0.286679234234
              18 O     -2.466658513924   -4.141106067153    0.673883784207
------------------------ !GEOMETRY! -------------------------
    Number of atoms:    19 
    Geometry Index:     2 
    Coordinates:
               0 C     -2.380847476204   -0.782008753180   -0.495071569692
               1 C     -1.510165682079    0.289271562188   -0.565122267005
               2 C     -1.945057545210   -1.966430563914    0.089200998340
               3 C     -0.203879178476    0.160758258918   -0.055748493798
               4 C      0.215478220600   -1.044112621038    0.528040530249
               5 C     -0.662770908027   -2.112294464221    0.601688546230
               6 H     -1.824760886098    1.226080102988   -1.012014581524
               7 C      0.688362633876    1.261952877975   -0.134271488572
               8 H     -3.390911628171   -0.712594518653   -0.881157732962
               9 N     -2.880138947976   -3.107681518554    0.166649671329
              10 H      1.223417138036   -1.124893043062    0.916176716513
              11 H     -0.365454409199   -3.054130975928    1.047057580179
              12 N      0.911121564464    2.361806390825   -0.570805595411
              13 O      1.774022785950    3.250100510600   -0.539651086639
              14 O      2.347994396694    1.070339894518    1.033608054449
              15 S      3.435298568493    2.043551665297    0.595755092602
              16 O      4.264536101144    1.569731583839   -0.525534234451
              17 O     -4.046310823064   -2.901389421471   -0.142946250521
              18 O     -2.426923924752   -4.182726967127    0.535677110682
------------------------ !GEOMETRY! -------------------------
    Number of atoms:    19 
    Geometry Index:     3 
    Coordinates:
               0 C     -2.384496612621   -0.780884607662   -0.488425736943
               1 C     -1.504422819408    0.280309232707   -0.587951697840
               2 C     -1.944291534487   -1.966506657678    0.089031249382
               3 C     -0.204509986950    0.159618690836   -0.060416325079
               4 C      0.208096770178   -1.036890659311    0.545090225696
               5 C     -0.659804658006   -2.114799454791    0.593782417349
               6 H     -1.812160112597    1.208562236791   -1.056947000660
               7 C      0.688730556688    1.259662334712   -0.144143230002
               8 H     -3.400609935237   -0.706767236101   -0.858898027114
               9 N     -2.877769827798   -3.105222429775    0.169290415553
              10 H      1.208722011820   -1.109376759209    0.953331735202
              11 H     -0.357158157774   -3.061156515292    1.026923869527
              12 N      0.918382634761    2.352383518590   -0.594274246696
              13 O      1.780832883097    3.241351480065   -0.565054441867
              14 O      2.333819157850    1.086891111967    1.051482576288
              15 S      3.426471063006    2.052682778642    0.611021581359
              16 O      4.268764868845    1.560163685635   -0.492350909186
              17 O     -4.067843776150   -2.865654968727    0.010718599156
              18 O     -2.397742525218   -4.209035781399    0.389319945874
------------------------ !GEOMETRY! -------------------------
    Number of atoms:    19 
    Geometry Index:     4 
    Coordinates:
               0 C     -2.386976027604   -0.783215662329   -0.489967822756
               1 C     -1.502813908205    0.273212104079   -0.605132994981
               2 C     -1.943626723181   -1.966501109178    0.088989028434
               3 C     -0.206696048603    0.158476926287   -0.066658737097
               4 C      0.203417043136   -1.032413317232    0.551766893773
               5 C     -0.659169692714   -2.115047897359    0.592321333612
               6 H     -1.800771488336    1.188527860993   -1.104838020380
               7 C      0.686981174264    1.258010305448   -0.154333307287
               8 H     -3.412149573389   -0.700423501692   -0.833373766356
               9 N     -2.873883158335   -3.101401875128    0.173445764178
              10 H      1.193161060107   -1.092248884349    0.987772682432
              11 H     -0.346407359085   -3.069038632220    1.001693816714
              12 N      0.925853102637    2.343808063315   -0.614238204590
              13 O      1.787821902828    3.233737440870   -0.586598245395
              14 O      2.322336952137    1.103360569411    1.074115778153
              15 S      3.419049647017    2.060049712873    0.626256069433
              16 O      4.269893821767    1.546851988448   -0.461103680209
              17 O     -4.070431809514   -2.841253586716    0.157851356552
              18 O     -2.382578914928   -4.219160505520    0.253563055770
------------------------ !GEOMETRY! -------------------------
    Number of atoms:    19 
    Geometry Index:     5 
    Coordinates:
               0 C     -2.394115835849   -0.785712547924   -0.488751265179
               1 C     -1.508025488735    0.268156139894   -0.617498608077
               2 C     -1.944401781082   -1.966632868773    0.089621730620
               3 C     -0.210859632035    0.156114393607   -0.080925452903
               4 C      0.202271641874   -1.031359036377    0.542429612672
               5 C     -0.657168632438   -2.116870678110    0.584492913807
               6 H     -1.799261453531    1.171403680258   -1.142572408544
               7 C      0.682952930720    1.255044817508   -0.175522182490
               8 H     -3.429164526650   -0.693140510409   -0.799058119816
               9 N     -2.871525907510   -3.098214169230    0.182800511029
              10 H      1.184952061657   -1.079946167071    0.995567390373
              11 H     -0.331935448319   -3.078685876743    0.965515291849
              12 N      0.941138857813    2.328660184143   -0.648314192999
              13 O      1.799701869444    3.222015287857   -0.625136026134
              14 O      2.312082297997    1.135515222470    1.119336172681
              15 S      3.412033544971    2.077283377955    0.655627448813
              16 O      4.278104553170    1.529841707007   -0.402815891513
              17 O     -4.059845435360   -2.829028677672    0.307354128846
              18 O     -2.383923616138   -4.219114278389    0.129379946965
------------------------ !GEOMETRY! -------------------------
    Number of atoms:    19 
    Geometry Index:     6 
    Coordinates:
               0 C     -2.406252805548   -0.785912951165   -0.478352721045
               1 C     -1.519995174039    0.266783371248   -0.621081770433
               2 C     -1.946572673019   -1.967120419266    0.090814037369
               3 C     -0.213697683676    0.150608778779   -0.108265575067
               4 C      0.209215162506   -1.038385049401    0.506026920661
               5 C     -0.651211675896   -2.122942606120    0.561743668137
               6 H     -1.815002656856    1.167383449124   -1.148687180619
               7 C      0.680400871379    1.247880351303   -0.214575903622
               8 H     -3.449878358707   -0.685631948019   -0.756440733982
               9 N     -2.873781698526   -3.095953793810    0.200817555156
              10 H      1.196447702119   -1.085265058749    0.949571161102
              11 H     -0.316849443595   -3.089973433691    0.921533886556
              12 N      0.968857002766    2.301804021004   -0.708856372057
              13 O      1.817326104415    3.202676607812   -0.695095965257
              14 O      2.292964335806    1.192293462458    1.189944303335
              15 S      3.399296389833    2.111305662981    0.710041635376
              16 O      4.298660624372    1.515317409883   -0.293171037791
              17 O     -4.041966593355   -2.825784477856    0.450460345705
              18 O     -2.404949429979   -4.213753376514    0.035104746476
------------------------ !GEOMETRY! -------------------------
    Number of atoms:    19 
    Geometry Index:     7 
    Coordinates:
               0 C     -2.419875870642   -0.785180638898   -0.465117019126
               1 C     -1.537270852052    0.269558275791   -0.618098136178
               2 C     -1.949269269548   -1.967601002387    0.092361328801
               3 C     -0.217654328304    0.145814474917   -0.143273268105
               4 C      0.219291711909   -1.046397901135    0.453137320521
               5 C     -0.643826414974   -2.127226849270    0.533911221337
               6 H     -1.845472232823    1.176779870061   -1.126453735620
               7 C      0.678824861860    1.237950239273   -0.261535858785
               8 H     -3.468309707958   -0.684663115740   -0.724397540228
               9 N     -2.877560285165   -3.095967846754    0.223066932940
              10 H      1.220477771485   -1.096948647302    0.865233343296
              11 H     -0.305243717349   -3.093849133225    0.890739581537
              12 N      1.003564343650    2.269046484663   -0.773957069416
              13 O      1.841398223672    3.176382229053   -0.770160128920
              14 O      2.268586401001    1.250909618738    1.259385529636
              15 S      3.385224276563    2.147056625412    0.774665561209
              16 O      4.325189013851    1.508711864680   -0.163302626765
              17 O     -4.020204305727   -2.830922339947    0.573736631618
              18 O     -2.434859619450   -4.208122207928   -0.028411067751
------------------------ !GEOMETRY! -------------------------
    Number of atoms:    19 
    Geometry Index:     8 
    Coordinates:
               0 C     -2.406785179379   -0.785297109939   -0.476112698142
               1 C     -1.526012063136    0.273818358690   -0.601096674196
               2 C     -1.950210736197   -1.968622775739    0.091808361008
               3 C     -0.209821979753    0.146457861592   -0.117363934629
               4 C      0.219439723269   -1.051839581389    0.473956612452
               5 C     -0.651998223278   -2.125573424425    0.556122299613
               6 H     -1.835249790368    1.192517326082   -1.087674052106
               7 C      0.684415782692    1.243050361274   -0.226251721603
               8 H     -3.443963512044   -0.694016901609   -0.778754947173
               9 N     -2.883745399979   -3.099400666008    0.206975718258
              10 H      1.223782664815   -1.117878116283    0.874305611326
              11 H     -0.328457085025   -3.084662540220    0.944556767573
              12 N      0.976255232525    2.291002655559   -0.730399937376
              13 O      1.817482065496    3.197139792528   -0.720750719997
              14 O      2.293293361868    1.214435446004    1.205656958742
              15 S      3.400446426549    2.133700395626    0.729473304515
              16 O      4.318589160744    1.532589216285   -0.253361787016
              17 O     -4.058784232590   -2.829469140158    0.419274808395
              18 O     -2.415666216209   -4.222621157869    0.081167030358
------------------------ !GEOMETRY! -------------------------
    Number of atoms:    19 
    Geometry Index:     9 
    Coordinates:
               0 C     -2.421581122756   -0.783638484763   -0.459175326683
               1 C     -1.544794524544    0.277265295171   -0.599729950370
               2 C     -1.950464514195   -1.967666629445    0.094912570932
               3 C     -0.215942583058    0.145084772607   -0.154536768736
               4 C      0.228696424033   -1.054842862021    0.420775610382
               5 C     -0.641477200269   -2.127474590094    0.526884885585
               6 H     -1.866705827666    1.199462536065   -1.071189928959
               7 C      0.681848479135    1.235274096550   -0.277257864703
               8 H     -3.465830898357   -0.691906172382   -0.736792469497
               9 N     -2.881612039531   -3.098401777527    0.231075527199
              10 H      1.244712752932   -1.119926120807    0.791877010749
              11 H     -0.309366028600   -3.087083236364    0.907087409450
              12 N      1.015443359105    2.259085817622   -0.800410090904
              13 O      1.847277243369    3.169437935386   -0.800897388826
              14 O      2.254674650561    1.268887120960    1.274033855517
              15 S      3.379410810651    2.158809340077    0.798942998275
              16 O      4.336794931182    1.511019705683   -0.114517845768
              17 O     -4.031876506803   -2.832874231660    0.553991886880
              18 O     -2.436197405191   -4.215182515056    0.006456879478
------------------------ !GEOMETRY! -------------------------
    Number of atoms:    19 
    Geometry Index:     10 
    Coordinates:
               0 C     -2.413002523363   -0.781857085058   -0.463324242876
               1 C     -1.535015393294    0.279575098915   -0.584664266628
               2 C     -1.952933154582   -1.969532888026    0.092575897979
               3 C     -0.209192639229    0.143046523858   -0.131018624740
               4 C      0.227267599831   -1.062177864323    0.439838442140
               5 C     -0.648646341445   -2.130395059495    0.538631554421
               6 H     -1.856477670755    1.210925174311   -1.038019073819
               7 C      0.687072426032    1.236534680897   -0.245493116641
               8 H     -3.448853127901   -0.694198491501   -0.771391035038
               9 N     -2.888780247692   -3.100466361783    0.214612479661
              10 H      1.244562209880   -1.141504565290    0.803984289746
              11 H     -0.328226626357   -3.085743700661    0.938565248145
              12 N      0.991534973718    2.273997130209   -0.762871430074
              13 O      1.825303932171    3.184669979252   -0.759271925943
              14 O      2.282348274799    1.241536782906    1.228881203238
              15 S      3.394350148469    2.155285154153    0.758542145970
              16 O      4.338015247309    1.541397266304   -0.191622374264
              17 O     -4.068899059469   -2.829581972871    0.393231803397
              18 O     -2.417418028123   -4.226179801799    0.130344025326
------------------------ !GEOMETRY! -------------------------
    Number of atoms:    19 
    Geometry Index:     11 
    Coordinates:
               0 C     -2.430098457835   -0.777095277815   -0.444990123434
               1 C     -1.556430669624    0.286244499550   -0.582447945316
               2 C     -1.953873573467   -1.967802060601    0.090400391176
               3 C     -0.217326777852    0.143506719114   -0.173627115723
               4 C      0.235688363387   -1.064583303792    0.375939942623
               5 C     -0.637377208209   -2.132430494917    0.498025586261
               6 H     -1.892433091153    1.223749579097   -1.011877436850
               7 C      0.684171228557    1.228552101664   -0.301223273622
               8 H     -3.473250965651   -0.689526848323   -0.727816153786
               9 N     -2.886475678547   -3.099646339061    0.232374040061
              10 H      1.266097372447   -1.144120548349    0.702952073569
              11 H     -0.307426598633   -3.088083777621    0.889734446336
              12 N      1.035689649333    2.239038942374   -0.835542962683
              13 O      1.861682061240    3.152318239999   -0.840899786578
              14 O      2.235776623126    1.295701323623    1.298285831529
              15 S      3.370211908622    2.178074432972    0.836676992165
              16 O      4.354952577474    1.517217348134   -0.037437193511
              17 O     -4.044340083589   -2.832387940240    0.523998972480
              18 O     -2.422226679626   -4.223396595808    0.099004715302
------------------------ !GEOMETRY! -------------------------
    Number of atoms:    19 
    Geometry Index:     12 
    Coordinates:
               0 C     -2.420982145465   -0.776537168689   -0.450703289244
               1 C     -1.544444816546    0.285917378370   -0.570893650509
               2 C     -1.956032613642   -1.970705430642    0.087427618397
               3 C     -0.210216283348    0.140456337789   -0.145909377656
               4 C      0.232919716978   -1.071721339218    0.403764422480
               5 C     -0.645003512267   -2.136944045514    0.512147342133
               6 H     -1.875569970614    1.227785169211   -0.994536046691
               7 C      0.688822839336    1.230246852327   -0.263734739910
               8 H     -3.457507044833   -0.689264810661   -0.756281578396
               9 N     -2.893007472712   -3.101968538231    0.213431855345
              10 H      1.260007001534   -1.161558729787    0.737607930200
              11 H     -0.324717897808   -3.091456218559    0.913937812773
              12 N      1.007477395000    2.257785286985   -0.790054510482
              13 O      1.834344619228    3.172371252944   -0.791087135329
              14 O      2.271929015741    1.263662626734    1.249899501940
              15 S      3.388320805794    2.173785189449    0.788908700251
              16 O      4.356694739107    1.551544359111   -0.130436311930
              17 O     -4.078001662643   -2.831230045681    0.355754933703
              18 O     -2.412022712839   -4.226838125938    0.222287522925
------------------------ !GEOMETRY! -------------------------
    Number of atoms:    19 
    Geometry Index:     13 
    Coordinates:
               0 C     -2.406205090270   -0.779766557107   -0.470662961807
               1 C     -1.527365620444    0.282381845150   -0.573530522384
               2 C     -1.955100467287   -1.971723943665    0.084646652246
               3 C     -0.205092321569    0.141547960481   -0.109935946008
               4 C      0.224596914814   -1.067878517547    0.455903457874
               5 C     -0.654975570608   -2.133894658601    0.543546608841
               6 H     -1.846500453829    1.220069525289   -1.015321360676
               7 C      0.691037511770    1.236363683223   -0.212974674507
               8 H     -3.435218752195   -0.693572311283   -0.800386115012
               9 N     -2.894125538844   -3.103450449157    0.190767645737
              10 H      1.241037089451   -1.156287009481    0.821199026226
              11 H     -0.343220542811   -3.087683423981    0.953223680060
              12 N      0.968794742469    2.290316494911   -0.714410079022
              13 O      1.803071230458    3.201027637403   -0.705472987673
              14 O      2.314869143936    1.204973110975    1.180751461180
              15 S      3.409455672235    2.146252913378    0.719304920404
              16 O      4.338187297641    1.576878002864   -0.272182085822
              17 O     -4.088656687606   -2.837214735566    0.220857279793
              18 O     -2.411578557310   -4.223009567288    0.296207000549
------------------------ !GEOMETRY! -------------------------
    Number of atoms:    19 
    Geometry Index:     14 
    Coordinates:
               0 C     -2.389863634419   -0.782413868267   -0.486640707505
               1 C     -1.509544845891    0.279620654923   -0.573349171311
               2 C     -1.953344709616   -1.971377644860    0.087497173519
               3 C     -0.199548973764    0.142971405689   -0.074024262933
               4 C      0.216532835740   -1.062783655577    0.508379475639
               5 C     -0.664865170986   -2.128691339475    0.579883748301
               6 H     -1.817877867687    1.214375288332   -1.028778785813
               7 C      0.695427028865    1.240625547306   -0.163908126859
               8 H     -3.409517897124   -0.699385735392   -0.844567950513
               9 N     -2.894645070556   -3.103410961500    0.176524825470
              10 H      1.223707979642   -1.150221086574    0.898318373401
              11 H     -0.363314497006   -3.079327908050    1.003849223499
              12 N      0.932651609844    2.319770767574   -0.636925699335
              13 O      1.779082205199    3.222941254392   -0.618490224364
              14 O      2.350031076305    1.149340389741    1.105358854990
              15 S      3.426035414845    2.118527690635    0.644494619367
              16 O      4.309104657359    1.600759866237   -0.414515812848
              17 O     -4.087856238192   -2.849342014767    0.072594719659
              18 O     -2.419183902558   -4.216648650368    0.355830727637
------------------------ !GEOMETRY! -------------------------
    Number of atoms:    19 
    Geometry Index:     15 
    Coordinates:
               0 C     -2.386596501613   -0.777848135901   -0.479879818919
               1 C     -1.507115216060    0.285168543796   -0.556972322010
               2 C     -1.952853518253   -1.971241366029    0.088051599646
               3 C     -0.195902684643    0.143863664314   -0.062092734022
               4 C      0.219346063447   -1.066987948267    0.510787211294
               5 C     -0.664884468517   -2.130489150435    0.581394887050
               6 H     -1.818927972547    1.226929183229   -0.995176139959
               7 C      0.700004690175    1.241665825147   -0.148211375095
               8 H     -3.401534232657   -0.696920652141   -0.850936863356
               9 N     -2.895350891327   -3.104713169788    0.169125970832
              10 H      1.230012381172   -1.163565984553    0.888481475962
              11 H     -0.368860028733   -3.079029260203    1.013492124772
              12 N      0.920759916669    2.329129578672   -0.616228708055
              13 O      1.771206620353    3.229564029958   -0.594458953729
              14 O      2.354196253430    1.133950578699    1.076140341591
              15 S      3.429267622639    2.110281444212    0.621207643860
              16 O      4.300550267218    1.607922667186   -0.454603602829
              17 O     -4.070598444011   -2.878220680915   -0.088957635250
              18 O     -2.439709856742   -4.194129166979    0.490367898220
------------------------ !GEOMETRY! -------------------------
    Number of atoms:    19 
    Geometry Index:     16 
    Coordinates:
               0 C     -2.389128952409   -0.772177654229   -0.466098223266
               1 C     -1.511876055644    0.292958408371   -0.539520308988
               2 C     -1.951318633646   -1.969278064614    0.091081604886
               3 C     -0.194962058627    0.147005235713   -0.061838399350
               4 C      0.225893437773   -1.068871793995    0.496774798379
               5 C     -0.659362000082   -2.131097726780    0.573624086690
               6 H     -1.829581781495    1.239735518489   -0.962445428157
               7 C      0.701944660543    1.244060905236   -0.149052228242
               8 H     -3.405834106870   -0.690322497148   -0.831899050252
               9 N     -2.893560308376   -3.104213045346    0.172028449863
              10 H      1.241349166830   -1.169779546958    0.860456417616
              11 H     -0.361328466031   -3.080484942611    1.002167924160
              12 N      0.920668709419    2.331354701560   -0.621895086628
              13 O      1.773592155978    3.229540087808   -0.597821634129
              14 O      2.339293627962    1.130463001631    1.070584335520
              15 S      3.422909319504    2.101630273946    0.621388399150
              16 O      4.294971639923    1.594336746215   -0.451431490327
              17 O     -4.038790654107   -2.913838504789   -0.216259356572
              18 O     -2.461869700644   -4.165691102501    0.601686189649
------------------------ !GEOMETRY! -------------------------
    Number of atoms:    19 
    Geometry Index:     17 
    Coordinates:
               0 C     -2.399404514177   -0.769182053510   -0.450361268158
               1 C     -1.523918737628    0.297122854850   -0.531246487879
               2 C     -1.950919097457   -1.969620323008    0.090254635402
               3 C     -0.197812969687    0.147090035791   -0.081834822125
               4 C      0.233417338315   -1.072847916277    0.460481158857
               5 C     -0.650461082504   -2.135285078701    0.548163119419
               6 H     -1.849790329888    1.247309159356   -0.940120498564
               7 C      0.699759663023    1.242602268125   -0.177091080369
               8 H     -3.423099396665   -0.684612469490   -0.795635319971
               9 N     -2.891809899959   -3.104921066956    0.181240686331
              10 H      1.255564567587   -1.175136174204    0.804643019402
              11 H     -0.344615118429   -3.087612049888    0.964562654577
              12 N      0.941274644454    2.315239586617   -0.668236793375
              13 O      1.787417120494    3.217925390665   -0.647480951477
              14 O      2.315356328074    1.158066739163    1.109309539593
              15 S      3.410733849352    2.114954010414    0.664607255522
              16 O      4.312216238079    1.579137475569   -0.369536329967
              17 O     -4.039642515405   -2.916042096154   -0.200027462592
              18 O     -2.461256087578   -4.158858292359    0.629839945373
------------------------ !GEOMETRY! -------------------------
    Number of atoms:    19 
    Geometry Index:     18 
    Coordinates:
               0 C     -2.405060473211   -0.767112711542   -0.442381291377
               1 C     -1.532868901502    0.302127056235   -0.525547325725
               2 C     -1.947799086958   -1.969095160869    0.087313679819
               3 C     -0.201583594080    0.151182017280   -0.093078363731
               4 C      0.238582178330   -1.070396682097    0.437518003581
               5 C     -0.642096483460   -2.134975224748    0.530662160260
               6 H     -1.864448691113    1.253553753901   -0.926923456657
               7 C      0.696631733546    1.245226735134   -0.190645363919
               8 H     -3.433535261000   -0.681730466803   -0.772591630022
               9 N     -2.885090729084   -3.107474046839    0.182147722186
              10 H      1.264460954751   -1.168727524384    0.772502321609
              11 H     -0.328909114266   -3.089749477065    0.935785664022
              12 N      0.951526675637    2.312561369479   -0.683992349548
              13 O      1.798487961655    3.213733652151   -0.659520485658
              14 O      2.295607267224    1.158108945475    1.120600451476
              15 S      3.400577465495    2.107252986942    0.685585330659
              16 O      4.313199058508    1.561257626728   -0.333559835532
              17 O     -4.024835366237   -2.933537635324   -0.229145047774
              18 O     -2.469835594236   -4.136875213652    0.696800816331
------------------------ !GEOMETRY! -------------------------
    Number of atoms:    19 
    Geometry Index:     19 
    Coordinates:
               0 C     -2.398848835956   -0.769792625119   -0.453678793028
               1 C     -1.524875107834    0.298049187570   -0.533699696778
               2 C     -1.948755399646   -1.969001296989    0.088312335115
               3 C     -0.199680048238    0.150246769190   -0.081277634688
               4 C      0.233071025814   -1.068332631213    0.462399580007
               5 C     -0.648798960219   -2.132590399472    0.548550897302
               6 H     -1.850724513902    1.246697572421   -0.946162140624
               7 C      0.697695949047    1.245863474448   -0.174523487408
               8 H     -3.422955580287   -0.686131926632   -0.797786770776
               9 N     -2.887379341241   -3.106229086504    0.177792607879
              10 H      1.254253074638   -1.166042342564    0.811050191242
              11 H     -0.341029299266   -3.085261485338    0.962785721661
              12 N      0.939537835155    2.321434451000   -0.658386678095
              13 O      1.789272774356    3.221060238265   -0.633260178380
              14 O      2.312530204077    1.144845962337    1.101302658481
              15 S      3.409466827638    2.102275115172    0.660751542412
              16 O      4.305028487815    1.571656806268   -0.381278188315
              17 O     -4.033418265164   -2.921590705254   -0.210803276071
              18 O     -2.461380826788   -4.151827077587    0.649442310061
------------------------ !GEOMETRY! -------------------------
    Number of atoms:    19 
    Geometry Index:     20 
    Coordinates:
               0 C     -2.394392233501   -0.769369541445   -0.457984923905
               1 C     -1.521774886850    0.299970532587   -0.533505447902
               2 C     -1.946462661022   -1.966500082740    0.090500648302
               3 C     -0.199935929326    0.155082006945   -0.070775786928
               4 C      0.231242849266   -1.061610035099    0.478013084957
               5 C     -0.649664760840   -2.126969204820    0.560706026116
               6 H     -1.845937772286    1.247052133605   -0.950869749552
               7 C      0.697308148816    1.251296330642   -0.159499648687
               8 H     -3.416035608303   -0.688096357785   -0.809786557328
               9 N     -2.883918170333   -3.105299851809    0.175517614470
              10 H      1.250024333675   -1.155287540942    0.834510379016
              11 H     -0.343377570473   -3.078212611008    0.979218638776
              12 N      0.928309178115    2.336282817795   -0.630181447572
              13 O      1.787246464426    3.228729960323   -0.597930395728
              14 O      2.313190017666    1.116441665474    1.071668572406
              15 S      3.410825716466    2.078489069065    0.635888458388
              16 O      4.286068604723    1.564264921665   -0.431317264545
              17 O     -4.010581525461   -2.941683134843   -0.274277708720
              18 O     -2.469124194760   -4.139251077610    0.681636508435
------------------------ !GEOMETRY! -------------------------
    Number of atoms:    19 
    Geometry Index:     21 
    Coordinates:
               0 C     -2.396743688541   -0.769642363434   -0.455928925003
               1 C     -1.524376119000    0.299759019710   -0.534152133074
               2 C     -1.946554326282   -1.967005605644    0.089929176375
               3 C     -0.200916798576    0.154730053237   -0.076339024869
               4 C      0.232272820070   -1.062325147887    0.470477023278
               5 C     -0.648121067881   -2.127894211140    0.555413061697
               6 H     -1.850190492699    1.247119656123   -0.949611786425
               7 C      0.696129653699    1.250910175152   -0.167421472219
               8 H     -3.419656478705   -0.688232171933   -0.804042109479
               9 N     -2.883690821582   -3.105749195729    0.177612897055
              10 H      1.252384088237   -1.155799992872    0.823106595220
              11 H     -0.340319861092   -3.079385747535    0.972246075556
              12 N      0.933972754702    2.331989917496   -0.642052540780
              13 O      1.790623085413    3.226103446399   -0.610802798517
              14 O      2.309248182276    1.123964640184    1.083117796737
              15 S      3.408816839137    2.083145329706    0.648116695205
              16 O      4.291766004439    1.562230409375   -0.409522538062
              17 O     -4.018230597575   -2.934647292657   -0.248940983246
              18 O     -2.463403176039   -4.143940918550    0.670325990552
------------------------ !GEOMETRY! -------------------------
    Number of atoms:    19 
    Geometry Index:     22 
    Coordinates:
               0 C     -2.396221939067   -0.770633907135   -0.458631740266
               1 C     -1.524217500532    0.299080713210   -0.537299013861
               2 C     -1.945987938374   -1.967068319493    0.089144030476
               3 C     -0.201649696661    0.155642279540   -0.076574892744
               4 C      0.231450361583   -1.060400929473    0.472683252472
               5 C     -0.648181919411   -2.126632004384    0.556862436175
               6 H     -1.849863226401    1.245562782254   -0.954902921188
               7 C      0.694873912105    1.252238262164   -0.167429652811
               8 H     -3.418651045443   -0.690196912118   -0.808329165520
               9 N     -2.882506151289   -3.106405565534    0.176591977495
              10 H      1.251031285959   -1.152087501177    0.827245884738
              11 H     -0.340334556485   -3.077524966755    0.974999350379
              12 N      0.933888209506    2.334013170777   -0.639303475825
              13 O      1.791400427767    3.227341776396   -0.606804647752
              14 O      2.309472191026    1.120165929491    1.081982940207
              15 S      3.409271785265    2.079630855962    0.648020516795
              16 O      4.290043489606    1.560674360342   -0.412422664481
              17 O     -4.022512397447   -2.930083233377   -0.232917028456
              18 O     -2.458295291707   -4.147986790690    0.658615814166
------------------------ !GEOMETRY! -------------------------
    Number of atoms:    19 
    Geometry Index:     23 
    Coordinates:
               0 C     -2.383393786083   -0.776444230313   -0.482709526083
               1 C     -1.512326181263    0.294308317686   -0.557509222308
               2 C     -1.942498179791   -1.963946949307    0.091644959159
               3 C     -0.203116808469    0.163417549439   -0.056697648708
               4 C      0.220296222847   -1.042563850530    0.520593162818
               5 C     -0.655950797988   -2.112403296000    0.592794622028
               6 H     -1.829477872636    1.232392832567   -0.999881909037
               7 C      0.691206107533    1.262241427557   -0.138191082440
               8 H     -3.397382359419   -0.704047418813   -0.857894920786
               9 N     -2.877014454953   -3.105455812460    0.171435723200
              10 H      1.230374813556   -1.121520485974    0.904055413610
              11 H     -0.354512641006   -3.057070590749    1.029338450839
              12 N      0.912863398713    2.362119998516   -0.578889969186
              13 O      1.786439917228    3.242326357144   -0.535908452883
              14 O      2.322886261439    1.067467125369    1.030614433371
              15 S      3.419021601494    2.037395115136    0.599536205990
              16 O      4.253962083334    1.555395390263   -0.513995144000
              17 O     -4.026519175075   -2.918480738749   -0.205694446716
              18 O     -2.431848149460   -4.169800740781    0.578890351133
------------------------ !GEOMETRY! -------------------------
    Number of atoms:    19 
    Geometry Index:     24 
    Coordinates:
               0 C     -2.394030703035   -0.771873187453   -0.463430184617
               1 C     -1.522367605816    0.298167083403   -0.541892614933
               2 C     -1.945162538042   -1.966341684347    0.089606745505
               3 C     -0.202184553822    0.157597444444   -0.073607529624
               4 C      0.229464994369   -1.056503087339    0.481337665711
               5 C     -0.649337323889   -2.123544560828    0.563520726829
               6 H     -1.846740068490    1.242829462997   -0.964586882112
               7 C      0.693531784520    1.255066192465   -0.162960598068
               8 H     -3.414987162023   -0.693197082454   -0.817794315780
               9 N     -2.881091503161   -3.106300942824    0.176062968593
              10 H      1.247268573710   -1.145167503131    0.841448713582
              11 H     -0.342451971279   -3.073145390352    0.985306589803
              12 N      0.930398704516    2.340321148726   -0.628201069708
              13 O      1.791037140247    3.231107675071   -0.592857986348
              14 O      2.311230996235    1.108511752425    1.072511763871
              15 S      3.410993660531    2.069859861969    0.640395424374
              16 O      4.282977707356    1.558359825792   -0.430889574192
              17 O     -4.023863902845   -2.927450663826   -0.224603841522
              18 O     -2.451676229080   -4.152966344737    0.642164998638
------------------------ !GEOMETRY! -------------------------
    Number of atoms:    19 
    Geometry Index:     25 
    Coordinates:
               0 C     -2.394763871633   -0.771376270150   -0.461719941497
               1 C     -1.523286526864    0.298831286934   -0.540087268620
               2 C     -1.945123877199   -1.966372162390    0.089526926190
               3 C     -0.202251482781    0.157600140204   -0.074454268384
               4 C      0.230267314774   -1.057125615567    0.478406706057
               5 C     -0.648577613330   -2.124053485614    0.561365835108
               6 H     -1.848397830020    1.244056845547   -0.960956886987
               7 C      0.693522807359    1.254919255203   -0.164363648257
               8 H     -3.416218225373   -0.692375941009   -0.814578602703
               9 N     -2.880983743361   -3.106405893104    0.176268796046
              10 H      1.248758937338   -1.146355447045    0.836510633909
              11 H     -0.341140599878   -3.074001673602    0.981943519161
              12 N      0.931436875121    2.339316248700   -0.630832809008
              13 O      1.791548028755    3.230472317534   -0.595724417853
              14 O      2.309773982572    1.110158011411    1.074368865729
              15 S      3.410246820737    2.070678733833    0.642613147430
              16 O      4.283963740946    1.557528955962   -0.426486948581
              17 O     -4.021158151921   -2.930518533015   -0.232974829380
              18 O     -2.454606585242   -4.149646773832    0.652706191640
------------------------ !GEOMETRY! -------------------------
    Number of atoms:    19 
    Geometry Index:     26 
    Coordinates:
               0 C     -2.394858623162   -0.771082989019   -0.461053115234
               1 C     -1.523592092853    0.299340939421   -0.538937229312
               2 C     -1.944947305694   -1.966243603182    0.089586199672
               3 C     -0.202274594993    0.157934711609   -0.074182778731
               4 C      0.230639315023   -1.057121063685    0.477704036896
               5 C     -0.648225122713   -2.123998837053    0.560934549790
               6 H     -1.849094343055    1.244850631154   -0.958869003902
               7 C      0.693372325440    1.255374723809   -0.164095869515
               8 H     -3.416364327749   -0.692099601840   -0.813757196708
               9 N     -2.880662236916   -3.106435576507    0.176140867498
              10 H      1.249389981215   -1.146488841222    0.834975674751
              11 H     -0.340652877404   -3.074020698357    0.981257705545
              12 N      0.931233185347    2.340055991069   -0.629945989117
              13 O      1.791621970197    3.230971136222   -0.594343710077
              14 O      2.309212023064    1.108657572997    1.073033670192
              15 S      3.410110423217    2.069202894876    0.642078570651
              16 O      4.283024831168    1.556855817651   -0.428077515718
              17 O     -4.017382737448   -2.934337322433   -0.244146324838
              18 O     -2.457539792684   -4.146085885509    0.663228458159
------------------------ !GEOMETRY! -------------------------
    Number of atoms:    19 
    Geometry Index:     27 
    Coordinates:
               0 C     -2.394721650912   -0.771037996939   -0.461136390799
               1 C     -1.523637971010    0.299573449772   -0.538642333703
               2 C     -1.944768400209   -1.966079186338    0.089685167218
               3 C     -0.202378331163    0.158362029081   -0.073694182867
               4 C      0.230665297784   -1.056710952961    0.478122056827
               5 C     -0.648140950717   -2.123619558448    0.561374296895
               6 H     -1.849291841331    1.245093847260   -0.958438059441
               7 C      0.693023020429    1.256028692929   -0.163485789467
               8 H     -3.416075939711   -0.692272571751   -0.814317729602
               9 N     -2.880311337039   -3.106452217757    0.176012103153
              10 H      1.249446988693   -1.145860244474    0.835315066389
              11 H     -0.340598234119   -3.073524450006    0.981977764079
              12 N      0.930729946706    2.341284521967   -0.628025954767
              13 O      1.791605562098    3.231788231647   -0.591746581804
              14 O      2.309262442704    1.106223421926    1.071124242617
              15 S      3.410353898225    2.067090656544    0.640917989926
              16 O      4.281639216631    1.556315529167   -0.431329746210
              17 O     -4.014780873556   -2.936850323114   -0.251281497741
              18 O     -2.459010843504   -4.144022878504    0.669100579298
------------------------ !GEOMETRY! -------------------------
    Number of atoms:    19 
    Geometry Index:     28 
    Coordinates:
               0 C     -2.394617278294   -0.771179356038   -0.461546559491
               1 C     -1.523577753719    0.299476616426   -0.539022591047
               2 C     -1.944724489960   -1.966060465651    0.089650202140
               3 C     -0.202477787618    0.158507137003   -0.073554780184
               4 C      0.230504570689   -1.056428170918    0.478639414168
               5 C     -0.648230022335   -2.123398555711    0.561773137567
               6 H     -1.849180649869    1.244865298398   -0.959156960159
               7 C      0.692771325896    1.256301497179   -0.163278780256
               8 H     -3.415855983541   -0.692563517555   -0.815092868404
               9 N     -2.880191676178   -3.106509530918    0.175910343640
              10 H      1.249184011475   -1.145342228657    0.836157370226
              11 H     -0.340738887282   -3.073196580606    0.982656636487
              12 N      0.930559136758    2.341801454335   -0.627092318816
              13 O      1.791548607918    3.232197036504   -0.590594713683
              14 O      2.309702332823    1.105239778345    1.070587410182
              15 S      3.410683360907    2.066309475155    0.640506842080
              16 O      4.281189154336    1.556292790582   -0.432738434033
              17 O     -4.014848255070   -2.936772220412   -0.250825325406
              18 O     -2.458689716935   -4.144210457462    0.668552974990
------------------------ !GEOMETRY! -------------------------
    Number of atoms:    19 
    Geometry Index:     29 
    Coordinates:
               0 C     -2.394617278294   -0.771179356038   -0.461546559491
               1 C     -1.523577753719    0.299476616426   -0.539022591047
               2 C     -1.944724489960   -1.966060465651    0.089650202140
               3 C     -0.202477787618    0.158507137003   -0.073554780184
               4 C      0.230504570689   -1.056428170918    0.478639414168
               5 C     -0.648230022335   -2.123398555711    0.561773137567
               6 H     -1.849180649869    1.244865298398   -0.959156960159
               7 C      0.692771325896    1.256301497179   -0.163278780256
               8 H     -3.415855983541   -0.692563517555   -0.815092868404
               9 N     -2.880191676178   -3.106509530918    0.175910343640
              10 H      1.249184011475   -1.145342228657    0.836157370226
              11 H     -0.340738887282   -3.073196580606    0.982656636487
              12 N      0.930559136758    2.341801454335   -0.627092318816
              13 O      1.791548607918    3.232197036504   -0.590594713683
              14 O      2.309702332823    1.105239778345    1.070587410182
              15 S      3.410683360907    2.066309475155    0.640506842080
              16 O      4.281189154336    1.556292790582   -0.432738434033
              17 O     -4.014848255070   -2.936772220412   -0.250825325406
              18 O     -2.458689716935   -4.144210457462    0.668552974990
