17
Coordinates from ORCA-job orca_irc_IRC_Full E -948.167984776616
  C       0.294317      0.014343     -0.534011
  C       1.419581      0.825683     -0.630839
  C       0.265765     -1.037956      0.378595
  C       2.513949      0.583999      0.201281
  C       2.486427     -0.462786      1.123893
  C       1.359602     -1.274293      1.207261
  H       1.439229      1.663476     -1.321783
  C       3.677078      1.493969      0.171445
  H      -0.570789      0.217091     -1.158765
  H      -0.615557     -1.668759      0.451429
  H       3.333985     -0.626130      1.783109
  H       1.328811     -2.080315      1.934726
  N       3.809238      2.453983      1.004501
  O       5.037606      3.117826      0.756783
  O       4.650573      1.297673     -0.770418
  S       5.724087      2.673486     -0.759368
  O       5.246562      3.611209     -1.782342
17
Coordinates from ORCA-job orca_irc_IRC_Full E -948.167873205351
  C       0.292990      0.014697     -0.532431
  C       1.418973      0.824936     -0.630617
  C       0.265271     -1.038532      0.378855
  C       2.516195      0.580615      0.197713
  C       2.486493     -0.464432      1.123362
  C       1.358616     -1.274287      1.208139
  H       1.437187      1.665211     -1.318268
  C       3.681076      1.490684      0.165415
  H      -0.572599      0.219009     -1.155381
  H      -0.615476     -1.670675      0.450355
  H       3.332378     -0.626044      1.784987
  H       1.326853     -2.078763      1.936905
  N       3.805399      2.452769      0.997808
  O       5.033401      3.119385      0.755425
  O       4.657662      1.295611     -0.770081
  S       5.726725      2.676965     -0.757175
  O       5.249317      3.615348     -1.779515
17
Coordinates from ORCA-job orca_irc_IRC_Full E -948.167737263430
  C       0.291837      0.015237     -0.530603
  C       1.418712      0.824426     -0.629769
  C       0.264444     -1.039186      0.379297
  C       2.518367      0.577238      0.194366
  C       2.486509     -0.465287      1.122972
  C       1.357507     -1.273935      1.209144
  H       1.435079      1.667069     -1.314484
  C       3.683270      1.486964      0.160230
  H      -0.574340      0.220425     -1.152686
  H      -0.615385     -1.672818      0.448991
  H       3.330395     -0.625763      1.787378
  H       1.324875     -2.077844      1.938809
  N       3.801990      2.451643      0.990612
  O       5.029968      3.120562      0.753705
  O       4.665994      1.292846     -0.771111
  S       5.729613      2.680957     -0.754922
  O       5.251627      3.619966     -1.776433
17
Coordinates from ORCA-job orca_irc_IRC_Full E -948.167574329695
  C       0.290468      0.015899     -0.528666
  C       1.418131      0.824005     -0.628581
  C       0.263514     -1.039643      0.379885
  C       2.520087      0.573996      0.191358
  C       2.486154     -0.466042      1.123095
  C       1.356193     -1.273585      1.210510
  H       1.433057      1.669044     -1.310495
  C       3.687061      1.483434      0.153962
  H      -0.575631      0.221289     -1.150523
  H      -0.615285     -1.675083      0.447412
  H       3.328223     -0.625271      1.790169
  H       1.322998     -2.077328      1.940153
  N       3.798617      2.450571      0.983023
  O       5.026953      3.121228      0.751981
  O       4.673884      1.290112     -0.771611
  S       5.732458      2.684881     -0.753126
  O       5.253580      3.624994     -1.773050
17
Coordinates from ORCA-job orca_irc_IRC_Full E -948.167390246616
  C       0.289241      0.016602     -0.526573
  C       1.417418      0.823917     -0.627244
  C       0.262456     -1.039993      0.380582
  C       2.521820      0.571143      0.188831
  C       2.485603     -0.466480      1.123544
  C       1.354890     -1.273001      1.211921
  H       1.431239      1.670859     -1.306557
  C       3.689923      1.480457      0.148722
  H      -0.576680      0.221677     -1.149052
  H      -0.615240     -1.677291      0.445786
  H       3.326028     -0.624679      1.793013
  H       1.321284     -2.077403      1.941116
  N       3.795529      2.449098      0.975035
  O       5.024684      3.121506      0.750241
  O       4.681868      1.287132     -0.772692
  S       5.735296      2.688904     -0.751362
  O       5.255104      3.630051     -1.769817
17
Coordinates from ORCA-job orca_irc_IRC_Full E -948.167167777082
  C       0.287722      0.017424     -0.524340
  C       1.416586      0.824040     -0.625395
  C       0.261347     -1.040281      0.381448
  C       2.523305      0.568544      0.186569
  C       2.484836     -0.466653      1.124486
  C       1.353251     -1.272469      1.213635
  H       1.429524      1.672775     -1.302482
  C       3.693359      1.476453      0.142026
  H      -0.577381      0.221593     -1.148040
  H      -0.615232     -1.679537      0.444031
  H       3.323721     -0.623945      1.796093
  H       1.319637     -2.077956      1.941658
  N       3.792384      2.448423      0.967040
  O       5.022742      3.121225      0.748596
  O       4.689992      1.284119     -0.773518
  S       5.738226      2.693208     -0.749837
  O       5.256442      3.635536     -1.766473
17
Coordinates from ORCA-job orca_irc_IRC_Full E -948.166937523822
  C       0.286536      0.018249     -0.522301
  C       1.415673      0.824360     -0.623524
  C       0.260288     -1.040530      0.382210
  C       2.524288      0.566186      0.184817
  C       2.483922     -0.466598      1.125606
  C       1.351885     -1.271896      1.215208
  H       1.428153      1.674399     -1.298971
  C       3.696351      1.474296      0.137389
  H      -0.577861      0.221260     -1.147512
  H      -0.615280     -1.681449      0.442504
  H       3.321745     -0.623260      1.798790
  H       1.318275     -2.078781      1.941928
  N       3.789454      2.446737      0.958937
  O       5.021393      3.120519      0.747141
  O       4.697420      1.281408     -0.774533
  S       5.740708      2.697229     -0.748581
  O       5.257514      3.640371     -1.763613
17
Coordinates from ORCA-job orca_irc_IRC_Full E -948.166711045046
  C       0.285303      0.018869     -0.520541
  C       1.414635      0.824849     -0.621716
  C       0.259392     -1.040676      0.382882
  C       2.525293      0.564615      0.183614
  C       2.482900     -0.466498      1.126939
  C       1.350502     -1.271581      1.216655
  H       1.427071      1.675822     -1.295949
  C       3.699385      1.471344      0.132223
  H      -0.578054      0.220773     -1.147219
  H      -0.615309     -1.683036      0.441186
  H       3.320100     -0.622607      1.801164
  H       1.317169     -2.079650      1.941953
  N       3.786157      2.445416      0.952161
  O       5.020776      3.119863      0.746014
  O       4.703730      1.279792     -0.774700
  S       5.743112      2.700421     -0.747994
  O       5.258300      3.644784     -1.761175
17
Coordinates from ORCA-job orca_irc_IRC_Full E -948.166553475765
  C       0.284463      0.019170     -0.519659
  C       1.413768      0.825126     -0.620754
  C       0.258968     -1.040674      0.383229
  C       2.525992      0.564043      0.183077
  C       2.482145     -0.466618      1.127879
  C       1.349684     -1.271576      1.217541
  H       1.426545      1.676609     -1.294322
  C       3.701841      1.470204      0.129364
  H      -0.577997      0.220443     -1.147051
  H      -0.615318     -1.683869      0.440477
  H       3.319266     -0.622220      1.802457
  H       1.316611     -2.080085      1.941840
  N       3.783714      2.443737      0.947902
  O       5.020808      3.119688      0.745547
  O       4.706756      1.279382     -0.774137
  S       5.744523      2.701927     -0.748103
  O       5.258692      3.647214     -1.759790
17
Coordinates from ORCA-job orca_irc_IRC_Full E -948.165118004579
  C       0.280961      0.021569     -0.515041
  C       1.410233      0.829391     -0.612464
  C       0.256610     -1.041767      0.384388
  C       2.523454      0.561955      0.186357
  C       2.477598     -0.464112      1.134527
  C       1.345422     -1.271072      1.222094
  H       1.423460      1.681490     -1.285807
  C       3.711515      1.452932      0.112936
  H      -0.579370      0.217466     -1.149340
  H      -0.615548     -1.687772      0.437284
  H       3.314826     -0.619093      1.809444
  H       1.314218     -2.085611      1.941557
  N       3.772461      2.441462      0.923418
  O       5.027504      3.111335      0.739520
  O       4.719182      1.252666     -0.780973
  S       5.755464      2.738520     -0.732122
  O       5.262471      3.663141     -1.760282
17
Coordinates from ORCA-job orca_irc_IRC_Full E -948.162475469848
  C       0.277787      0.022678     -0.513285
  C       1.404781      0.834121     -0.606529
  C       0.256307     -1.042424      0.384252
  C       2.517816      0.560861      0.191183
  C       2.473159     -0.462764      1.142063
  C       1.342678     -1.272033      1.225290
  H       1.421644      1.685577     -1.280795
  C       3.726161      1.437311      0.095112
  H      -0.579806      0.215265     -1.151769
  H      -0.615052     -1.689117      0.435777
  H       3.312739     -0.616393      1.814208
  H       1.313584     -2.089504      1.940878
  N       3.756557      2.433080      0.907896
  O       5.042117      3.110476      0.734490
  O       4.711676      1.220658     -0.782851
  S       5.774196      2.781669     -0.716170
  O       5.264122      3.673037     -1.764252
17
Coordinates from ORCA-job orca_irc_IRC_Full E -948.158707428101
  C       0.276460      0.023316     -0.512794
  C       1.400305      0.838557     -0.601437
  C       0.256560     -1.042967      0.383867
  C       2.510723      0.559840      0.196214
  C       2.469594     -0.460719      1.148286
  C       1.341606     -1.272759      1.226841
  H       1.420418      1.688928     -1.277963
  C       3.731663      1.425187      0.084693
  H      -0.579954      0.213797     -1.153861
  H      -0.614334     -1.689304      0.435093
  H       3.311944     -0.614494      1.817777
  H       1.313621     -2.092244      1.940302
  N       3.729088      2.414902      0.899930
  O       5.070371      3.120685      0.726892
  O       4.707085      1.193211     -0.788785
  S       5.789989      2.818111     -0.701868
  O       5.265326      3.678452     -1.767690
17
Coordinates from ORCA-job orca_irc_IRC_Full E -948.153360063497
  C       0.275704      0.023333     -0.513346
  C       1.396235      0.843118     -0.597589
  C       0.257340     -1.042958      0.383458
  C       2.503494      0.561873      0.203122
  C       2.467040     -0.458936      1.154244
  C       1.341364     -1.273979      1.227531
  H       1.419494      1.691544     -1.275955
  C       3.740832      1.410355      0.068604
  H      -0.579631      0.212767     -1.155396
  H      -0.613720     -1.689111      0.434803
  H       3.311442     -0.612976      1.820478
  H       1.313967     -2.093989      1.939644
  N       3.688321      2.390262      0.899394
  O       5.107133      3.140161      0.721345
  O       4.700213      1.173783     -0.790494
  S       5.805475      2.844745     -0.693540
  O       5.265759      3.682507     -1.770809
17
Coordinates from ORCA-job orca_irc_IRC_Full E -948.147556192906
  C       0.275748      0.023544     -0.514263
  C       1.392736      0.847474     -0.593865
  C       0.258103     -1.042926      0.383170
  C       2.496472      0.565166      0.210712
  C       2.464824     -0.456849      1.159592
  C       1.341854     -1.274993      1.227830
  H       1.418629      1.693868     -1.274340
  C       3.746610      1.398205      0.056847
  H      -0.579454      0.211920     -1.156845
  H      -0.613274     -1.688954      0.434602
  H       3.311076     -0.611708      1.822896
  H       1.314310     -2.095551      1.939140
  N       3.645810      2.362689      0.899210
  O       5.145114      3.160197      0.714052
  O       4.697063      1.155747     -0.795150
  S       5.818245      2.869285     -0.684794
  O       5.266596      3.685386     -1.773298
17
Coordinates from ORCA-job orca_irc_IRC_Full E -948.142590578968
  C       0.275414      0.023423     -0.515111
  C       1.389435      0.851209     -0.591072
  C       0.258804     -1.042896      0.382683
  C       2.489666      0.570654      0.219611
  C       2.462991     -0.455580      1.164366
  C       1.342057     -1.276136      1.228069
  H       1.417964      1.695961     -1.273092
  C       3.757687      1.390199      0.044636
  H      -0.579167      0.211305     -1.158009
  H      -0.612479     -1.688611      0.434365
  H       3.310958     -0.610591      1.825001
  H       1.314700     -2.096764      1.938789
  N       3.602948      2.332000      0.898135
  O       5.179061      3.180460      0.711100
  O       4.691280      1.140310     -0.797171
  S       5.832523      2.888901     -0.679989
  O       5.266622      3.688656     -1.776815
17
Coordinates from ORCA-job orca_irc_IRC_Full E -948.138844576403
  C       0.276154      0.023821     -0.516491
  C       1.384849      0.856733     -0.586156
  C       0.260206     -1.043573      0.381577
  C       2.483510      0.575101      0.227459
  C       2.460034     -0.452506      1.171027
  C       1.343487     -1.277128      1.227798
  H       1.417738      1.697044     -1.272624
  C       3.762381      1.382601      0.037159
  H      -0.578885      0.210912     -1.158944
  H      -0.612035     -1.688458      0.434187
  H       3.311108     -0.610135      1.826091
  H       1.314984     -2.097355      1.938491
  N       3.558195      2.297679      0.896576
  O       5.216518      3.200366      0.702440
  O       4.687291      1.123335     -0.802144
  S       5.847750      2.914551     -0.672177
  O       5.267178      3.689511     -1.778773
17
Coordinates from ORCA-job orca_irc_IRC_Full E -948.136895286097
  C       0.277762      0.023313     -0.519590
  C       1.378474      0.865309     -0.578670
  C       0.262892     -1.044476      0.379306
  C       2.470737      0.592748      0.249492
  C       2.455720     -0.447771      1.181342
  C       1.346023     -1.279916      1.226543
  H       1.409947      1.711201     -1.258182
  C       3.777087      1.374864      0.023721
  H      -0.575908      0.206413     -1.164655
  H      -0.609058     -1.690001      0.430884
  H       3.304188     -0.598822      1.841001
  H       1.318603     -2.104184      1.932353
  N       3.489994      2.240881      0.892179
  O       5.257937      3.224372      0.694637
  O       4.682929      1.102216     -0.808703
  S       5.859978      2.929466     -0.669704
  O       5.267096      3.691389     -1.781254
17
Coordinates from ORCA-job orca_irc_IRC_Full E -948.138782630597
  C       0.279371      0.022805     -0.522688
  C       1.372100      0.873886     -0.571183
  C       0.265577     -1.045379      0.377035
  C       2.457965      0.610394      0.271524
  C       2.451405     -0.443037      1.191656
  C       1.348560     -1.282705      1.225288
  H       1.402155      1.725357     -1.243740
  C       3.791793      1.367127      0.010283
  H      -0.572931      0.201914     -1.170365
  H      -0.606081     -1.691544      0.427582
  H       3.297268     -0.587508      1.855912
  H       1.322223     -2.111013      1.926216
  N       3.421793      2.184082      0.887781
  O       5.299355      3.248378      0.686833
  O       4.678567      1.081098     -0.815262
  S       5.872207      2.944382     -0.667231
  O       5.267014      3.693266     -1.783735
17
Coordinates from ORCA-job orca_irc_IRC_Full E -948.142075348602
  C       0.280175      0.022124     -0.524148
  C       1.369582      0.877142     -0.567394
  C       0.266787     -1.045864      0.376044
  C       2.447413      0.625130      0.289801
  C       2.449146     -0.440681      1.195401
  C       1.349724     -1.284181      1.224091
  H       1.401656      1.726106     -1.242684
  C       3.807379      1.366739      0.001039
  H      -0.572812      0.201600     -1.171096
  H      -0.605633     -1.691489      0.427275
  H       3.296758     -0.586869      1.856938
  H       1.322300     -2.111451      1.925959
  N       3.380857      2.143459      0.881256
  O       5.321342      3.263770      0.686309
  O       4.674325      1.066979     -0.818255
  S       5.892919      2.963788     -0.669038
  O       5.266424      3.695199     -1.785592
17
Coordinates from ORCA-job orca_irc_IRC_Full E -948.146402097647
  C       0.281277      0.021124     -0.525754
  C       1.366979      0.880528     -0.563903
  C       0.266734     -1.045887      0.375787
  C       2.437582      0.641356      0.308083
  C       2.447164     -0.438673      1.199629
  C       1.350922     -1.285511      1.222692
  H       1.400661      1.728049     -1.240966
  C       3.819818      1.364306     -0.007295
  H      -0.571989      0.200692     -1.172215
  H      -0.605144     -1.691348      0.427043
  H       3.295964     -0.585549      1.859103
  H       1.322870     -2.112595      1.925014
  N       3.341043      2.106555      0.877008
  O       5.345388      3.276749      0.678962
  O       4.677574      1.052217     -0.826680
  S       5.903215      2.982640     -0.664233
  O       5.268284      3.696851     -1.786370
17
Coordinates from ORCA-job orca_irc_IRC_Full E -948.151686239386
  C       0.282270      0.020117     -0.527225
  C       1.364807      0.883625     -0.559687
  C       0.267448     -1.045804      0.375601
  C       2.424807      0.657196      0.328561
  C       2.444552     -0.435703      1.202987
  C       1.351787     -1.286983      1.221391
  H       1.399289      1.730293     -1.238687
  C       3.837597      1.366120     -0.015732
  H      -0.571043      0.199449     -1.173813
  H      -0.605054     -1.691412      0.426843
  H       3.294805     -0.583910      1.861761
  H       1.323633     -2.114016      1.923550
  N       3.306445      2.062600      0.863926
  O       5.362937      3.291835      0.682056
  O       4.674320      1.040275     -0.828262
  S       5.921749      2.997066     -0.668128
  O       5.267993      3.700756     -1.789236
17
Coordinates from ORCA-job orca_irc_IRC_Full E -948.157353679000
  C       0.283217      0.018506     -0.528500
  C       1.362021      0.886581     -0.555517
  C       0.266999     -1.046331      0.375260
  C       2.408386      0.673432      0.350965
  C       2.441668     -0.433524      1.207158
  C       1.352438     -1.288498      1.219666
  H       1.397771      1.732547     -1.235566
  C       3.853933      1.367437     -0.023251
  H      -0.569807      0.197870     -1.175667
  H      -0.604704     -1.691345      0.426587
  H       3.292863     -0.581721      1.864385
  H       1.324580     -2.115814      1.921770
  N       3.271776      2.024290      0.855520
  O       5.383543      3.303402      0.675475
  O       4.679844      1.025173     -0.837853
  S       5.933437      3.017281     -0.665608
  O       5.270378      3.702218     -1.788918
17
Coordinates from ORCA-job orca_irc_IRC_Full E -948.163265338201
  C       0.283360      0.016252     -0.529937
  C       1.358234      0.889150     -0.550150
  C       0.266788     -1.047025      0.374945
  C       2.388730      0.688787      0.375221
  C       2.437035     -0.430675      1.211264
  C       1.352150     -1.290925      1.217913
  H       1.395939      1.735029     -1.231651
  C       3.875320      1.371643     -0.031619
  H      -0.568431      0.195722     -1.178057
  H      -0.605018     -1.691885      0.426239
  H       3.290486     -0.579106      1.867498
  H       1.325641     -2.118212      1.919429
  N       3.245838      1.982154      0.838586
  O       5.399362      3.316765      0.677806
  O       4.679048      1.012569     -0.840570
  S       5.953318      3.035027     -0.669209
  O       5.270541      3.706231     -1.791802
17
Coordinates from ORCA-job orca_irc_IRC_Full E -948.168968893481
  C       0.282983      0.013214     -0.530890
  C       1.353313      0.891800     -0.544109
  C       0.265107     -1.048948      0.374375
  C       2.363336      0.701329      0.400404
  C       2.431411     -0.428112      1.216606
  C       1.351046     -1.293538      1.215918
  H       1.393782      1.737256     -1.226504
  C       3.897873      1.377156     -0.039221
  H      -0.567207      0.192924     -1.181151
  H      -0.605564     -1.692858      0.425684
  H       3.286855     -0.575874      1.870484
  H       1.326725     -2.121580      1.916715
  N       3.223124      1.947047      0.825166
  O       5.418040      3.327652      0.672779
  O       4.685622      0.996770     -0.849945
  S       5.968621      3.059046     -0.668528
  O       5.273273      3.708219     -1.791879
17
Coordinates from ORCA-job orca_irc_IRC_Full E -948.174417434460
  C       0.280602      0.009382     -0.531836
  C       1.345634      0.893935     -0.536718
  C       0.263141     -1.051615      0.373624
  C       2.336340      0.711442      0.425102
  C       2.422833     -0.425602      1.223048
  C       1.348160     -1.297479      1.214524
  H       1.391209      1.739433     -1.220111
  C       3.924190      1.384448     -0.047465
  H      -0.566130      0.189124     -1.185007
  H      -0.607256     -1.695150      0.424798
  H       3.282283     -0.572048      1.873781
  H       1.327685     -2.126103      1.913316
  N       3.212883      1.913882      0.805429
  O       5.433153      3.339840      0.674632
  O       4.688246      0.983295     -0.854041
  S       5.991336      3.082193     -0.672116
  O       5.274032      3.712526     -1.795053
17
Coordinates from ORCA-job orca_irc_IRC_Full E -948.179428481217
  C       0.276925      0.005002     -0.531856
  C       1.336363      0.896531     -0.527930
  C       0.259202     -1.056106      0.372540
  C       2.308605      0.719405      0.448226
  C       2.412700     -0.422737      1.231217
  C       1.343776     -1.301511      1.213560
  H       1.387952      1.741076     -1.212342
  C       3.950711      1.391532     -0.055407
  H      -0.566050      0.184270     -1.189963
  H      -0.609633     -1.698676      0.423378
  H       3.276042     -0.567774      1.876992
  H       1.328216     -2.132428      1.909725
  N       3.206068      1.888772      0.789906
  O       5.451412      3.350091      0.669631
  O       4.698937      0.967831     -0.864276
  S       6.009544      3.111299     -0.672215
  O       5.277572      3.714926     -1.795278
17
Coordinates from ORCA-job orca_irc_IRC_Full E -948.183961761637
  C       0.270966      0.000740     -0.531471
  C       1.324507      0.899028     -0.517357
  C       0.254907     -1.061323      0.371333
  C       2.286345      0.727398      0.468348
  C       2.399683     -0.419342      1.240693
  C       1.337622     -1.306217      1.214058
  H       1.383662      1.742460     -1.203433
  C       3.976702      1.395270     -0.065117
  H      -0.566620      0.178056     -1.195615
  H      -0.613626     -1.704505      0.421184
  H       3.268423     -0.563307      1.880747
  H       1.328121     -2.140223      1.905464
  N       3.209776      1.865849      0.769615
  O       5.466551      3.361857      0.671439
  O       4.707746      0.957330     -0.868805
  S       6.034853      3.138475     -0.675957
  O       5.278723      3.719957     -1.799221
17
Coordinates from ORCA-job orca_irc_IRC_Full E -948.187962558512
  C       0.264627     -0.003096     -0.529458
  C       1.312689      0.902492     -0.505554
  C       0.248661     -1.067858      0.370092
  C       2.267197      0.733775      0.485016
  C       2.386442     -0.414799      1.251124
  C       1.330602     -1.309598      1.215196
  H       1.378078      1.743396     -1.193722
  C       3.998553      1.395915     -0.074164
  H      -0.568224      0.170914     -1.201861
  H      -0.617818     -1.711720      0.418066
  H       3.259181     -0.559010      1.884921
  H       1.327329     -2.149329      1.901089
  N       3.212423      1.849743      0.755376
  O       5.485372      3.371807      0.665695
  O       4.726575      0.945619     -0.880329
  S       6.052857      3.170791     -0.676844
  O       5.283799      3.722462     -1.798737
17
Coordinates from ORCA-job orca_irc_IRC_Full E -948.191669166904
  C       0.256763     -0.006009     -0.526853
  C       1.299897      0.905703     -0.493524
  C       0.242824     -1.073780      0.369311
  C       2.254479      0.740071      0.497945
  C       2.372378     -0.410350      1.261768
  C       1.322441     -1.312814      1.217875
  H       1.371050      1.744522     -1.183700
  C       4.017199      1.391430     -0.085039
  H      -0.569695      0.162989     -1.207559
  H      -0.622564     -1.720854      0.413836
  H       3.248998     -0.555065      1.890247
  H       1.325902     -2.158279      1.895964
  N       3.222402      1.833797      0.736844
  O       5.500891      3.383113      0.666750
  O       4.742554      0.939880     -0.885008
  S       6.077267      3.198985     -0.679865
  O       5.285555      3.728165     -1.803086
17
Coordinates from ORCA-job orca_irc_IRC_Full E -948.195303251835
  C       0.248822     -0.008306     -0.522488
  C       1.286504      0.909234     -0.480417
  C       0.235319     -1.080309      0.368839
  C       2.241587      0.744548      0.509572
  C       2.357250     -0.405442      1.273033
  C       1.313712     -1.314326      1.221138
  H       1.361955      1.745982     -1.172624
  C       4.035313      1.384727     -0.096676
  H      -0.571859      0.154115     -1.213512
  H      -0.627085     -1.731726      0.408142
  H       3.237032     -0.551195      1.897192
  H       1.323711     -2.168186      1.890521
  N       3.232557      1.819038      0.719184
  O       5.519960      3.394512      0.663533
  O       4.764734      0.933528     -0.892885
  S       6.097643      3.233072     -0.683360
  O       5.291187      3.732238     -1.803285
17
Coordinates from ORCA-job orca_irc_IRC_Full E -948.198594136041
  C       0.239454     -0.010106     -0.517878
  C       1.273358      0.912727     -0.468348
  C       0.228112     -1.085947      0.369096
  C       2.233418      0.749353      0.518575
  C       2.343258     -0.400993      1.284118
  C       1.303770     -1.316279      1.225547
  H       1.351402      1.747865     -1.161579
  C       4.052326      1.375192     -0.109604
  H      -0.573714      0.145326     -1.218117
  H      -0.630736     -1.743484      0.401258
  H       3.224313     -0.547806      1.905395
  H       1.320907     -2.176783      1.884843
  N       3.241575      1.803972      0.702097
  O       5.537139      3.406414      0.663883
  O       4.788054      0.929366     -0.899511
  S       6.121816      3.263641     -0.686117
  O       5.293890      3.739044     -1.807752
17
Coordinates from ORCA-job orca_irc_IRC_Full E -948.201472176848
  C       0.231476     -0.011498     -0.511866
  C       1.262059      0.916162     -0.456445
  C       0.220668     -1.091051      0.369593
  C       2.223511      0.750002      0.525163
  C       2.330234     -0.396391      1.294109
  C       1.294512     -1.315982      1.229398
  H       1.339717      1.750033     -1.150813
  C       4.068155      1.365811     -0.121529
  H      -0.576538      0.137189     -1.222195
  H      -0.633569     -1.755639      0.393583
  H       3.211171     -0.544970      1.914553
  H       1.317467     -2.185177      1.880313
  N       3.250857      1.789942      0.685617
  O       5.557902      3.416884      0.656314
  O       4.813277      0.925707     -0.906856
  S       6.135979      3.297229     -0.686622
  O       5.301462      3.743254     -1.806409
17
Coordinates from ORCA-job orca_irc_IRC_Full E -948.202584941751
  C       0.227454     -0.011734     -0.510211
  C       1.256760      0.917037     -0.452807
  C       0.218040     -1.092849      0.369967
  C       2.222427      0.751711      0.527432
  C       2.325172     -0.395549      1.298047
  C       1.290573     -1.316912      1.231659
  H       1.334880      1.751098     -1.146641
  C       4.075736      1.360678     -0.128047
  H      -0.577308      0.134248     -1.222916
  H      -0.634266     -1.760446      0.390294
  H       3.206010     -0.543925      1.918506
  H       1.315895     -2.187468      1.878447
  N       3.253547      1.783609      0.679146
  O       5.562839      3.421790      0.659632
  O       4.821787      0.925800     -0.907613
  S       6.147798      3.307436     -0.689099
  O       5.300998      3.746979     -1.809890
17
Coordinates from ORCA-job orca_irc_IRC_Full E -948.202946455621
  C       0.226541     -0.011805     -0.509600
  C       1.255472      0.917282     -0.451705
  C       0.217226     -1.093378      0.370035
  C       2.221811      0.751825      0.527935
  C       2.323789     -0.395231      1.299044
  C       1.289586     -1.316932      1.232179
  H       1.333503      1.751394     -1.145503
  C       4.075956      1.360286     -0.127946
  H      -0.577661      0.133475     -1.223168
  H      -0.634430     -1.761772      0.389370
  H       3.204565     -0.543661      1.919623
  H       1.315424     -2.188191      1.878054
  N       3.255062      1.781664      0.676749
  O       5.564750      3.423000      0.659432
  O       4.825385      0.925137     -0.909081
  S       6.149696      3.310808     -0.689597
  O       5.301664      3.747602     -1.809915
17
Coordinates from ORCA-job orca_irc_IRC_Full E -948.203626365035
  C       0.224372     -0.012002     -0.508191
  C       1.252555      0.917897     -0.449170
  C       0.215413     -1.094568      0.370210
  C       2.220298      0.752014      0.529083
  C       2.320668     -0.394466      1.301360
  C       1.287233     -1.317006      1.233367
  H       1.330290      1.752078     -1.142862
  C       4.078850      1.358147     -0.130059
  H      -0.578479      0.131707     -1.223711
  H      -0.634816     -1.764869      0.387214
  H       3.201196     -0.543058      1.922222
  H       1.314318     -2.189833      1.877166
  N       3.257604      1.777571      0.672084
  O       5.569196      3.425809      0.658910
  O       4.832389      0.924426     -0.911047
  S       6.154238      3.318486     -0.690451
  O       5.303016      3.749171     -1.810218
17
Coordinates from ORCA-job orca_irc_IRC_Full E -948.204332119234
  C       0.221979     -0.012233     -0.506685
  C       1.249451      0.918568     -0.446478
  C       0.213529     -1.095816      0.370410
  C       2.218665      0.752149      0.530257
  C       2.317367     -0.393659      1.303846
  C       1.284644     -1.317113      1.234643
  H       1.326784      1.752822     -1.140015
  C       4.083109      1.355233     -0.133462
  H      -0.579382      0.129847     -1.224222
  H      -0.635223     -1.768237      0.384859
  H       3.197537     -0.542421      1.925053
  H       1.313089     -2.191543      1.876259
  N       3.259885      1.773324      0.667455
  O       5.573993      3.428846      0.658318
  O       4.839338      0.924099     -0.912442
  S       6.159282      3.326646     -0.691112
  O       5.304295      3.750990     -1.810779
17
Coordinates from ORCA-job orca_irc_IRC_Full E -948.205019854368
  C       0.219618     -0.012442     -0.505181
  C       1.246363      0.919185     -0.443861
  C       0.211629     -1.097071      0.370594
  C       2.217127      0.752211      0.531333
  C       2.314090     -0.392912      1.306267
  C       1.282095     -1.317209      1.235930
  H       1.323244      1.753584     -1.137194
  C       4.086938      1.352534     -0.136423
  H      -0.580347      0.128065     -1.224647
  H      -0.635568     -1.771588      0.382481
  H       3.193882     -0.541808      1.927922
  H       1.311803     -2.193174      1.875445
  N       3.262210      1.768996      0.662741
  O       5.578731      3.431878      0.657826
  O       4.846652      0.923655     -0.914124
  S       6.164147      3.334833     -0.692049
  O       5.305728      3.752766     -1.811155
