# t,fs[$1]    pos,AA[$2] , sigma =  0.0500 Angstroems;  E = 278.591 wvn  UpdTime = 10.000 fs 
           0.000    -0.1596394318
          10.000    -0.1784521458
          20.000    -0.1704516459
          30.000    -0.1549840350
          40.000    -0.1670365206
          50.000    -0.1888518594
          60.000    -0.1692433846
          70.000    -0.1648644017
          80.000    -0.1346219971
          90.000    -0.0880564170
         100.000    -0.0894363086
         110.000    -0.1070331893
         120.000    -0.0726336418
         130.000    -0.1084561642
         140.000    -0.0734599294
         150.000    -0.1183938231
         160.000    -0.0838936148
         170.000    -0.1370193732
         180.000    -0.1051178276
         190.000    -0.0239026294
         200.000    -0.0508083821
         210.000    -0.0043507208
         220.000    -0.0466458836
         230.000    -0.1083016374
         240.000    -0.0622729393
         250.000    -0.0401805514
         260.000    -0.0435383657
         270.000    -0.0594262234
         280.000    -0.1444636239
         290.000    -0.1578870313
         300.000    -0.2208928191
         310.000    -0.2231387613
         320.000    -0.2746111998
         330.000    -0.2315131830
         340.000    -0.2506094460
         350.000    -0.2157514571
         360.000    -0.2351338734
         370.000    -0.2489306532
         380.000    -0.2807435100
         390.000    -0.2605232070
         400.000    -0.2883218227
         410.000    -0.2995818025
         420.000    -0.2153209216
         430.000    -0.2107687841
         440.000    -0.1310930941
         450.000    -0.2019441651
         460.000    -0.1974139809
         470.000    -0.1887668971
         480.000    -0.1428819020
         490.000    -0.1206857769
         500.000    -0.1178763876
         510.000    -0.0366825544
         520.000     0.0296702558
         530.000     0.0018764352
         540.000     0.0298293777
         550.000    -0.0353075778
         560.000    -0.0276557190
         570.000    -0.0187162445
         580.000    -0.0836420273
         590.000    -0.0958271738
         600.000    -0.0291152009
         610.000     0.0677661520
         620.000     0.0245458261
         630.000    -0.0014011803
         640.000    -0.0259670510
         650.000    -0.0387369129
         660.000     0.0452724394
         670.000    -0.0039081551
         680.000    -0.0213119755
         690.000    -0.0116403782
         700.000    -0.0201343777
         710.000     0.0312165694
         720.000     0.0899706734
         730.000     0.0147109883
         740.000     0.0646461994
         750.000     0.0360476376
         760.000     0.1002111305
         770.000     0.0579435411
         780.000     0.0560114598
         790.000     0.0679390079
         800.000     0.0682696075
         810.000     0.0699244798
         820.000     0.0849028650
         830.000     0.1395462585
         840.000     0.1290016877
         850.000     0.1668668996
         860.000     0.1400709873
         870.000     0.1553476352
         880.000     0.1310817537
         890.000     0.0577368235
         900.000     0.0597905633
         910.000     0.0482827765
         920.000    -0.0244697461
         930.000    -0.1141320490
         940.000    -0.1304039531
         950.000    -0.1477275914
         960.000    -0.1154956386
         970.000    -0.2183997096
         980.000    -0.2563088327
         990.000    -0.2349208083
        1000.000    -0.2949348394
        1010.000    -0.2911364046
        1020.000    -0.3009560767
        1030.000    -0.2545093885
        1040.000    -0.2002544803
        1050.000    -0.3000745981
        1060.000    -0.2407950221
        1070.000    -0.2404499214
        1080.000    -0.1964576511
        1090.000    -0.3056790754
        1100.000    -0.3022086288
        1110.000    -0.2236053606
        1120.000    -0.2404085257
        1130.000    -0.1784515404
        1140.000    -0.1808312605
        1150.000    -0.1065989062
        1160.000    -0.0986360446
        1170.000    -0.0803883739
        1180.000    -0.1545982270
        1190.000    -0.1450685337
        1200.000    -0.1506129937
        1210.000    -0.1090180844
        1220.000    -0.1050126460
        1230.000    -0.0190685612
        1240.000     0.0737213207
        1250.000     0.0380017867
        1260.000     0.0596428894
        1270.000     0.0415715401
        1280.000     0.0511887058
        1290.000     0.0483354590
        1300.000    -0.0100055371
        1310.000    -0.1159923013
        1320.000    -0.0639505546
        1330.000    -0.1632266193
        1340.000    -0.1798634829
        1350.000    -0.2424192978
        1360.000    -0.2011835713
        1370.000    -0.2101349873
        1380.000    -0.2855237494
        1390.000    -0.3374263772
        1400.000    -0.3049532455
        1410.000    -0.3704300630
        1420.000    -0.3291120078
        1430.000    -0.2988174893
        1440.000    -0.3409202332
        1450.000    -0.2776392159
        1460.000    -0.2172678280
        1470.000    -0.2631315413
        1480.000    -0.3567215820
        1490.000    -0.3215815399
        1500.000    -0.3545786906
        1510.000    -0.3454504631
        1520.000    -0.2608676164
        1530.000    -0.1587955575
        1540.000    -0.0956102761
        1550.000    -0.0125990026
        1560.000    -0.0752238090
        1570.000    -0.0863750353
        1580.000    -0.1271208325
        1590.000    -0.1846898015
        1600.000    -0.2296780348
        1610.000    -0.1012160230
        1620.000    -0.0146946746
        1630.000    -0.0311207062
        1640.000    -0.0257397509
        1650.000    -0.0244294288
        1660.000    -0.0231952278
        1670.000    -0.0100821939
        1680.000    -0.0800342144
        1690.000    -0.2184756188
        1700.000    -0.1951627400
        1710.000    -0.1503703107
        1720.000    -0.2197074473
        1730.000    -0.2091522222
        1740.000    -0.1416864392
        1750.000    -0.0880784750
        1760.000    -0.1261287009
        1770.000    -0.2273509741
        1780.000    -0.3381673105
        1790.000    -0.3041196400
        1800.000    -0.3138756224
        1810.000    -0.4014700239
        1820.000    -0.2768332066
        1830.000    -0.2527086994
        1840.000    -0.2306700014
        1850.000    -0.1717181334
        1860.000    -0.1263192284
        1870.000    -0.1148047176
        1880.000    -0.2471216344
        1890.000    -0.3173471292
        1900.000    -0.2658747084
        1910.000    -0.1595340909
        1920.000    -0.1643161908
        1930.000    -0.1462909620
        1940.000     0.0026548336
        1950.000    -0.0342180132
        1960.000    -0.0269852391
        1970.000    -0.1023943337
        1980.000    -0.1138670145
        1990.000    -0.2713286457
        2000.000    -0.3595909041
        2010.000    -0.2846941568
        2020.000    -0.3402191283
        2030.000    -0.3670665665
        2040.000    -0.3064874690
        2050.000    -0.2651301918
        2060.000    -0.2903994114
        2070.000    -0.2798534685
        2080.000    -0.3549136723
        2090.000    -0.4043145871
        2100.000    -0.3413101344
        2110.000    -0.4452493206
        2120.000    -0.3370438427
        2130.000    -0.4126995156
        2140.000    -0.3761342796
        2150.000    -0.4294379742
        2160.000    -0.3562638232
        2170.000    -0.4982414870
        2180.000    -0.4815256098
        2190.000    -0.5062236656
        2200.000    -0.4520290706
        2210.000    -0.4500441669
        2220.000    -0.3833067294
        2230.000    -0.4459765571
        2240.000    -0.4393053601
        2250.000    -0.4881638513
        2260.000    -0.4336954936
        2270.000    -0.4248564709
        2280.000    -0.4357057326
        2290.000    -0.4243434320
        2300.000    -0.4235005684
        2310.000    -0.4109732271
        2320.000    -0.4406287404
        2330.000    -0.4521479150
        2340.000    -0.4563185045
        2350.000    -0.4641324524
        2360.000    -0.5805112996
        2370.000    -0.5972537353
        2380.000    -0.6173223899
        2390.000    -0.5752815638
        2400.000    -0.5646638960
        2410.000    -0.5168271333
        2420.000    -0.4730360642
        2430.000    -0.4716723105
        2440.000    -0.5574661361
        2450.000    -0.5432313293
        2460.000    -0.5399155482
        2470.000    -0.5348033445
        2480.000    -0.5279980149
        2490.000    -0.5092804232
        2500.000    -0.5000035156
        2510.000    -0.5592767612
        2520.000    -0.6395411105
        2530.000    -0.6787910034
        2540.000    -0.6525119606
        2550.000    -0.6634533546
        2560.000    -0.6255063136
        2570.000    -0.6794849001
        2580.000    -0.7029130632
        2590.000    -0.7915887733
        2600.000    -0.7642949297
        2610.000    -0.7090065792
        2620.000    -0.6569632238
        2630.000    -0.6218523563
        2640.000    -0.5663588968
        2650.000    -0.5283972475
        2660.000    -0.5326864368
        2670.000    -0.4883013067
        2680.000    -0.4316792441
        2690.000    -0.3067891227
        2700.000    -0.3803191543
        2710.000    -0.3958039131
        2720.000    -0.4451726907
        2730.000    -0.3884527920
        2740.000    -0.3764070912
        2750.000    -0.3636721364
        2760.000    -0.3734595246
        2770.000    -0.3810440953
        2780.000    -0.3751231840
        2790.000    -0.3449065636
        2800.000    -0.3687053199
        2810.000    -0.3889044117
        2820.000    -0.4654945046
        2830.000    -0.5850077458
        2840.000    -0.6580546297
        2850.000    -0.7091854352
        2860.000    -0.8270750945
        2870.000    -0.9018175278
        2880.000    -0.9018944319
        2890.000    -0.8501174134
        2900.000    -0.7621536793
        2910.000    -0.7668391098
        2920.000    -0.7721692734
        2930.000    -0.7588333738
        2940.000    -0.7176538358
        2950.000    -0.6722793653
        2960.000    -0.5673023016
        2970.000    -0.5156084359
        2980.000    -0.4445372691
        2990.000    -0.4682760835
        3000.000    -0.5262560440
        3010.000    -0.5488000263
        3020.000    -0.6250958788
        3030.000    -0.6272190376
        3040.000    -0.6262662243
        3050.000    -0.5849734876
        3060.000    -0.5469796551
        3070.000    -0.4869920912
        3080.000    -0.5689713944
        3090.000    -0.5108514910
        3100.000    -0.4980781021
        3110.000    -0.4145449580
        3120.000    -0.3824209933
        3130.000    -0.3163642755
        3140.000    -0.2829919561
        3150.000    -0.2447974386
        3160.000    -0.2406354510
        3170.000    -0.1290694719
        3180.000    -0.0259361706
        3190.000    -0.0175272715
        3200.000     0.0862057035
        3210.000     0.1238069529
        3220.000     0.0847558004
        3230.000     0.0950338054
        3240.000     0.1598828640
        3250.000     0.1418728958
        3260.000     0.1325211346
        3270.000     0.1772314392
        3280.000     0.1994116796
        3290.000     0.1673889567
        3300.000     0.2309682680
        3310.000     0.2208585279
        3320.000     0.2710556530
        3330.000     0.2282919479
        3340.000     0.3128940998
        3350.000     0.3365244164
        3360.000     0.3396063024
        3370.000     0.3070918596
        3380.000     0.3308800310
        3390.000     0.3753449529
        3400.000     0.4978783712
        3410.000     0.5838334441
        3420.000     0.5624886983
        3430.000     0.5171500333
        3440.000     0.4657921952
        3450.000     0.4385254866
        3460.000     0.4746714914
        3470.000     0.5307613291
        3480.000     0.6098608200
        3490.000     0.6467271200
        3500.000     0.6300027152
        3510.000     0.6582974275
        3520.000     0.7084784387
        3530.000     0.7806457408
        3540.000     0.7918244128
        3550.000     0.7340533497
        3560.000     0.6088658199
        3570.000     0.5349615704
        3580.000     0.4726722780
        3590.000     0.4734611788
        3600.000     0.3998479630
        3610.000     0.4066463601
        3620.000     0.4018359831
        3630.000     0.4645618701
        3640.000     0.5355539041
        3650.000     0.6663021202
        3660.000     0.7260861624
        3670.000     0.7383222219
        3680.000     0.7345571657
        3690.000     0.6930366633
        3700.000     0.6401762494
        3710.000     0.6491188804
        3720.000     0.7379613549
        3730.000     0.8658380395
        3740.000     0.8847168474
        3750.000     0.9081329361
        3760.000     0.9002098095
        3770.000     0.8512107604
        3780.000     0.7671524118
        3790.000     0.8056210464
        3800.000     0.8099696139
        3810.000     0.8059695071
        3820.000     0.8058106888
        3830.000     0.8264182870
        3840.000     0.7809443177
        3850.000     0.6883247174
        3860.000     0.6869155574
        3870.000     0.7125575467
        3880.000     0.7990150394
        3890.000     0.9404233563
        3900.000     1.0178443333
        3910.000     1.0067766780
        3920.000     0.9719989118
        3930.000     0.9327043532
        3940.000     0.9232317634
        3950.000     0.9089361937
        3960.000     0.9992990130
        3970.000     1.0544681726
        3980.000     1.0700138086
        3990.000     0.9978644147
        4000.000     0.9782750319
        4010.000     0.9578523005
        4020.000     0.9795683600
        4030.000     1.1110809868
        4040.000     1.2071317935
        4050.000     1.1844313042
        4060.000     1.0759096427
        4070.000     0.9998843688
        4080.000     1.0545688862
        4090.000     1.0815695461
        4100.000     1.1866625475
        4110.000     1.2974655180
        4120.000     1.3467321537
        4130.000     1.2148887244
        4140.000     1.0901997780
        4150.000     1.1031469393
        4160.000     1.1944808348
        4170.000     1.1988179332
        4180.000     1.3256793627
        4190.000     1.3826934742
        4200.000     1.3476805097
        4210.000     1.2587351430
        4220.000     1.2975146167
        4230.000     1.2720569122
        4240.000     1.2928823806
        4250.000     1.2790780970
        4260.000     1.3065438458
        4270.000     1.2846668538
        4280.000     1.2085267192
        4290.000     1.1567213508
        4300.000     1.1172720089
        4310.000     1.1604927331
        4320.000     1.2861281497
        4330.000     1.4357153696
        4340.000     1.4081982682
        4350.000     1.4264418482
        4360.000     1.3894651353
        4370.000     1.4696261216
        4380.000     1.4028732421
        4390.000     1.4261899931
        4400.000     1.5099965260
        4410.000     1.5951186162
        4420.000     1.5264944714
        4430.000     1.4635493052
        4440.000     1.4324048469
        4450.000     1.4590572072
        4460.000     1.5412934978
        4470.000     1.5568500818
        4480.000     1.6343055491
        4490.000     1.5664103354
        4500.000     1.5481387966
        4510.000     1.4655462704
        4520.000     1.4648615841
        4530.000     1.5124148460
        4540.000     1.6116426409
        4550.000     1.7224189211
        4560.000     1.6664167947
        4570.000     1.7029626345
        4580.000     1.6554942974
        4590.000     1.6414181899
        4600.000     1.5797237059
        4610.000     1.5920975102
        4620.000     1.6336385696
        4630.000     1.7160236654
        4640.000     1.7301726648
        4650.000     1.7673770055
        4660.000     1.7936273084
        4670.000     1.7941691919
        4680.000     1.7933160366
        4690.000     1.7697593937
        4700.000     1.7811746961
        4710.000     1.8264352091
        4720.000     1.9039529020
        4730.000     1.9101624963
        4740.000     1.9324917496
        4750.000     1.8784869661
        4760.000     1.8725200361
        4770.000     1.9187306863
        4780.000     1.9720555846
        4790.000     2.0635592338
        4800.000     2.0146651352
        4810.000     1.9719248866
        4820.000     1.9237320647
        4830.000     1.8997400403
        4840.000     1.9238607537
        4850.000     2.0749784356
        4860.000     2.0674868372
        4870.000     2.0796188914
        4880.000     2.0483657164
        4890.000     2.0172887317
        4900.000     1.9646597222
        4910.000     1.9592063499
        4920.000     2.0996298729
        4930.000     2.2296045884
        4940.000     2.2122223364
        4950.000     2.1787742394
        4960.000     2.1258797306
        4970.000     2.0680096164
        4980.000     2.0594244450
        4990.000     2.1883333662
