17
C7NH5SO3
C       -0.097061000     -0.015883000     -0.033737000
C        0.792906000      1.033485000     -0.257655000
C        0.359954000     -1.226644000      0.503825000
C        2.158779000      0.864524000      0.059671000
C        2.621426000     -0.352166000      0.598465000
C        1.714844000     -1.389686000      0.817618000
H        0.447197000      1.973496000     -0.673008000
C        3.078819000      1.929674000     -0.168391000
H       -1.146168000      0.110771000     -0.277289000
H       -0.338272000     -2.038533000      0.676989000
H        3.672993000     -0.452178000      0.833571000
H        2.067550000     -2.326854000      1.233728000
N        3.472306000      2.986648000     -0.547707000
O        4.397893000      3.859767000     -0.669818000
O        5.042288000      1.417287000      0.786848000
S        6.197509000      2.473943000      0.262882000
O        6.931436000      1.949350000     -1.075294000

