19
Coordinates from ORCA-job mol
  C   -2.39674396097043     -0.76740682621803     -0.45493427411833
  C   -1.52314276003702      0.30082269843237     -0.53597275461078
  C   -1.94465643321945     -1.96586776968659      0.08814341942758
  C   -0.19949392979254      0.15174167238894     -0.08045849560009
  C   0.23621192281285     -1.06585943442564      0.46334767688698
  C   -0.64437050651162     -2.13083803403808      0.54912571844682
  H   -1.85013085611890      1.24846097582759     -0.94984895811751
  C   0.69575970237917      1.24959046692714     -0.17344342215989
  H   -3.41958577583631     -0.67778971573340     -0.80087662068639
  N   -2.88077869366105     -3.10079491620650      0.17862239318624
  H   1.25702309651404     -1.16268652912444      0.81266492780878
  H   -0.33019415542630     -3.08084084220316      0.96431362591225
  N   0.93438655896139      2.33562532771313     -0.63462129481352
  O   1.80079858099556      3.22487858680498     -0.58188485666587
  O   2.29888142931334      1.10349640537857      1.06949149172204
  S   3.39328312028631      2.08092618403104      0.65958878703378
  O   4.28005144075097      1.57849292008806     -0.40837324591111
  O   -4.02679955192851     -2.92512223886285     -0.21828880418108
  O   -2.45748922851148     -4.15149893109309      0.64493568644009
