19
Coordinates from ORCA-job mol
  C   -0.03427931511627      0.12805486742061      0.06275818927079
  C   0.91949538423520      1.08663103916797     -0.24106016470503
  C   0.39622846939570     -1.12363337042241      0.48824973553550
  C   2.26908685473144      0.76963254461747     -0.08189982936313
  C   2.69271672486495     -0.50095843843611      0.31138118571049
  C   1.73979903237200     -1.45983636453514      0.61533821012165
  H   0.63099185518593      2.07206799424647     -0.59073499011632
  C   3.32423786205244      1.91395179374459     -0.15556790254269
  H   -1.09427585637607      0.32960117882097     -0.03486453157508
  N   -0.62440651364177     -2.15362160077341      0.80404776435320
  H   3.75261602794173     -0.72095393584545      0.38376140269780
  H   2.01864231022451     -2.45664921706870      0.93527867238784
  N   3.48826012940231      1.69804600177562     -1.38512671198086
  O   4.79391584440125      3.25039288773248     -1.60927211886155
  O   3.71210526523814      2.61998891781122      0.79599280996757
  S   5.46736255150839      3.57733061107847     -0.29330173881058
  O   6.53205028627615      2.65596174174764      0.12261893103654
  O   -1.79786856429855     -1.83831017667783      0.67001258855958
  O   -0.22085934839756     -3.24530347440445      1.17733849831426
