-------------------------------------------------------------
----------------------- !PROPERTIES! ------------------------
-------------------------------------------------------------
# -----------------------------------------------------------
$ PAL_Flags
   description: The PAL Flags
   geom. index: 1
   prop. index: 1
        Diskflag:     2
# -----------------------------------------------------------
$ SCF_Energy
   description: The SCF energy
   geom. index: 1
   prop. index: 1
        SCF Energy:    -1407.7359108348
# -----------------------------------------------------------
$ DFT_Energy
   description: The DFT energy
   geom. index: 1
   prop. index: 1
   Number of Alpha Electrons                 55.0000033072 
   Number of Beta  Electrons                 55.0000033072 
   Total number of  Electrons               110.0000066143 
   Exchange energy                         -121.8685982872 
   Correlation energy                        -3.8517547372 
   Correlation energy NL                      0.0000000000 
   Exchange-Correlation energy             -125.7203530244 
   Embedding correction                       0.0000000000 
   Total DFT Energy (No VdW correction)   -1407.7359108348 
# -----------------------------------------------------------
$ Solvation_Details
   description: Details concerning solvation
   geom. index: 1
   prop. index: 1
     Epsilon:                2.2800000000
     Refrac:                 1.5010000000
     RSolv:                  1.3000000000
     Surface Type:                      2
     Number of Points:               1061
     Surface Area:         842.1511945947
     Dielectric Energy:     -0.0060583283
# -----------------------------------------------------------
$ VdW_Correction
   description: The Van der Waals Correction
   geom. index: 1
   prop. index: 1
        Van der Waals Correction:       -0.0070896259
# -----------------------------------------------------------
$ PAL_Flags
   description: The PAL Flags
   geom. index: 2
   prop. index: 1
        Diskflag:     2
# -----------------------------------------------------------
$ SCF_Energy
   description: The SCF energy
   geom. index: 2
   prop. index: 1
        SCF Energy:    -1407.7359741526
# -----------------------------------------------------------
$ DFT_Energy
   description: The DFT energy
   geom. index: 2
   prop. index: 1
   Number of Alpha Electrons                 55.0000024558 
   Number of Beta  Electrons                 55.0000024558 
   Total number of  Electrons               110.0000049116 
   Exchange energy                         -121.8659691506 
   Correlation energy                        -3.8514823988 
   Correlation energy NL                      0.0000000000 
   Exchange-Correlation energy             -125.7174515494 
   Embedding correction                       0.0000000000 
   Total DFT Energy (No VdW correction)   -1407.7359741526 
# -----------------------------------------------------------
$ Solvation_Details
   description: Details concerning solvation
   geom. index: 2
   prop. index: 1
     Epsilon:                2.2800000000
     Refrac:                 1.5010000000
     RSolv:                  1.3000000000
     Surface Type:                      2
     Number of Points:               1066
     Surface Area:         843.2925648743
     Dielectric Energy:     -0.0061528906
# -----------------------------------------------------------
$ VdW_Correction
   description: The Van der Waals Correction
   geom. index: 2
   prop. index: 1
        Van der Waals Correction:       -0.0070788610
# -----------------------------------------------------------
$ PAL_Flags
   description: The PAL Flags
   geom. index: 3
   prop. index: 1
        Diskflag:     2
# -----------------------------------------------------------
$ SCF_Energy
   description: The SCF energy
   geom. index: 3
   prop. index: 1
        SCF Energy:    -1407.7358641516
# -----------------------------------------------------------
$ DFT_Energy
   description: The DFT energy
   geom. index: 3
   prop. index: 1
   Number of Alpha Electrons                 54.9999864691 
   Number of Beta  Electrons                 54.9999864691 
   Total number of  Electrons               109.9999729383 
   Exchange energy                         -121.8570154322 
   Correlation energy                        -3.8506441270 
   Correlation energy NL                      0.0000000000 
   Exchange-Correlation energy             -125.7076595593 
   Embedding correction                       0.0000000000 
   Total DFT Energy (No VdW correction)   -1407.7358641516 
# -----------------------------------------------------------
$ Solvation_Details
   description: Details concerning solvation
   geom. index: 3
   prop. index: 1
     Epsilon:                2.2800000000
     Refrac:                 1.5010000000
     RSolv:                  1.3000000000
     Surface Type:                      2
     Number of Points:               1073
     Surface Area:         846.6079248502
     Dielectric Energy:     -0.0064561772
# -----------------------------------------------------------
$ VdW_Correction
   description: The Van der Waals Correction
   geom. index: 3
   prop. index: 1
        Van der Waals Correction:       -0.0070587616
# -----------------------------------------------------------
$ PAL_Flags
   description: The PAL Flags
   geom. index: 4
   prop. index: 1
        Diskflag:     2
# -----------------------------------------------------------
$ SCF_Energy
   description: The SCF energy
   geom. index: 4
   prop. index: 1
        SCF Energy:    -1407.7360609471
# -----------------------------------------------------------
$ DFT_Energy
   description: The DFT energy
   geom. index: 4
   prop. index: 1
   Number of Alpha Electrons                 54.9999994217 
   Number of Beta  Electrons                 54.9999994217 
   Total number of  Electrons               109.9999988434 
   Exchange energy                         -121.8631944623 
   Correlation energy                        -3.8512273278 
   Correlation energy NL                      0.0000000000 
   Exchange-Correlation energy             -125.7144217900 
   Embedding correction                       0.0000000000 
   Total DFT Energy (No VdW correction)   -1407.7360609471 
# -----------------------------------------------------------
$ Solvation_Details
   description: Details concerning solvation
   geom. index: 4
   prop. index: 1
     Epsilon:                2.2800000000
     Refrac:                 1.5010000000
     RSolv:                  1.3000000000
     Surface Type:                      2
     Number of Points:               1072
     Surface Area:         844.6878609616
     Dielectric Energy:     -0.0062916018
# -----------------------------------------------------------
$ VdW_Correction
   description: The Van der Waals Correction
   geom. index: 4
   prop. index: 1
        Van der Waals Correction:       -0.0070671903
# -----------------------------------------------------------
$ PAL_Flags
   description: The PAL Flags
   geom. index: 5
   prop. index: 1
        Diskflag:     2
# -----------------------------------------------------------
$ SCF_Energy
   description: The SCF energy
   geom. index: 5
   prop. index: 1
        SCF Energy:    -1407.7360758630
# -----------------------------------------------------------
$ DFT_Energy
   description: The DFT energy
   geom. index: 5
   prop. index: 1
   Number of Alpha Electrons                 55.0000000110 
   Number of Beta  Electrons                 55.0000000110 
   Total number of  Electrons               110.0000000220 
   Exchange energy                         -121.8641175047 
   Correlation energy                        -3.8513362321 
   Correlation energy NL                      0.0000000000 
   Exchange-Correlation energy             -125.7154537368 
   Embedding correction                       0.0000000000 
   Total DFT Energy (No VdW correction)   -1407.7360758630 
# -----------------------------------------------------------
$ Solvation_Details
   description: Details concerning solvation
   geom. index: 5
   prop. index: 1
     Epsilon:                2.2800000000
     Refrac:                 1.5010000000
     RSolv:                  1.3000000000
     Surface Type:                      2
     Number of Points:               1071
     Surface Area:         844.5398868423
     Dielectric Energy:     -0.0062872330
# -----------------------------------------------------------
$ VdW_Correction
   description: The Van der Waals Correction
   geom. index: 5
   prop. index: 1
        Van der Waals Correction:       -0.0070680349
# -----------------------------------------------------------
$ PAL_Flags
   description: The PAL Flags
   geom. index: 6
   prop. index: 1
        Diskflag:     2
# -----------------------------------------------------------
$ SCF_Energy
   description: The SCF energy
   geom. index: 6
   prop. index: 1
        SCF Energy:    -1407.7361046319
# -----------------------------------------------------------
$ DFT_Energy
   description: The DFT energy
   geom. index: 6
   prop. index: 1
   Number of Alpha Electrons                 55.0000002341 
   Number of Beta  Electrons                 55.0000002341 
   Total number of  Electrons               110.0000004682 
   Exchange energy                         -121.8649839756 
   Correlation energy                        -3.8514670307 
   Correlation energy NL                      0.0000000000 
   Exchange-Correlation energy             -125.7164510063 
   Embedding correction                       0.0000000000 
   Total DFT Energy (No VdW correction)   -1407.7361046319 
# -----------------------------------------------------------
$ Solvation_Details
   description: Details concerning solvation
   geom. index: 6
   prop. index: 1
     Epsilon:                2.2800000000
     Refrac:                 1.5010000000
     RSolv:                  1.3000000000
     Surface Type:                      2
     Number of Points:               1070
     Surface Area:         844.5824916227
     Dielectric Energy:     -0.0063037957
# -----------------------------------------------------------
$ VdW_Correction
   description: The Van der Waals Correction
   geom. index: 6
   prop. index: 1
        Van der Waals Correction:       -0.0070675364
# -----------------------------------------------------------
$ PAL_Flags
   description: The PAL Flags
   geom. index: 7
   prop. index: 1
        Diskflag:     2
# -----------------------------------------------------------
$ SCF_Energy
   description: The SCF energy
   geom. index: 7
   prop. index: 1
        SCF Energy:    -1407.7361229839
# -----------------------------------------------------------
$ DFT_Energy
   description: The DFT energy
   geom. index: 7
   prop. index: 1
   Number of Alpha Electrons                 55.0000001881 
   Number of Beta  Electrons                 55.0000001881 
   Total number of  Electrons               110.0000003761 
   Exchange energy                         -121.8650242143 
   Correlation energy                        -3.8515000250 
   Correlation energy NL                      0.0000000000 
   Exchange-Correlation energy             -125.7165242393 
   Embedding correction                       0.0000000000 
   Total DFT Energy (No VdW correction)   -1407.7361229839 
# -----------------------------------------------------------
$ Solvation_Details
   description: Details concerning solvation
   geom. index: 7
   prop. index: 1
     Epsilon:                2.2800000000
     Refrac:                 1.5010000000
     RSolv:                  1.3000000000
     Surface Type:                      2
     Number of Points:               1068
     Surface Area:         844.8508168689
     Dielectric Energy:     -0.0063260008
# -----------------------------------------------------------
$ VdW_Correction
   description: The Van der Waals Correction
   geom. index: 7
   prop. index: 1
        Van der Waals Correction:       -0.0070657352
# -----------------------------------------------------------
$ PAL_Flags
   description: The PAL Flags
   geom. index: 8
   prop. index: 1
        Diskflag:     2
# -----------------------------------------------------------
$ SCF_Energy
   description: The SCF energy
   geom. index: 8
   prop. index: 1
        SCF Energy:    -1407.7361340257
# -----------------------------------------------------------
$ DFT_Energy
   description: The DFT energy
   geom. index: 8
   prop. index: 1
   Number of Alpha Electrons                 55.0000002158 
   Number of Beta  Electrons                 55.0000002158 
   Total number of  Electrons               110.0000004317 
   Exchange energy                         -121.8647359569 
   Correlation energy                        -3.8514823642 
   Correlation energy NL                      0.0000000000 
   Exchange-Correlation energy             -125.7162183211 
   Embedding correction                       0.0000000000 
   Total DFT Energy (No VdW correction)   -1407.7361340257 
# -----------------------------------------------------------
$ Solvation_Details
   description: Details concerning solvation
   geom. index: 8
   prop. index: 1
     Epsilon:                2.2800000000
     Refrac:                 1.5010000000
     RSolv:                  1.3000000000
     Surface Type:                      2
     Number of Points:               1069
     Surface Area:         845.2603580469
     Dielectric Energy:     -0.0063467228
# -----------------------------------------------------------
$ VdW_Correction
   description: The Van der Waals Correction
   geom. index: 8
   prop. index: 1
        Van der Waals Correction:       -0.0070631431
# -----------------------------------------------------------
$ PAL_Flags
   description: The PAL Flags
   geom. index: 9
   prop. index: 1
        Diskflag:     2
# -----------------------------------------------------------
$ SCF_Energy
   description: The SCF energy
   geom. index: 9
   prop. index: 1
        SCF Energy:    -1407.7361375146
# -----------------------------------------------------------
$ DFT_Energy
   description: The DFT energy
   geom. index: 9
   prop. index: 1
   Number of Alpha Electrons                 55.0000005215 
   Number of Beta  Electrons                 55.0000005215 
   Total number of  Electrons               110.0000010431 
   Exchange energy                         -121.8644734026 
   Correlation energy                        -3.8514478815 
   Correlation energy NL                      0.0000000000 
   Exchange-Correlation energy             -125.7159212841 
   Embedding correction                       0.0000000000 
   Total DFT Energy (No VdW correction)   -1407.7361375146 
# -----------------------------------------------------------
$ Solvation_Details
   description: Details concerning solvation
   geom. index: 9
   prop. index: 1
     Epsilon:                2.2800000000
     Refrac:                 1.5010000000
     RSolv:                  1.3000000000
     Surface Type:                      2
     Number of Points:               1069
     Surface Area:         845.6501223206
     Dielectric Energy:     -0.0063589076
# -----------------------------------------------------------
$ VdW_Correction
   description: The Van der Waals Correction
   geom. index: 9
   prop. index: 1
        Van der Waals Correction:       -0.0070607462
# -----------------------------------------------------------
$ PAL_Flags
   description: The PAL Flags
   geom. index: 10
   prop. index: 1
        Diskflag:     2
# -----------------------------------------------------------
$ SCF_Energy
   description: The SCF energy
   geom. index: 10
   prop. index: 1
        SCF Energy:    -1407.7361375937
# -----------------------------------------------------------
$ DFT_Energy
   description: The DFT energy
   geom. index: 10
   prop. index: 1
   Number of Alpha Electrons                 55.0000011940 
   Number of Beta  Electrons                 55.0000011940 
   Total number of  Electrons               110.0000023881 
   Exchange energy                         -121.8643479948 
   Correlation energy                        -3.8514138500 
   Correlation energy NL                      0.0000000000 
   Exchange-Correlation energy             -125.7157618448 
   Embedding correction                       0.0000000000 
   Total DFT Energy (No VdW correction)   -1407.7361375937 
# -----------------------------------------------------------
$ Solvation_Details
   description: Details concerning solvation
   geom. index: 10
   prop. index: 1
     Epsilon:                2.2800000000
     Refrac:                 1.5010000000
     RSolv:                  1.3000000000
     Surface Type:                      2
     Number of Points:               1071
     Surface Area:         846.0401157965
     Dielectric Energy:     -0.0063657743
# -----------------------------------------------------------
$ VdW_Correction
   description: The Van der Waals Correction
   geom. index: 10
   prop. index: 1
        Van der Waals Correction:       -0.0070584612
# -----------------------------------------------------------
$ PAL_Flags
   description: The PAL Flags
   geom. index: 11
   prop. index: 1
        Diskflag:     2
# -----------------------------------------------------------
$ SCF_Energy
   description: The SCF energy
   geom. index: 11
   prop. index: 1
        SCF Energy:    -1407.7361367166
# -----------------------------------------------------------
$ DFT_Energy
   description: The DFT energy
   geom. index: 11
   prop. index: 1
   Number of Alpha Electrons                 55.0000021115 
   Number of Beta  Electrons                 55.0000021115 
   Total number of  Electrons               110.0000042231 
   Exchange energy                         -121.8644251370 
   Correlation energy                        -3.8513974028 
   Correlation energy NL                      0.0000000000 
   Exchange-Correlation energy             -125.7158225398 
   Embedding correction                       0.0000000000 
   Total DFT Energy (No VdW correction)   -1407.7361367166 
# -----------------------------------------------------------
$ Solvation_Details
   description: Details concerning solvation
   geom. index: 11
   prop. index: 1
     Epsilon:                2.2800000000
     Refrac:                 1.5010000000
     RSolv:                  1.3000000000
     Surface Type:                      2
     Number of Points:               1071
     Surface Area:         846.3383020506
     Dielectric Energy:     -0.0063676001
# -----------------------------------------------------------
$ VdW_Correction
   description: The Van der Waals Correction
   geom. index: 11
   prop. index: 1
        Van der Waals Correction:       -0.0070569164
# -----------------------------------------------------------
$ PAL_Flags
   description: The PAL Flags
   geom. index: 12
   prop. index: 1
        Diskflag:     2
# -----------------------------------------------------------
$ SCF_Energy
   description: The SCF energy
   geom. index: 12
   prop. index: 1
        SCF Energy:    -1407.7361374258
# -----------------------------------------------------------
$ DFT_Energy
   description: The DFT energy
   geom. index: 12
   prop. index: 1
   Number of Alpha Electrons                 55.0000028343 
   Number of Beta  Electrons                 55.0000028343 
   Total number of  Electrons               110.0000056686 
   Exchange energy                         -121.8645903465 
   Correlation energy                        -3.8514047234 
   Correlation energy NL                      0.0000000000 
   Exchange-Correlation energy             -125.7159950699 
   Embedding correction                       0.0000000000 
   Total DFT Energy (No VdW correction)   -1407.7361374258 
# -----------------------------------------------------------
$ Solvation_Details
   description: Details concerning solvation
   geom. index: 12
   prop. index: 1
     Epsilon:                2.2800000000
     Refrac:                 1.5010000000
     RSolv:                  1.3000000000
     Surface Type:                      2
     Number of Points:               1073
     Surface Area:         846.4555221369
     Dielectric Energy:     -0.0063666564
# -----------------------------------------------------------
$ VdW_Correction
   description: The Van der Waals Correction
   geom. index: 12
   prop. index: 1
        Van der Waals Correction:       -0.0070565737
# -----------------------------------------------------------
$ PAL_Flags
   description: The PAL Flags
   geom. index: 13
   prop. index: 1
        Diskflag:     2
# -----------------------------------------------------------
$ SCF_Energy
   description: The SCF energy
   geom. index: 13
   prop. index: 1
        SCF Energy:    -1407.7361399254
# -----------------------------------------------------------
$ DFT_Energy
   description: The DFT energy
   geom. index: 13
   prop. index: 1
   Number of Alpha Electrons                 55.0000030930 
   Number of Beta  Electrons                 55.0000030930 
   Total number of  Electrons               110.0000061860 
   Exchange energy                         -121.8647062083 
   Correlation energy                        -3.8514181634 
   Correlation energy NL                      0.0000000000 
   Exchange-Correlation energy             -125.7161243717 
   Embedding correction                       0.0000000000 
   Total DFT Energy (No VdW correction)   -1407.7361399254 
# -----------------------------------------------------------
$ Solvation_Details
   description: Details concerning solvation
   geom. index: 13
   prop. index: 1
     Epsilon:                2.2800000000
     Refrac:                 1.5010000000
     RSolv:                  1.3000000000
     Surface Type:                      2
     Number of Points:               1074
     Surface Area:         846.4593774960
     Dielectric Energy:     -0.0063673853
# -----------------------------------------------------------
$ VdW_Correction
   description: The Van der Waals Correction
   geom. index: 13
   prop. index: 1
        Van der Waals Correction:       -0.0070568121
# -----------------------------------------------------------
$ SCF_Electric_Properties
   description: The SCF Calculated Electric Properties
   geom. index: 13
   prop. index: 1
       Filename                          : mol.scfp 
       Do Dipole Moment Calculation      : true 
       Do Quadrupole Moment Calculation  : false 
       Do Polarizability Calculation     : false 
** Dipole moment part of electric properties **
        Magnitude of dipole moment (Debye) :        3.4697875026
        Electronic Contribution:
                  0    
      0       1.759952
      1       0.156888
      2       0.945234
        Nuclear Contribution:
                  0    
      0      -3.059431
      1      -0.476052
      2      -0.675116
        Total Dipole moment:
                  0    
      0      -1.299479
      1      -0.319164
      2       0.270118
# -----------------------------------------------------------
$ PAL_Flags
   description: The PAL Flags
   geom. index: 14
   prop. index: 1
        Diskflag:     2
# -----------------------------------------------------------
$ SCF_Energy
   description: The SCF energy
   geom. index: 14
   prop. index: 1
        SCF Energy:    -1407.7361399267
# -----------------------------------------------------------
$ DFT_Energy
   description: The DFT energy
   geom. index: 14
   prop. index: 1
   Number of Alpha Electrons                 55.0000030930 
   Number of Beta  Electrons                 55.0000030930 
   Total number of  Electrons               110.0000061861 
   Exchange energy                         -121.8647143052 
   Correlation energy                        -3.8514181001 
   Correlation energy NL                      0.0000000000 
   Exchange-Correlation energy             -125.7161324053 
   Embedding correction                       0.0000000000 
   Total DFT Energy (No VdW correction)   -1407.7361399267 
# -----------------------------------------------------------
$ Solvation_Details
   description: Details concerning solvation
   geom. index: 14
   prop. index: 1
     Epsilon:                2.2800000000
     Refrac:                 1.5010000000
     RSolv:                  1.3000000000
     Surface Type:                      2
     Number of Points:               1074
     Surface Area:         846.4593774960
     Dielectric Energy:     -0.0063674722
# -----------------------------------------------------------
$ VdW_Correction
   description: The Van der Waals Correction
   geom. index: 14
   prop. index: 1
        Van der Waals Correction:       -0.0070568121
# -----------------------------------------------------------
$ THERMOCHEMISTRY_Energies
   description: The Thermochemistry energies
   geom. index: 14
   prop. index: 1
        Temperature (Kelvin)           :        298.1500000000
        Pressure (atm)                 :          1.0000000000
        Total Mass (AMU)               :        216.9600418485
        Spin Degeneracy                :          1.0000000000
        Electronic Energy (Hartree)    :      -1407.7301673846
        Translational Energy (Hartree) :          0.0014162714
        Rotational Energy (Hartree)    :          0.0014162714
        Vibrational Energy (Hartree)   :          0.0105131553
        Number of frequencies          :     51      
        Scaling Factor for frequencies :          1.0000000000
        Vibrational frequencies        :     
                  0    
      0       0.000000
      1       0.000000
      2       0.000000
      3       0.000000
      4       0.000000
      5       0.000000
      6      12.773007
      7      27.161338
      8      44.211152
      9      55.268002
     10      77.451431
     11     103.721988
     12     147.801593
     13     166.463758
     14     192.272168
     15     283.929654
     16     324.046258
     17     343.833543
     18     405.879645
     19     422.634059
     20     441.820923
     21     490.429629
     22     490.525941
     23     500.524037
     24     553.034772
     25     649.155322
     26     693.455066
     27     771.381200
     28     827.979403
     29     833.703159
     30     956.715129
     31     974.055086
     32     1033.571315
     33     1091.579101
     34     1101.307148
     35     1115.753069
     36     1133.832097
     37     1202.857574
     38     1254.574223
     39     1319.848767
     40     1324.275819
     41     1409.085054
     42     1427.330105
     43     1515.667659
     44     1583.200482
     45     1617.082256
     46     2423.240007
     47     3194.081572
     48     3197.021738
     49     3206.656767
     50     3208.140514
        Zero Point Energy (Hartree)    :          0.1005795802
        Inner Energy (Hartree)         :      -1407.6162421062
        Enthalpy (Hartree)             :      -1407.6152978971
        Electronic entropy             :          0.0000000000
        Rotational entropy             :          0.0155719379
        Vibrational entropy            :          0.0196369329
        Translational entropy          :          0.0155719379
        Entropy                        :          0.0551770760
        Gibbs Energy (Hartree)         :      -1407.6704749731
        Is Linear                      :                 false
# -------------------------------------------------------------
----------------------- !GEOMETRIES! ------------------------
# -------------------------------------------------------------
------------------------ !GEOMETRY! -------------------------
    Number of atoms:    17 
    Geometry Index:     1 
    Coordinates:
               0 C     -0.072471253935    0.061612215202   -0.194660085184
               1 C      0.686800456845    1.210784186249   -0.345443145196
               2 C      0.505403656528   -1.064521096296    0.384122599851
               3 C      2.023575356234    1.233145495416    0.082057552597
               4 C      2.590364735804    0.086869216622    0.664929613158
               5 C      1.829343277721   -1.060841990628    0.814583809633
               6 H      0.249290268579    2.095744593844   -0.795135223355
               7 C      2.811739802233    2.398274157523   -0.064916960473
               8 H     -1.105640692594    0.036642775636   -0.522948563933
               9 Cl    -0.451090357497   -2.513298549159    0.573691987454
              10 H      3.623170590688    0.113223923609    0.995565731196
              11 H      2.259017097730   -1.949819165410    1.263097820734
              12 N      3.521515837994    3.312580459208   -0.158962312657
              13 O      4.296146416036    4.243122874482   -0.231700225909
              14 O      5.478959495730    1.949526508032    1.466607114707
              15 S      6.414981067710    2.962788403685    0.933070207945
              16 O      7.172794244195    2.591865991984   -0.272229920568
------------------------ !GEOMETRY! -------------------------
    Number of atoms:    17 
    Geometry Index:     2 
    Coordinates:
               0 C     -0.075607036436    0.065989367439   -0.194194765823
               1 C      0.694181015886    1.207455172968   -0.350516454993
               2 C      0.493307367978   -1.062714479058    0.389070995046
               3 C      2.031519757025    1.218140428482    0.076283060052
               4 C      2.589035872094    0.068997495068    0.663100774255
               5 C      1.817668124521   -1.070982931643    0.818597830927
               6 H      0.264470720687    2.094534290298   -0.803787049951
               7 C      2.829589695127    2.375893359200   -0.077739099766
               8 H     -1.109422246406    0.049934968613   -0.521906839684
               9 Cl    -0.477118422012   -2.502895803240    0.585459349549
              10 H      3.622603125705    0.085294649870    0.991736968802
              11 H      2.240220751951   -1.962108691345    1.270304747476
              12 N      3.522771726412    3.303222510718   -0.157019527215
              13 O      4.283034397318    4.249516936917   -0.213441673743
              14 O      5.502461880763    1.950197758103    1.451653719383
              15 S      6.419805703807    2.989914537441    0.937046058073
              16 O      7.185377565579    2.647310430169   -0.272918092388
------------------------ !GEOMETRY! -------------------------
    Number of atoms:    17 
    Geometry Index:     3 
    Coordinates:
               0 C     -0.073493814147    0.071889578250   -0.202096171880
               1 C      0.699654528660    1.215350727768   -0.326372599706
               2 C      0.490422155059   -1.067710201590    0.366443613708
               3 C      2.031649320981    1.211518501400    0.118835299971
               4 C      2.583131563836    0.050448536256    0.689261120070
               5 C      1.809049791086   -1.091592692930    0.813677657437
               6 H      0.276412887219    2.112046023686   -0.767328477664
               7 C      2.828365798514    2.375075060194   -0.001635098990
               8 H     -1.103645949562    0.066549407450   -0.544033416808
               9 Cl    -0.486705807902   -2.514273408784    0.521600788214
              10 H      3.613039889667    0.052555760787    1.029007682164
              11 H      2.227248503737   -1.991901045590    1.253067303863
              12 N      3.518259941335    3.291582322578   -0.158564870691
              13 O      4.291973618197    4.227097937417   -0.305871074021
              14 O      5.527101880800    2.051652056853    1.505509216544
              15 S      6.433122324205    3.050545015119    0.898525241208
              16 O      7.168313368314    2.596866421135   -0.298296213417
------------------------ !GEOMETRY! -------------------------
    Number of atoms:    17 
    Geometry Index:     4 
    Coordinates:
               0 C     -0.075895343563    0.070057991465   -0.196663900463
               1 C      0.700087222327    1.209277312219   -0.340799413020
               2 C      0.486440710918   -1.064744841674    0.380838231065
               3 C      2.035425733799    1.208621509153    0.092751212665
               4 C      2.585577016848    0.053092108741    0.673298790837
               5 C      1.808312429677   -1.084782989750    0.816977923698
               6 H      0.276612808411    2.101766950624   -0.789204394176
               7 C      2.837528901994    2.365383379639   -0.049224186833
               8 H     -1.108102851971    0.062569118153   -0.529647822205
               9 Cl    -0.493020615688   -2.503197443111    0.562140279933
              10 H      3.617738967237    0.059220414973    1.006660726268
              11 H      2.225401849959   -1.980739462833    1.264040739341
              12 N      3.524678340380    3.293291577527   -0.160633179937
              13 O      4.284272988963    4.240917393472   -0.248204254303
              14 O      5.520177873378    1.996498943649    1.471054468607
              15 S      6.425342898457    3.029230328692    0.922226592181
              16 O      7.183321068871    2.651237709060   -0.283881813659
------------------------ !GEOMETRY! -------------------------
    Number of atoms:    17 
    Geometry Index:     5 
    Coordinates:
               0 C     -0.076149813246    0.070888389402   -0.195802749040
               1 C      0.701638995823    1.208722938421   -0.341612732401
               2 C      0.484656529950   -1.064348450500    0.382031711481
               3 C      2.037452374400    1.206119987902    0.090430630370
               4 C      2.585889475090    0.050382559696    0.671549271816
               5 C      1.806788364410   -1.086174185512    0.816892982562
               6 H      0.279226673487    2.101651639331   -0.790087420946
               7 C      2.841344102432    2.361287712908   -0.052306750500
               8 H     -1.108669114714    0.064890246933   -0.527661217286
               9 Cl    -0.497106979306   -2.500719733951    0.565477851675
              10 H      3.618239702436    0.055267853977    1.004592398195
              11 H      2.222680906256   -1.982355021149    1.264455647306
              12 N      3.526056810515    3.291484273225   -0.161099878845
              13 O      4.284170541473    4.239778814510   -0.244956348144
              14 O      5.520596449725    1.996099081915    1.469009053176
              15 S      6.423057614250    3.032972450004    0.923501249748
              16 O      7.184027367020    2.661751442889   -0.282683699167
------------------------ !GEOMETRY! -------------------------
    Number of atoms:    17 
    Geometry Index:     6 
    Coordinates:
               0 C     -0.076778117918    0.072980130515   -0.194300207603
               1 C      0.704561159430    1.208376935650   -0.340666031924
               2 C      0.480817561771   -1.064193735555    0.382579957271
               3 C      2.040923095293    1.201047920633    0.089790137924
               4 C      2.585827145079    0.043666274669    0.670125269108
               5 C      1.803129928984   -1.090594838780    0.816044231957
               6 H      0.284627854848    2.102873339432   -0.788282408196
               7 C      2.848485220396    2.353409536996   -0.052413093177
               8 H     -1.109638848452    0.070611586255   -0.524984680338
               9 Cl    -0.505697178009   -2.497133159447    0.566582767703
              10 H      3.618387079772    0.045007506868    1.002779838209
              11 H      2.216570625006   -1.988096605318    1.263071460463
              12 N      3.528830929085    3.286644149323   -0.163950813649
              13 O      4.285688253109    4.235290472825   -0.247064865983
              14 O      5.523644211188    2.003725491228    1.470290464451
              15 S      6.419734153004    3.045577126397    0.923496332992
              16 O      7.184786927413    2.678507868309   -0.281368359207
------------------------ !GEOMETRY! -------------------------
    Number of atoms:    17 
    Geometry Index:     7 
    Coordinates:
               0 C     -0.077535995962    0.074500053773   -0.193038705108
               1 C      0.705984745517    1.208418564606   -0.338919968863
               2 C      0.478067147484   -1.064433660187    0.382377600614
               3 C      2.042710985634    1.197748693163    0.090513753196
               4 C      2.585504743765    0.038736596812    0.669395983037
               5 C      1.800567417680   -1.094103367461    0.814887950129
               6 H      0.287629763677    2.104206726278   -0.785425065810
               7 C      2.852799354336    2.348337654807   -0.051081009206
               8 H     -1.110637905979    0.074685089313   -0.522982614560
               9 Cl    -0.511499110906   -2.495348799850    0.565673239357
              10 H      3.618279124284    0.037448482809    1.001414720687
              11 H      2.212525807978   -1.992830280986    1.260800964295
              12 N      3.530467711498    3.282984589211   -0.167107159071
              13 O      4.287753470899    4.231152438441   -0.252516670203
              14 O      5.527161613424    2.012056960741    1.474195681994
              15 S      6.418376112328    3.056133933897    0.923337198747
              16 O      7.185745014342    2.688006324634   -0.279795899232
------------------------ !GEOMETRY! -------------------------
    Number of atoms:    17 
    Geometry Index:     8 
    Coordinates:
               0 C     -0.078669549754    0.075563626435   -0.191481536600
               1 C      0.706069718531    1.208591326862   -0.336965417310
               2 C      0.475987128268   -1.064849219758    0.382164968084
               3 C      2.043253531393    1.195697367448    0.091077810119
               4 C      2.585154126786    0.035252322473    0.668134794462
               5 C      1.798933000014   -1.096681620256    0.813282750641
               6 H      0.288440682065    2.105385970286   -0.782153077873
               7 C      2.855020993944    2.345134202096   -0.050450345067
               8 H     -1.112134597086    0.077421793943   -0.520366814417
               9 Cl    -0.515320845569   -2.494553403240    0.564870997173
              10 H      3.618304353310    0.032226793408    0.998933615849
              11 H      2.210216764251   -1.996439894329    1.257796275133
              12 N      3.531646303574    3.279897925826   -0.171159711829
              13 O      4.290254446421    4.227128656830   -0.259345511013
              14 O      5.530891960789    2.019377053915    1.479605530937
              15 S      6.418164421339    3.064692467858    0.924376514197
              16 O      7.187687561724    2.693854630205   -0.276590842486
------------------------ !GEOMETRY! -------------------------
    Number of atoms:    17 
    Geometry Index:     9 
    Coordinates:
               0 C     -0.080009908603    0.076060039320   -0.189734862685
               1 C      0.705064135489    1.208714500368   -0.335622857023
               2 C      0.474778252828   -1.065164229783    0.382392822579
               3 C      2.042858973258    1.194870541373    0.090440114179
               4 C      2.585024653361    0.033623043055    0.665982612031
               5 C      1.798422809900   -1.097861225425    0.811571400281
               6 H      0.287279579862    2.106021330577   -0.779659117080
               7 C      2.855304435078    2.343774810187   -0.051867483269
               8 H     -1.113983281703    0.078573253384   -0.517102301479
               9 Cl    -0.516974798559   -2.494344012576    0.565602420874
              10 H      3.618693628929    0.029966989734    0.995112426601
              11 H      2.209808733284   -1.998183716422    1.254921383725
              12 N      3.532502754104    3.277755221662   -0.174996112898
              13 O      4.292551924948    4.223998241181   -0.264896019950
              14 O      5.533783829751    2.023304173101    1.484559387755
              15 S      6.418509235790    3.069629586559    0.926987309942
              16 O      7.190285042281    2.696961453706   -0.271961123582
------------------------ !GEOMETRY! -------------------------
    Number of atoms:    17 
    Geometry Index:     10 
    Coordinates:
               0 C     -0.081783104611    0.076281297380   -0.187362447352
               1 C      0.703130870988    1.208816474944   -0.334605866438
               2 C      0.473995526914   -1.065334205393    0.383167903863
               3 C      2.041838180252    1.194686143378    0.088427104721
               4 C      2.585159487102    0.033032878801    0.662426417223
               5 C      1.798695970248   -1.098216663988    0.809392774238
               6 H      0.284503922598    2.106353727615   -0.777402410216
               7 C      2.854333900068    2.343383725623   -0.055480339236
               8 H     -1.116517093552    0.078903309248   -0.512383980148
               9 Cl    -0.517427182264   -2.494327320081    0.568152410429
              10 H      3.619583835250    0.029372603510    0.989164189853
              11 H      2.210779494747   -1.998827643728    1.251574550339
              12 N      3.533704454492    3.275627750467   -0.179427775551
              13 O      4.295304963950    4.220737395114   -0.270206572212
              14 O      5.536048435776    2.025116284247    1.489775664460
              15 S      6.418794703355    3.072767591968    0.931567480561
              16 O      7.193753634688    2.699326650895   -0.265049104534
------------------------ !GEOMETRY! -------------------------
    Number of atoms:    17 
    Geometry Index:     11 
    Coordinates:
               0 C     -0.083663109268    0.076319537552   -0.184696819622
               1 C      0.700798686960    1.208913143753   -0.333999969583
               2 C      0.473682771828   -1.065259865545    0.384359729232
               3 C      2.040586818508    1.194926969419    0.085407806693
               4 C      2.585578160913    0.033279448015    0.658035072855
               5 C      1.799580363295   -1.097925874961    0.807076797473
               6 H      0.280914454323    2.106433406645   -0.775640937304
               7 C      2.852642383450    2.343675594553   -0.060570431795
               8 H     -1.119277484203    0.078722880748   -0.506913573121
               9 Cl    -0.516967765629   -2.494319501159    0.572094374521
              10 H      3.620859586068    0.029966986316    0.982080504877
              11 H      2.212748322051   -1.998556878571    1.248228023756
              12 N      3.535367217982    3.273550728390   -0.183670076254
              13 O      4.298288607252    4.217568029047   -0.274579599452
              14 O      5.536982748629    2.025007138821    1.494313710703
              15 S      6.418521127280    3.074169275359    0.937246126689
              16 O      7.197257110561    2.701228981618   -0.257040739668
------------------------ !GEOMETRY! -------------------------
    Number of atoms:    17 
    Geometry Index:     12 
    Coordinates:
               0 C     -0.084917696503    0.076319285062   -0.182751780723
               1 C      0.699177968079    1.209011250051   -0.333753052191
               2 C      0.473737443443   -1.065013890623    0.385358069258
               3 C      2.039772973037    1.195198925732    0.082951757765
               4 C      2.586048846104    0.033761855047    0.654709905651
               5 C      1.800453961227   -1.097517776598    0.805468566040
               6 H      0.278308162926    2.106423779675   -0.774656422716
               7 C      2.851321628027    2.344099173054   -0.064583085485
               8 H     -1.121163311613    0.078560473409   -0.502887365363
               9 Cl    -0.516333245296   -2.494230945889    0.575389776587
              10 H      3.621931564681    0.030663729787    0.976871481520
              11 H      2.214526385548   -1.998033134178    1.245975649129
              12 N      3.537006487998    3.271975722587   -0.186308232214
              13 O      4.300574190564    4.215324551732   -0.277064140791
              14 O      5.536403699560    2.024200939528    1.496741468225
              15 S      6.417682955805    3.074414128595    0.941483615104
              16 O      7.199367986413    2.702541933029   -0.251216209798
------------------------ !GEOMETRY! -------------------------
    Number of atoms:    17 
    Geometry Index:     13 
    Coordinates:
               0 C     -0.085329499004    0.076411169666   -0.181988079830
               1 C      0.698744416982    1.209097135213   -0.333555440744
               2 C      0.473777117809   -1.064843452110    0.385706621862
               3 C      2.039645690830    1.195153605161    0.082143288028
               4 C      2.586276944279    0.033789688980    0.653518574713
               5 C      1.800735401625   -1.097530582169    0.804867415655
               6 H      0.277593598462    2.106517384874   -0.774148123962
               7 C      2.851057662157    2.344083395616   -0.065930150196
               8 H     -1.121791833644    0.078802116166   -0.501378051540
               9 Cl    -0.516291704825   -2.494106020302    0.576512119378
              10 H      3.622357733300    0.030500786868    0.975058918584
              11 H      2.215134868311   -1.998017193704    1.245079629928
              12 N      3.538001034298    3.271099789171   -0.187187548073
              13 O      4.301652386046    4.214248085417   -0.278127546075
              14 O      5.535487420458    2.024310747214    1.497321908887
              15 S      6.416941076667    3.074804265070    0.942935157164
              16 O      7.199907686248    2.703379078868   -0.249098693779
------------------------ !GEOMETRY! -------------------------
    Number of atoms:    17 
    Geometry Index:     14 
    Coordinates:
               0 C     -0.085329499004    0.076411169666   -0.181988079830
               1 C      0.698744416982    1.209097135213   -0.333555440744
               2 C      0.473777117809   -1.064843452110    0.385706621862
               3 C      2.039645690830    1.195153605161    0.082143288028
               4 C      2.586276944279    0.033789688980    0.653518574713
               5 C      1.800735401625   -1.097530582169    0.804867415655
               6 H      0.277593598462    2.106517384874   -0.774148123962
               7 C      2.851057662157    2.344083395616   -0.065930150196
               8 H     -1.121791833644    0.078802116166   -0.501378051540
               9 Cl    -0.516291704825   -2.494106020302    0.576512119378
              10 H      3.622357733300    0.030500786868    0.975058918584
              11 H      2.215134868311   -1.998017193704    1.245079629928
              12 N      3.538001034298    3.271099789171   -0.187187548073
              13 O      4.301652386046    4.214248085417   -0.278127546075
              14 O      5.535487420458    2.024310747214    1.497321908887
              15 S      6.416941076667    3.074804265070    0.942935157164
              16 O      7.199907686248    2.703379078868   -0.249098693779
