14
Coordinates from ORCA-job /scratch/obeletsan/orcajob__14287-68rI/product
  C   1.80437258155906     -0.43094901614694      0.36594075225970
  C   2.88388338420088      0.37643539688367      0.02886916502720
  C   1.99387506060713     -1.77857711316592      0.65711658388986
  C   4.16646140482600     -0.17076012462290     -0.01734360924018
  C   4.36443947941545     -1.52409973109884      0.27405683703305
  C   3.27674032304007     -2.31915029336025      0.60937269441219
  H   2.74875683744306      1.42842487092875     -0.19995768549975
  C   6.42480912649650      0.55511235699537     -0.49567054963712
  H   0.80766370190338     -0.00129356632320      0.40093080085526
  H   1.14768530770701     -2.40551582420294      0.92001393588240
  H   5.36657113730950     -1.94250643848509      0.23588156229174
  H   3.43443473499168     -3.36979260784732      0.83489336135759
  N   5.22981692917278      0.67083022420271     -0.36074929988708
  O   7.58408999132745      0.58244186624291     -0.66235454874486
