-------------------------------------------------------------
----------------------- !PROPERTIES! ------------------------
-------------------------------------------------------------
# -----------------------------------------------------------
$ SCF_Energy
   description: The SCF energy
   geom. index: 1
   prop. index: 1
        SCF Energy:     -399.6534688824
# -----------------------------------------------------------
$ DFT_Energy
   description: The DFT energy
   geom. index: 1
   prop. index: 1
   Number of Alpha Electrons                 31.0000005780 
   Number of Beta  Electrons                 31.0000005780 
   Total number of  Electrons                62.0000011560 
   Exchange energy                          -53.0826048871 
   Correlation energy                        -2.0233186695 
   Correlation energy NL                      0.0000000000 
   Exchange-Correlation energy              -55.1059235566 
   Embedding correction                       0.0000000000 
   Total DFT Energy (No VdW correction)    -399.6534688824 
# -----------------------------------------------------------
$ Solvation_Details
   description: Details concerning solvation
   geom. index: 1
   prop. index: 1
     Epsilon:                2.2800000000
     Refrac:                 1.5010000000
     RSolv:                  1.3000000000
     Surface Type:                      2
     Number of Points:                846
     Surface Area:         582.9300030588
     Dielectric Energy:     -0.0040636026
# -----------------------------------------------------------
$ Mayer_Pop
   description: The Mayer population analysis
   geom. index: 1
   prop. index: 1
     Number of atoms                     : 14
     Threshold for printing              : 0.1000000
     Number of bond orders printed       : 14
  NA   - Mulliken gross atomic population
  ZA   - Total nuclear charge
  QA   - Mulliken gross atomic charge
  VA   - Mayer's total valence
  BVA  - Mayer's bonded valence
  FA   - Mayer's free valence
  ATOM       NA         ZA         QA         VA         BVA        FA
  0   0     6.1384     6.0000    -0.1384     3.7657     3.7657     0.0000
  1   0     6.2720     6.0000    -0.2720     3.8525     3.8525     0.0000
  2   0     6.1686     6.0000    -0.1686     3.8119     3.8119    -0.0000
  3   0     5.8436     6.0000     0.1564     3.6469     3.6469     0.0000
  4   0     6.2734     6.0000    -0.2734     3.8243     3.8243    -0.0000
  5   0     6.1499     6.0000    -0.1499     3.7846     3.7846    -0.0000
  6   0     0.8273     1.0000     0.1727     0.9641     0.9641     0.0000
  7   0     5.6922     6.0000     0.3078     3.8233     3.8233     0.0000
  8   0     0.8316     1.0000     0.1684     0.9625     0.9625     0.0000
  9   0     0.8328     1.0000     0.1672     0.9625     0.9625    -0.0000
 10   0     0.8296     1.0000     0.1704     0.9640     0.9640    -0.0000
 11   0     0.8319     1.0000     0.1681     0.9628     0.9628    -0.0000
 12   0     6.9440     7.0000     0.0560     2.8275     2.8275     0.0000
 13   0     8.3646     8.0000    -0.3646     2.0332     2.0332    -0.0000
      Bond orders larger than 0.1000000
           Atom A     A.N. of A          Atom B    A.N. of B              Bond order
                0             6               1            6                1.379442
                0             6               2            6                1.402818
                0             6               8            1                0.948735
                1             6               3            6                1.405343
                1             6               6            1                0.943828
                2             6               5            6                1.397600
                2             6               9            1                0.948799
                3             6               4            6                1.359691
                3             6              12            7                0.889273
                4             6               5            6                1.397638
                4             6              10            1                0.951143
                5             6              11            1                0.950779
                7             6              12            7                1.822805
                7             6              13            8                1.941592
# -----------------------------------------------------------
$ VdW_Correction
   description: The Van der Waals Correction
   geom. index: 1
   prop. index: 1
        Van der Waals Correction:       -0.0045855647
# -----------------------------------------------------------
$ SCF_Energy
   description: The SCF energy
   geom. index: 2
   prop. index: 1
        SCF Energy:     -399.6553285867
# -----------------------------------------------------------
$ DFT_Energy
   description: The DFT energy
   geom. index: 2
   prop. index: 1
   Number of Alpha Electrons                 31.0000009842 
   Number of Beta  Electrons                 31.0000009842 
   Total number of  Electrons                62.0000019684 
   Exchange energy                          -53.1321855018 
   Correlation energy                        -2.0256748261 
   Correlation energy NL                      0.0000000000 
   Exchange-Correlation energy              -55.1578603279 
   Embedding correction                       0.0000000000 
   Total DFT Energy (No VdW correction)    -399.6553285867 
# -----------------------------------------------------------
$ Solvation_Details
   description: Details concerning solvation
   geom. index: 2
   prop. index: 1
     Epsilon:                2.2800000000
     Refrac:                 1.5010000000
     RSolv:                  1.3000000000
     Surface Type:                      2
     Number of Points:                847
     Surface Area:         579.9939294961
     Dielectric Energy:     -0.0039209618
# -----------------------------------------------------------
$ VdW_Correction
   description: The Van der Waals Correction
   geom. index: 2
   prop. index: 1
        Van der Waals Correction:       -0.0046075434
# -----------------------------------------------------------
$ SCF_Energy
   description: The SCF energy
   geom. index: 3
   prop. index: 1
        SCF Energy:     -399.6555917248
# -----------------------------------------------------------
$ DFT_Energy
   description: The DFT energy
   geom. index: 3
   prop. index: 1
   Number of Alpha Electrons                 31.0000013941 
   Number of Beta  Electrons                 31.0000013941 
   Total number of  Electrons                62.0000027883 
   Exchange energy                          -53.1436789711 
   Correlation energy                        -2.0262082022 
   Correlation energy NL                      0.0000000000 
   Exchange-Correlation energy              -55.1698871733 
   Embedding correction                       0.0000000000 
   Total DFT Energy (No VdW correction)    -399.6555917248 
# -----------------------------------------------------------
$ Solvation_Details
   description: Details concerning solvation
   geom. index: 3
   prop. index: 1
     Epsilon:                2.2800000000
     Refrac:                 1.5010000000
     RSolv:                  1.3000000000
     Surface Type:                      2
     Number of Points:                849
     Surface Area:         579.0833128598
     Dielectric Energy:     -0.0038475944
# -----------------------------------------------------------
$ VdW_Correction
   description: The Van der Waals Correction
   geom. index: 3
   prop. index: 1
        Van der Waals Correction:       -0.0046149403
# -----------------------------------------------------------
$ SCF_Energy
   description: The SCF energy
   geom. index: 4
   prop. index: 1
        SCF Energy:     -399.6558866517
# -----------------------------------------------------------
$ DFT_Energy
   description: The DFT energy
   geom. index: 4
   prop. index: 1
   Number of Alpha Electrons                 31.0000021802 
   Number of Beta  Electrons                 31.0000021802 
   Total number of  Electrons                62.0000043604 
   Exchange energy                          -53.1493686876 
   Correlation energy                        -2.0264271684 
   Correlation energy NL                      0.0000000000 
   Exchange-Correlation energy              -55.1757958560 
   Embedding correction                       0.0000000000 
   Total DFT Energy (No VdW correction)    -399.6558866517 
# -----------------------------------------------------------
$ Solvation_Details
   description: Details concerning solvation
   geom. index: 4
   prop. index: 1
     Epsilon:                2.2800000000
     Refrac:                 1.5010000000
     RSolv:                  1.3000000000
     Surface Type:                      2
     Number of Points:                843
     Surface Area:         578.0193749597
     Dielectric Energy:     -0.0037788547
# -----------------------------------------------------------
$ VdW_Correction
   description: The Van der Waals Correction
   geom. index: 4
   prop. index: 1
        Van der Waals Correction:       -0.0046241536
# -----------------------------------------------------------
$ SCF_Energy
   description: The SCF energy
   geom. index: 5
   prop. index: 1
        SCF Energy:     -399.6563270378
# -----------------------------------------------------------
$ DFT_Energy
   description: The DFT energy
   geom. index: 5
   prop. index: 1
   Number of Alpha Electrons                 31.0000033654 
   Number of Beta  Electrons                 31.0000033654 
   Total number of  Electrons                62.0000067307 
   Exchange energy                          -53.1506978332 
   Correlation energy                        -2.0263501220 
   Correlation energy NL                      0.0000000000 
   Exchange-Correlation energy              -55.1770479552 
   Embedding correction                       0.0000000000 
   Total DFT Energy (No VdW correction)    -399.6563270378 
# -----------------------------------------------------------
$ Solvation_Details
   description: Details concerning solvation
   geom. index: 5
   prop. index: 1
     Epsilon:                2.2800000000
     Refrac:                 1.5010000000
     RSolv:                  1.3000000000
     Surface Type:                      2
     Number of Points:                837
     Surface Area:         574.8133420583
     Dielectric Energy:     -0.0036727803
# -----------------------------------------------------------
$ VdW_Correction
   description: The Van der Waals Correction
   geom. index: 5
   prop. index: 1
        Van der Waals Correction:       -0.0046460859
# -----------------------------------------------------------
$ SCF_Energy
   description: The SCF energy
   geom. index: 6
   prop. index: 1
        SCF Energy:     -399.6564714176
# -----------------------------------------------------------
$ DFT_Energy
   description: The DFT energy
   geom. index: 6
   prop. index: 1
   Number of Alpha Electrons                 31.0000034705 
   Number of Beta  Electrons                 31.0000034705 
   Total number of  Electrons                62.0000069411 
   Exchange energy                          -53.1413735856 
   Correlation energy                        -2.0258469991 
   Correlation energy NL                      0.0000000000 
   Exchange-Correlation energy              -55.1672205848 
   Embedding correction                       0.0000000000 
   Total DFT Energy (No VdW correction)    -399.6564714176 
# -----------------------------------------------------------
$ Solvation_Details
   description: Details concerning solvation
   geom. index: 6
   prop. index: 1
     Epsilon:                2.2800000000
     Refrac:                 1.5010000000
     RSolv:                  1.3000000000
     Surface Type:                      2
     Number of Points:                837
     Surface Area:         574.6428089052
     Dielectric Energy:     -0.0036782600
# -----------------------------------------------------------
$ VdW_Correction
   description: The Van der Waals Correction
   geom. index: 6
   prop. index: 1
        Van der Waals Correction:       -0.0046478031
# -----------------------------------------------------------
$ SCF_Energy
   description: The SCF energy
   geom. index: 7
   prop. index: 1
        SCF Energy:     -399.6565197943
# -----------------------------------------------------------
$ DFT_Energy
   description: The DFT energy
   geom. index: 7
   prop. index: 1
   Number of Alpha Electrons                 31.0000034410 
   Number of Beta  Electrons                 31.0000034410 
   Total number of  Electrons                62.0000068819 
   Exchange energy                          -53.1317296988 
   Correlation energy                        -2.0253335425 
   Correlation energy NL                      0.0000000000 
   Exchange-Correlation energy              -55.1570632413 
   Embedding correction                       0.0000000000 
   Total DFT Energy (No VdW correction)    -399.6565197943 
# -----------------------------------------------------------
$ Solvation_Details
   description: Details concerning solvation
   geom. index: 7
   prop. index: 1
     Epsilon:                2.2800000000
     Refrac:                 1.5010000000
     RSolv:                  1.3000000000
     Surface Type:                      2
     Number of Points:                837
     Surface Area:         575.3686578797
     Dielectric Energy:     -0.0037129949
# -----------------------------------------------------------
$ VdW_Correction
   description: The Van der Waals Correction
   geom. index: 7
   prop. index: 1
        Van der Waals Correction:       -0.0046436943
# -----------------------------------------------------------
$ SCF_Energy
   description: The SCF energy
   geom. index: 8
   prop. index: 1
        SCF Energy:     -399.6565233639
# -----------------------------------------------------------
$ DFT_Energy
   description: The DFT energy
   geom. index: 8
   prop. index: 1
   Number of Alpha Electrons                 31.0000034288 
   Number of Beta  Electrons                 31.0000034288 
   Total number of  Electrons                62.0000068577 
   Exchange energy                          -53.1319512992 
   Correlation energy                        -2.0253370905 
   Correlation energy NL                      0.0000000000 
   Exchange-Correlation energy              -55.1572883897 
   Embedding correction                       0.0000000000 
   Total DFT Energy (No VdW correction)    -399.6565233639 
# -----------------------------------------------------------
$ Solvation_Details
   description: Details concerning solvation
   geom. index: 8
   prop. index: 1
     Epsilon:                2.2800000000
     Refrac:                 1.5010000000
     RSolv:                  1.3000000000
     Surface Type:                      2
     Number of Points:                837
     Surface Area:         575.2656273887
     Dielectric Energy:     -0.0037129055
# -----------------------------------------------------------
$ VdW_Correction
   description: The Van der Waals Correction
   geom. index: 8
   prop. index: 1
        Van der Waals Correction:       -0.0046443980
# -----------------------------------------------------------
$ SCF_Energy
   description: The SCF energy
   geom. index: 9
   prop. index: 1
        SCF Energy:     -399.6565270158
# -----------------------------------------------------------
$ DFT_Energy
   description: The DFT energy
   geom. index: 9
   prop. index: 1
   Number of Alpha Electrons                 31.0000033957 
   Number of Beta  Electrons                 31.0000033957 
   Total number of  Electrons                62.0000067914 
   Exchange energy                          -53.1323630579 
   Correlation energy                        -2.0253539095 
   Correlation energy NL                      0.0000000000 
   Exchange-Correlation energy              -55.1577169674 
   Embedding correction                       0.0000000000 
   Total DFT Energy (No VdW correction)    -399.6565270158 
# -----------------------------------------------------------
$ Solvation_Details
   description: Details concerning solvation
   geom. index: 9
   prop. index: 1
     Epsilon:                2.2800000000
     Refrac:                 1.5010000000
     RSolv:                  1.3000000000
     Surface Type:                      2
     Number of Points:                837
     Surface Area:         575.2704624831
     Dielectric Energy:     -0.0037149636
# -----------------------------------------------------------
$ VdW_Correction
   description: The Van der Waals Correction
   geom. index: 9
   prop. index: 1
        Van der Waals Correction:       -0.0046443448
# -----------------------------------------------------------
$ SCF_Energy
   description: The SCF energy
   geom. index: 10
   prop. index: 1
        SCF Energy:     -399.6565275123
# -----------------------------------------------------------
$ DFT_Energy
   description: The DFT energy
   geom. index: 10
   prop. index: 1
   Number of Alpha Electrons                 31.0000033905 
   Number of Beta  Electrons                 31.0000033905 
   Total number of  Electrons                62.0000067810 
   Exchange energy                          -53.1324261973 
   Correlation energy                        -2.0253579620 
   Correlation energy NL                      0.0000000000 
   Exchange-Correlation energy              -55.1577841593 
   Embedding correction                       0.0000000000 
   Total DFT Energy (No VdW correction)    -399.6565275123 
# -----------------------------------------------------------
$ Solvation_Details
   description: Details concerning solvation
   geom. index: 10
   prop. index: 1
     Epsilon:                2.2800000000
     Refrac:                 1.5010000000
     RSolv:                  1.3000000000
     Surface Type:                      2
     Number of Points:                837
     Surface Area:         575.2922688574
     Dielectric Energy:     -0.0037150485
# -----------------------------------------------------------
$ Mayer_Pop
   description: The Mayer population analysis
   geom. index: 10
   prop. index: 1
     Number of atoms                     : 14
     Threshold for printing              : 0.1000000
     Number of bond orders printed       : 14
  NA   - Mulliken gross atomic population
  ZA   - Total nuclear charge
  QA   - Mulliken gross atomic charge
  VA   - Mayer's total valence
  BVA  - Mayer's bonded valence
  FA   - Mayer's free valence
  ATOM       NA         ZA         QA         VA         BVA        FA
  0   0     6.1344     6.0000    -0.1344     3.7599     3.7599    -0.0000
  1   0     6.2965     6.0000    -0.2965     3.8758     3.8758    -0.0000
  2   0     6.1725     6.0000    -0.1725     3.8184     3.8184     0.0000
  3   0     5.7300     6.0000     0.2700     3.5792     3.5792    -0.0000
  4   0     6.2955     6.0000    -0.2955     3.8356     3.8356    -0.0000
  5   0     6.1583     6.0000    -0.1583     3.7999     3.7999    -0.0000
  6   0     0.8288     1.0000     0.1712     0.9650     0.9650     0.0000
  7   0     5.6265     6.0000     0.3735     3.8351     3.8351    -0.0000
  8   0     0.8332     1.0000     0.1668     0.9631     0.9631    -0.0000
  9   0     0.8342     1.0000     0.1658     0.9631     0.9631    -0.0000
 10   0     0.8347     1.0000     0.1653     0.9656     0.9656    -0.0000
 11   0     0.8339     1.0000     0.1661     0.9635     0.9635     0.0000
 12   0     7.0834     7.0000    -0.0834     2.8272     2.8272    -0.0000
 13   0     8.3382     8.0000    -0.3382     2.0474     2.0474     0.0000
      Bond orders larger than 0.1000000
           Atom A     A.N. of A          Atom B    A.N. of B              Bond order
                0             6               1            6                1.375592
                0             6               2            6                1.407142
                0             6               8            1                0.948020
                1             6               3            6                1.422484
                1             6               6            1                0.935994
                2             6               5            6                1.400729
                2             6               9            1                0.949038
                3             6               4            6                1.336366
                3             6              12            7                0.839689
                4             6               5            6                1.409153
                4             6              10            1                0.955440
                5             6              11            1                0.952846
                7             6              12            7                1.830623
                7             6              13            8                1.953189
# -----------------------------------------------------------
$ VdW_Correction
   description: The Van der Waals Correction
   geom. index: 10
   prop. index: 1
        Van der Waals Correction:       -0.0046441786
# -----------------------------------------------------------
$ SCF_Electric_Properties
   description: The SCF Calculated Electric Properties
   geom. index: 10
   prop. index: 1
       Filename                          : orca.scfp 
       Do Dipole Moment Calculation      : true 
       Do Quadrupole Moment Calculation  : false 
       Do Polarizability Calculation     : false 
** Dipole moment part of electric properties **
        Magnitude of dipole moment (Debye) :        2.6661703825
        Electronic Contribution:
                  0    
      0       6.372781
      1       3.379159
      2      -1.663717
        Nuclear Contribution:
                  0    
      0      -7.266711
      1      -3.872943
      2       1.903136
        Total Dipole moment:
                  0    
      0      -0.893931
      1      -0.493784
      2       0.239419
# -----------------------------------------------------------
$ Hessian
   description: Details about the Hessian
   geom. index: 10
   prop. index: 1
Normal modes:
Number of Rows: 42 Number of Columns: 42
                  0          1          2          3          4          5    
      0       0.000000   0.000000   0.000000   0.000000   0.000000   0.000000
      1       0.000000   0.000000   0.000000   0.000000   0.000000   0.000000
      2       0.000000   0.000000   0.000000   0.000000   0.000000   0.000000
      3       0.000000   0.000000   0.000000   0.000000   0.000000   0.000000
      4       0.000000   0.000000   0.000000   0.000000   0.000000   0.000000
      5       0.000000   0.000000   0.000000   0.000000   0.000000   0.000000
      6       0.000000   0.000000   0.000000   0.000000   0.000000   0.000000
      7       0.000000   0.000000   0.000000   0.000000   0.000000   0.000000
      8       0.000000   0.000000   0.000000   0.000000   0.000000   0.000000
      9       0.000000   0.000000   0.000000   0.000000   0.000000   0.000000
     10       0.000000   0.000000   0.000000   0.000000   0.000000   0.000000
     11       0.000000   0.000000   0.000000   0.000000   0.000000   0.000000
     12       0.000000   0.000000   0.000000   0.000000   0.000000   0.000000
     13       0.000000   0.000000   0.000000   0.000000   0.000000   0.000000
     14       0.000000   0.000000   0.000000   0.000000   0.000000   0.000000
     15       0.000000   0.000000   0.000000   0.000000   0.000000   0.000000
     16       0.000000   0.000000   0.000000   0.000000   0.000000   0.000000
     17       0.000000   0.000000   0.000000   0.000000   0.000000   0.000000
     18       0.000000   0.000000   0.000000   0.000000   0.000000   0.000000
     19       0.000000   0.000000   0.000000   0.000000   0.000000   0.000000
     20       0.000000   0.000000   0.000000   0.000000   0.000000   0.000000
     21       0.000000   0.000000   0.000000   0.000000   0.000000   0.000000
     22       0.000000   0.000000   0.000000   0.000000   0.000000   0.000000
     23       0.000000   0.000000   0.000000   0.000000   0.000000   0.000000
     24       0.000000   0.000000   0.000000   0.000000   0.000000   0.000000
     25       0.000000   0.000000   0.000000   0.000000   0.000000   0.000000
     26       0.000000   0.000000   0.000000   0.000000   0.000000   0.000000
     27       0.000000   0.000000   0.000000   0.000000   0.000000   0.000000
     28       0.000000   0.000000   0.000000   0.000000   0.000000   0.000000
     29       0.000000   0.000000   0.000000   0.000000   0.000000   0.000000
     30       0.000000   0.000000   0.000000   0.000000   0.000000   0.000000
     31       0.000000   0.000000   0.000000   0.000000   0.000000   0.000000
     32       0.000000   0.000000   0.000000   0.000000   0.000000   0.000000
     33       0.000000   0.000000   0.000000   0.000000   0.000000   0.000000
     34       0.000000   0.000000   0.000000   0.000000   0.000000   0.000000
     35       0.000000   0.000000   0.000000   0.000000   0.000000   0.000000
     36       0.000000   0.000000   0.000000   0.000000   0.000000   0.000000
     37       0.000000   0.000000   0.000000   0.000000   0.000000   0.000000
     38       0.000000   0.000000   0.000000   0.000000   0.000000   0.000000
     39       0.000000   0.000000   0.000000   0.000000   0.000000   0.000000
     40       0.000000   0.000000   0.000000   0.000000   0.000000   0.000000
     41       0.000000   0.000000   0.000000   0.000000   0.000000   0.000000
                  6          7          8          9         10         11    
      0      -0.027724   0.005424   0.003936  -0.145560   0.027028  -0.054570
      1      -0.048542   0.095048   0.007053  -0.148434   0.047083  -0.136085
      2      -0.206071  -0.024421   0.028789   0.054262   0.200213   0.040527
      3       0.002197   0.109550   0.035158  -0.240512  -0.028508   0.050159
      4       0.004089  -0.043735   0.060320   0.060216  -0.048650  -0.215840
      5       0.016387  -0.005620   0.257241   0.019231  -0.208170   0.043350
      6      -0.027652  -0.156618  -0.035498  -0.049944   0.001001  -0.276051
      7      -0.049259   0.078135  -0.060797  -0.143101   0.001503  -0.147480
      8      -0.209389   0.003002  -0.259786   0.040218   0.006045   0.071409
      9       0.028979   0.054660   0.020140  -0.133705  -0.000211   0.166250
     10       0.050480  -0.185905   0.034246   0.194265   0.000182   0.013294
     11       0.212263   0.036703   0.147491  -0.027160   0.000423  -0.025932
     12       0.033311  -0.105060   0.034283  -0.139215   0.027291  -0.099319
     13       0.057154  -0.205058   0.059009   0.207758   0.047346  -0.061442
     14       0.240136   0.063109   0.252680  -0.029890   0.200408   0.029027
     15       0.004482  -0.216695  -0.000883   0.014735  -0.027711  -0.228582
     16       0.006460  -0.067921  -0.000997   0.037488  -0.048244  -0.023920
     17       0.025926   0.046424  -0.004086  -0.010386  -0.206124   0.036204
     18       0.001213   0.241900   0.045372  -0.487614  -0.059783  -0.072143
     19       0.002817  -0.031451   0.077437   0.039215  -0.102658  -0.225223
     20       0.011126  -0.027107   0.329886   0.058156  -0.438059   0.062042
     21      -0.003351   0.107129  -0.013277   0.208469   0.000370   0.140116
     22      -0.005154   0.058065  -0.023097  -0.108845  -0.000007   0.363376
     23      -0.019793  -0.027958  -0.097660  -0.003212   0.002638  -0.104693
     24      -0.051849   0.055920  -0.002018  -0.192056   0.059180   0.028437
     25      -0.090341   0.214104  -0.003194  -0.254466   0.102611   0.063508
     26      -0.382438  -0.060429  -0.015759   0.084718   0.437711  -0.016161
     27      -0.051803  -0.234705  -0.081874   0.017665   0.002606  -0.292210
     28      -0.091732   0.178668  -0.140599  -0.230185   0.003956  -0.128041
     29      -0.388916  -0.009821  -0.600364   0.050892   0.017081   0.068268
     30       0.058054  -0.153028   0.043912  -0.097276   0.058821  -0.200442
     31       0.099951  -0.319233   0.075554   0.312390   0.101865  -0.316760
     32       0.420332   0.096955   0.323573  -0.062207   0.430679   0.104683
     33       0.006372  -0.348327  -0.011136   0.214801  -0.059798  -0.157020
     34       0.009253  -0.082742  -0.018172   0.060581  -0.103802  -0.018385
     35       0.037631   0.068588  -0.076985  -0.043048  -0.442717   0.024825
     36       0.050838   0.103266  -0.047087   0.197719   0.001033   0.096551
     37       0.088732  -0.276360  -0.081381  -0.154699   0.000887   0.377310
     38       0.373738   0.053129  -0.343592   0.010000   0.006952  -0.101289
     39      -0.049801   0.088557   0.008660   0.225858  -0.000414   0.185875
     40      -0.084701   0.448240   0.014956   0.065421  -0.000310  -0.134735
     41      -0.352799  -0.119307   0.059570  -0.046660  -0.002954   0.005842
                 12         13         14         15         16         17    
      0       0.017190  -0.006092   0.352125  -0.173883   0.022013  -0.001387
      1       0.029870  -0.009528  -0.038482   0.101159   0.038677  -0.002491
      2       0.126579  -0.041742  -0.038354  -0.000194   0.164333  -0.010396
      3       0.000344   0.002972   0.070025  -0.161266  -0.013809  -0.010417
      4       0.000887   0.004576   0.290002   0.079816  -0.024032  -0.017900
      5       0.003130   0.021454  -0.077984   0.003428  -0.101377  -0.076465
      6      -0.025009   0.008156   0.083713   0.147712  -0.015340  -0.014798
      7      -0.043531   0.014634  -0.106970   0.118838  -0.026498  -0.025575
      8      -0.185776   0.060646   0.013376  -0.048008  -0.113373  -0.108590
      9      -0.041100   0.009851  -0.081752  -0.163475   0.016455   0.023736
     10      -0.070779   0.016560   0.107405  -0.120135   0.028233   0.041059
     11      -0.300764   0.073102  -0.013819   0.050759   0.120587   0.174271
     12       0.000906   0.004482  -0.304153   0.094175  -0.012606  -0.011401
     13       0.001423   0.006461   0.008570  -0.094581  -0.022289  -0.019736
     14       0.005698   0.028686   0.039492   0.009273  -0.094779  -0.084022
     15       0.016906  -0.005080  -0.058170   0.101325   0.022389  -0.001824
     16       0.029033  -0.008509  -0.345436  -0.042393   0.038841  -0.003062
     17       0.123363  -0.037566   0.089346  -0.004188   0.164139  -0.013217
     18       0.047931  -0.008198  -0.088415   0.013341  -0.067118   0.015961
     19       0.082905  -0.015897   0.273430   0.096913  -0.116466   0.027914
     20       0.352244  -0.066105  -0.053269  -0.024063  -0.494984   0.118648
     21      -0.004090  -0.113517  -0.021147  -0.005206  -0.001196  -0.002588
     22      -0.006981  -0.192659   0.109976   0.649923  -0.001921  -0.004524
     23      -0.028635  -0.818957  -0.023701  -0.151865  -0.008279  -0.018859
     24       0.064195  -0.024007   0.293370  -0.256536  -0.009999   0.067040
     25       0.111084  -0.040435  -0.178321  -0.093560  -0.016678   0.115823
     26       0.473458  -0.174567   0.002607   0.056694  -0.071800   0.493894
     27      -0.030569   0.005869  -0.187379   0.208946  -0.075638   0.076742
     28      -0.053200   0.010016   0.240615   0.038619  -0.131464   0.132681
     29      -0.226860   0.042233  -0.032590  -0.037073  -0.559106   0.565451
     30       0.051286  -0.007192  -0.242304   0.165389  -0.069226   0.022137
     31       0.088430  -0.013624   0.156510   0.092710  -0.120002   0.038122
     32       0.375527  -0.058578  -0.005492  -0.042119  -0.510665   0.162937
     33       0.064197  -0.022938   0.091127  -0.090789  -0.011451   0.070597
     34       0.110962  -0.038393  -0.329067  -0.063054  -0.019522   0.122254
     35       0.472277  -0.164377   0.064131   0.027069  -0.084372   0.520482
     36       0.013910   0.036551  -0.009238   0.024566   0.001144  -0.003292
     37       0.023629   0.063697   0.007171  -0.340442   0.001947  -0.005672
     38       0.101776   0.270573  -0.000259   0.076729   0.008701  -0.024015
     39       0.001573   0.046052  -0.014006   0.096533   0.000262   0.000998
     40       0.002982   0.076902  -0.035376  -0.226437   0.000477   0.001641
     41       0.012244   0.325972   0.010518   0.039752   0.002272   0.006808
                 18         19         20         21         22         23    
      0       0.232108  -0.008616   0.000366   0.011386  -0.011509   0.000882
      1      -0.126436  -0.014699   0.000413   0.019859  -0.019975   0.011021
      2      -0.001898  -0.062880   0.002095   0.084292  -0.084849  -0.002829
      3       0.193766  -0.010336  -0.013665  -0.010318   0.004620  -0.038110
      4      -0.115948  -0.018028  -0.023355  -0.018121   0.007867   0.373316
      5       0.001011  -0.076160  -0.100273  -0.076500   0.034139  -0.082418
      6      -0.167754  -0.000988   0.012227   0.002224   0.012094  -0.324589
      7      -0.126428  -0.001762   0.021276   0.003753   0.020815  -0.238606
      8       0.052506  -0.007921   0.091138   0.015684   0.087936   0.100203
      9       0.107290  -0.000154   0.009459   0.000603   0.000979   0.013699
     10       0.072319  -0.000431   0.016431   0.000995   0.001675   0.014138
     11      -0.031796  -0.001145   0.069361   0.004598   0.007277  -0.005388
     12      -0.061284   0.011618  -0.013213   0.009702   0.002054   0.353090
     13       0.238113   0.020086  -0.023103   0.017066   0.003746  -0.145042
     14      -0.047670   0.085488  -0.098187   0.072377   0.015875  -0.013439
     15      -0.041583   0.007877   0.002678  -0.013945  -0.008548   0.018621
     16       0.296520   0.013666   0.004726  -0.024261  -0.014712   0.003855
     17      -0.064079   0.057920   0.019923  -0.103080  -0.062811  -0.003654
     18       0.026120   0.069694   0.076365   0.055249  -0.036923  -0.024045
     19      -0.138986   0.119985   0.132769   0.095046  -0.064077   0.392226
     20       0.028947   0.511339   0.564598   0.405316  -0.272204  -0.089461
     21      -0.107674  -0.000030  -0.000765  -0.000008   0.000012  -0.011724
     22       0.152953   0.000058  -0.001372   0.000034   0.000019  -0.003572
     23      -0.021529  -0.000177  -0.005467  -0.000059   0.000010   0.002436
     24       0.365637   0.058909  -0.002833  -0.063173   0.075526   0.014023
     25       0.181295   0.102061  -0.005108  -0.109037   0.130443   0.092681
     26      -0.092091   0.434683  -0.021488  -0.465688   0.557311  -0.023033
     27      -0.140226   0.006645  -0.070956  -0.012767  -0.075444  -0.332335
     28      -0.154259   0.011180  -0.122375  -0.022387  -0.130386  -0.257862
     29       0.055413   0.047676  -0.520961  -0.095250  -0.556356   0.105133
     30      -0.120542  -0.075429   0.073248  -0.054452  -0.023255   0.365816
     31       0.116656  -0.130098   0.126015  -0.093544  -0.039905  -0.158663
     32      -0.011677  -0.555024   0.538655  -0.400602  -0.170383  -0.015584
     33       0.321512  -0.052693  -0.017655   0.080377   0.058535   0.113675
     34       0.341817  -0.090973  -0.030794   0.139201   0.101829  -0.004275
     35      -0.123758  -0.387665  -0.131491   0.593194   0.433677  -0.012904
     36      -0.010658   0.000111  -0.002015  -0.000036   0.000372   0.008191
     37      -0.298060   0.000256  -0.003547  -0.000006   0.000677  -0.017737
     38       0.071375   0.001054  -0.014855  -0.000105   0.002793   0.003051
     39      -0.135444  -0.000073   0.000286  -0.000031  -0.000003  -0.024722
     40      -0.054490  -0.000157   0.000514  -0.000072  -0.000036   0.000146
     41       0.031706  -0.000477   0.002030  -0.000219  -0.000125   0.003407
                 24         25         26         27         28         29    
      0       0.151321   0.073675   0.143308   0.017520  -0.019110   0.021588
      1      -0.133879  -0.007064  -0.015713   0.041845  -0.048523   0.115216
      2       0.011016  -0.008353  -0.015768  -0.012247   0.014022  -0.029981
      3      -0.086849  -0.048341  -0.003903  -0.004912   0.047486  -0.042807
      4       0.058748  -0.093722  -0.019613   0.004962   0.008020   0.031305
      5      -0.002032   0.028562   0.005121  -0.000484  -0.008347  -0.001530
      6       0.077396  -0.060443  -0.049158   0.035699  -0.003400   0.029146
      7       0.059882   0.068561  -0.038242  -0.050218  -0.003965  -0.041592
      8      -0.024642  -0.007909   0.015656   0.006982   0.001402   0.005847
      9      -0.029961  -0.031046  -0.311194  -0.011094   0.014536   0.141836
     10      -0.018390   0.040279  -0.231371  -0.003533   0.015567  -0.188737
     11       0.008337  -0.005242   0.096851   0.002347  -0.005627   0.025091
     12       0.042877   0.105823  -0.013675  -0.006401   0.029709  -0.011321
     13      -0.098785   0.021447   0.020909   0.001845   0.047559   0.057084
     14       0.017538  -0.019442  -0.003198   0.000400  -0.015284  -0.011951
     15      -0.094939   0.000289   0.013840  -0.036561  -0.056127  -0.119426
     16       0.171286  -0.078507   0.124061   0.000080  -0.010627   0.006714
     17      -0.027390   0.018445  -0.030990   0.004959   0.010162   0.014620
     18      -0.472518  -0.484008   0.569084  -0.191921   0.447158  -0.506605
     19       0.019443  -0.143436   0.019424  -0.013643   0.048240  -0.009753
     20       0.059765   0.099434  -0.082063   0.029161  -0.071988   0.071016
     21       0.005591   0.000028   0.037973   0.000956  -0.002120   0.004685
     22      -0.002933  -0.001622  -0.017968  -0.000686   0.000344  -0.001655
     23      -0.000072   0.000442  -0.000520   0.000048   0.000220  -0.000253
     24       0.026150   0.183099   0.221472   0.195314  -0.173787  -0.194438
     25      -0.454715   0.235370   0.148380   0.463741  -0.413484  -0.385666
     26       0.102562  -0.080066  -0.064913  -0.135210   0.120496   0.116844
     27       0.080342  -0.336276  -0.093642   0.413353   0.007894   0.066124
     28       0.078724   0.422021   0.025948  -0.535476  -0.018729  -0.089965
     29      -0.029069  -0.053374   0.006536   0.069488   0.003387   0.012155
     30      -0.085504   0.265945   0.136925   0.054058   0.192895   0.153429
     31      -0.406089   0.391547   0.434070   0.150452   0.438997   0.468429
     32       0.106366  -0.128168  -0.119941  -0.042489  -0.129018  -0.130609
     33      -0.472101  -0.208166   0.276217  -0.431842  -0.551506   0.400982
     34       0.137453  -0.109138   0.160858  -0.043968  -0.067639   0.068873
     35       0.031799   0.053823  -0.075336   0.068860   0.090545  -0.070550
     36      -0.008296   0.000230  -0.116041  -0.003775   0.011475  -0.003358
     37       0.013074  -0.014021   0.088964   0.003249  -0.006019   0.015410
     38      -0.001897   0.003268  -0.004896  -0.000247  -0.000189  -0.003183
     39       0.016329   0.006286   0.168896   0.004449  -0.013412  -0.009782
     40       0.000970   0.000110   0.006007   0.000109  -0.000223  -0.000498
     41      -0.002494  -0.000917  -0.024974  -0.000647   0.001912   0.001473
                 30         31         32         33         34         35    
      0      -0.041763   0.017571  -0.124106  -0.048502  -0.030786  -0.186511
      1      -0.088120   0.119349  -0.055795  -0.142503   0.265375  -0.178616
      2       0.026361  -0.030411   0.029930   0.040067  -0.058172   0.067239
      3       0.188489   0.114412   0.088621  -0.089104   0.145941   0.316402
      4       0.028053  -0.041536   0.095925   0.049323  -0.125195   0.083197
      5      -0.032180  -0.005811  -0.034551   0.000512   0.009587  -0.062509
      6      -0.118952  -0.077677   0.056803   0.105332   0.190691   0.151602
      7       0.153834  -0.002587  -0.105423   0.034504  -0.307356   0.030019
      8      -0.020008   0.011162   0.017047  -0.022406   0.046330  -0.027623
      9      -0.049689   0.012009   0.083189   0.187560  -0.171095  -0.201008
     10       0.047543   0.069015  -0.117760   0.127516   0.248142  -0.058826
     11      -0.004437  -0.017927   0.016355  -0.055579  -0.035075   0.041196
     12      -0.086421   0.056841  -0.106953   0.006424   0.005255   0.189409
     13      -0.175168   0.121647   0.014588  -0.117659  -0.243222   0.181490
     14       0.052875  -0.036281   0.011042   0.026794   0.056471  -0.068340
     15       0.097485   0.043586   0.142778  -0.163465  -0.116327  -0.298430
     16       0.025149  -0.079170   0.078004   0.021851   0.141814  -0.080996
     17      -0.019101   0.012682  -0.037672   0.017057  -0.017545   0.059513
     18      -0.463224  -0.321755  -0.338201   0.346667  -0.176760  -0.420289
     19      -0.036789  -0.091927   0.070061   0.112710  -0.173433   0.011550
     20       0.071624   0.065291   0.029468  -0.073533   0.064785   0.054350
     21      -0.002152  -0.048511  -0.005313  -0.043275  -0.006733  -0.004790
     22       0.001521  -0.015435  -0.001688  -0.012423  -0.000092   0.000709
     23      -0.000050   0.010756   0.001204   0.009157   0.000948   0.000505
     24      -0.096832  -0.237855   0.001393   0.192738  -0.253495   0.006824
     25      -0.217987  -0.473169   0.290623   0.418353  -0.219185   0.304842
     26       0.064423   0.143326  -0.068342  -0.124366   0.085864  -0.072395
     27       0.275514   0.082295  -0.400160   0.051332  -0.328495   0.072792
     28      -0.351813  -0.232640   0.473995   0.136794   0.351211   0.155532
     29       0.045171   0.043444  -0.056964  -0.039087  -0.037859  -0.046345
     30       0.190461  -0.171933  -0.080909   0.226530   0.212564  -0.015822
     31       0.499223  -0.447108   0.128811   0.365499   0.236928  -0.330587
     32      -0.142948   0.128145  -0.019031  -0.116732  -0.084590   0.079657
     33       0.253283  -0.234571  -0.506644   0.428410   0.068317   0.380641
     34       0.044224  -0.126075   0.018066   0.097836   0.180571  -0.008232
     35      -0.044823   0.061450   0.064420  -0.081056  -0.051706  -0.049613
     36      -0.003798  -0.277924  -0.060102  -0.208685   0.018448   0.042052
     37       0.010979  -0.049749   0.008949  -0.047712  -0.010236   0.008639
     38      -0.002068   0.049905   0.006141   0.039882  -0.000110  -0.007827
     39       0.003056   0.210245   0.034704   0.138025   0.001234  -0.013319
     40      -0.000237   0.001340  -0.000497   0.000073   0.000682   0.001334
     41      -0.000375  -0.029604  -0.004716  -0.019238  -0.000333   0.001524
                 36         37         38         39         40         41    
      0       0.003620   0.021377  -0.054162   0.035604  -0.003024  -0.041176
      1       0.001651  -0.008921   0.022969  -0.016662   0.005108   0.017052
      2      -0.000881  -0.000807   0.001959  -0.000919  -0.000789   0.001584
      3      -0.018321  -0.001645   0.003936  -0.004572   0.007298  -0.006962
      4       0.000168   0.005829  -0.021267   0.019696  -0.050395   0.061200
      5       0.002464  -0.001145   0.004461  -0.004004   0.010844  -0.013425
      6      -0.004946  -0.024690   0.028577   0.021569  -0.042890  -0.029764
      7      -0.000637  -0.018880   0.019312   0.019434  -0.029628  -0.023339
      8       0.000835   0.007785  -0.008415  -0.007493   0.012782   0.009522
      9       0.016657   0.000792   0.000006   0.001100  -0.002173   0.003333
     10      -0.036694   0.001813   0.001775   0.002699   0.001501   0.000161
     11       0.006351  -0.000535  -0.000419  -0.000785  -0.000057  -0.000491
     12      -0.014937   0.046215   0.040469   0.046636   0.018870   0.009859
     13      -0.007839  -0.021071  -0.017695  -0.018812  -0.005903  -0.003744
     14       0.003857  -0.001337  -0.001347  -0.001922  -0.001178  -0.000461
     15       0.009179  -0.008479  -0.003213   0.004088   0.007102   0.004242
     16       0.000148   0.051897   0.008750  -0.046444  -0.041185  -0.021143
     17      -0.001265  -0.011035  -0.001620   0.010347   0.008706   0.004388
     18       0.010927   0.010811  -0.035407   0.033854  -0.077651   0.089549
     19       0.004342  -0.073319   0.258378  -0.236699   0.578945  -0.686572
     20      -0.002510   0.015757  -0.055874   0.050996  -0.125428   0.149094
     21      -0.853998  -0.000236   0.000493   0.000304   0.000357   0.000112
     22      -0.022509  -0.000202  -0.000161  -0.000243  -0.000031  -0.000104
     23       0.123627   0.000079  -0.000032   0.000013  -0.000043   0.000008
     24       0.007979  -0.253336   0.632552  -0.410866   0.046871   0.446609
     25      -0.004745   0.109251  -0.272974   0.179086  -0.025013  -0.192640
     26       0.000045   0.008744  -0.021787   0.013735  -0.000494  -0.015398
     27      -0.004946   0.301608  -0.328947  -0.267539   0.472362   0.333515
     28      -0.004207   0.223407  -0.240917  -0.202073   0.346189   0.248052
     29       0.001702  -0.093415   0.101238   0.083778  -0.145431  -0.103533
     30      -0.012878  -0.547381  -0.467509  -0.519822  -0.197908  -0.105120
     31       0.025230   0.233388   0.198555   0.218859   0.081056   0.043702
     32      -0.004455   0.019668   0.016975   0.019320   0.007887   0.004037
     33      -0.015112   0.092183   0.017631  -0.074265  -0.068920  -0.035884
     34       0.005491  -0.617153  -0.104496   0.524630   0.456241   0.230853
     35       0.000809   0.132399   0.022143  -0.113108  -0.097777  -0.049338
     36       0.377777  -0.000142  -0.000500  -0.000543  -0.000020  -0.000567
     37       0.032625  -0.000037  -0.000112  -0.000256  -0.000073  -0.000127
     38      -0.059612   0.000028   0.000096   0.000135   0.000020   0.000107
     39       0.317836   0.000057  -0.000206  -0.000110  -0.000138  -0.000102
     40       0.019124   0.000015  -0.000002   0.000021  -0.000011  -0.000005
     41      -0.048873  -0.000012   0.000029   0.000011   0.000021   0.000015
# -----------------------------------------------------------
$ THERMOCHEMISTRY_Energies
   description: The Thermochemistry energies
   geom. index: 10
   prop. index: 1
        Temperature (Kelvin)           :        298.1500000000
        Pressure (atm)                 :          1.0000000000
        Total Mass (AMU)               :        119.1230000000
        Spin Degeneracy                :          1.0000000000
        Electronic Energy (Hartree)    :       -399.6565821926
        Translational Energy (Hartree) :          0.0014162714
        Rotational Energy (Hartree)    :          0.0014162714
        Vibrational Energy (Hartree)   :          0.0042338525
        Number of frequencies          :     42      
        Scaling Factor for frequencies :          1.0000000000
        Vibrational frequencies        :     
                  0    
      0       0.000000
      1       0.000000
      2       0.000000
      3       0.000000
      4       0.000000
      5       0.000000
      6      68.014512
      7     101.874011
      8     239.459296
      9     392.972511
     10     416.552695
     11     473.156001
     12     498.628734
     13     568.072845
     14     634.514319
     15     654.973034
     16     697.330048
     17     761.339288
     18     781.031946
     19     838.418242
     20     913.311567
     21     974.583977
     22     991.769835
     23     1023.137868
     24     1046.833093
     25     1101.633291
     26     1144.648876
     27     1179.973076
     28     1196.805209
     29     1330.051588
     30     1357.956347
     31     1467.856700
     32     1480.470923
     33     1536.905537
     34     1616.003995
     35     1631.153137
     36     2328.447887
     37     3169.420246
     38     3175.373033
     39     3182.652936
     40     3191.246338
     41     3197.756416
        Zero Point Energy (Hartree)    :          0.1033475467
        Inner Energy (Hartree)         :       -399.5461682505
        Enthalpy (Hartree)             :       -399.5452240415
        Electronic entropy             :          0.0000000000
        Rotational entropy             :          0.0136567202
        Vibrational entropy            :          0.0069663124
        Translational entropy          :          0.0136567202
        Entropy                        :          0.0397421030
        Gibbs Energy (Hartree)         :       -399.5849661445
        Is Linear                      :                 false
# -------------------------------------------------------------
----------------------- !GEOMETRIES! ------------------------
# -------------------------------------------------------------
------------------------ !GEOMETRY! -------------------------
    Number of atoms:    14 
    Geometry Index:     1 
    Coordinates:
               0 C      1.806997169610   -0.419591538559    0.362265295650
               1 C      2.922676222062    0.352003236506    0.030274049797
               2 C      1.949607537721   -1.779650144518    0.662170749277
               3 C      4.193171294638   -0.242406052097   -0.001789539377
               4 C      4.343102390871   -1.607583811207    0.298592994518
               5 C      3.219814238926   -2.368147260640    0.628522450976
               6 H      2.828883114510    1.405481814938   -0.204693992363
               7 C      6.472869090323    0.673488638073   -0.531235217573
               8 H      0.825828438535    0.042593415873    0.386511838283
               9 H      1.080460649215   -2.375177987282    0.919769504802
              10 H      5.329927437246   -2.057214373673    0.271485033478
              11 H      3.338469638104   -3.421524762413    0.859683455849
              12 N      5.292558457564    0.545181058330   -0.335680990166
              13 O      7.629234320676    0.923147766670   -0.754875633151
------------------------ !GEOMETRY! -------------------------
    Number of atoms:    14 
    Geometry Index:     2 
    Coordinates:
               0 C      1.815526915757   -0.420235953500    0.361221704879
               1 C      2.923482296130    0.352546624182    0.030025050210
               2 C      1.961946417942   -1.774414434582    0.659363533594
               3 C      4.189533354232   -0.238529344831   -0.002480685563
               4 C      4.345841763806   -1.597637823368    0.295633907115
               5 C      3.228946211624   -2.357256533557    0.625018269361
               6 H      2.825092414663    1.407571521196   -0.204455540588
               7 C      6.454516984066    0.656069533278   -0.524533812191
               8 H      0.832315709857    0.039670112630    0.386205611740
               9 H      1.093901343615   -2.372986079995    0.917359630713
              10 H      5.335333175110   -2.043927960695    0.266934288179
              11 H      3.350846431228   -3.411294188273    0.855992372212
              12 N      5.281183574816    0.549254203632   -0.335209188272
              13 O      7.595133407154    0.881770323881   -0.740075141387
------------------------ !GEOMETRY! -------------------------
    Number of atoms:    14 
    Geometry Index:     3 
    Coordinates:
               0 C      1.815881298225   -0.421913999869    0.361578350654
               1 C      2.919215398224    0.354900837667    0.030043824827
               2 C      1.967182130175   -1.773834497166    0.658585830898
               3 C      4.186199117778   -0.231150435897   -0.003821428184
               4 C      4.347751742772   -1.588558500307    0.293155804515
               5 C      3.234806267192   -2.351100781294    0.622796086911
               6 H      2.815203473462    1.409762666515   -0.203534666651
               7 C      6.451075156908    0.644302774809   -0.521266775971
               8 H      0.830695349359    0.034602782631    0.387584320976
               9 H      1.101375287814   -2.375899288239    0.917068669676
              10 H      5.339200505240   -2.030959242235    0.263030590941
              11 H      3.360735881312   -3.405156210917    0.853315790610
              12 N      5.274305812008    0.560362905133   -0.337017790063
              13 O      7.589972579532    0.845240989169   -0.730518609140
------------------------ !GEOMETRY! -------------------------
    Number of atoms:    14 
    Geometry Index:     4 
    Coordinates:
               0 C      1.813837265436   -0.424760929222    0.362599090347
               1 C      2.910170131000    0.360234147393    0.029946425404
               2 C      1.974458149171   -1.774529248303    0.657892210091
               3 C      4.180542391815   -0.216234810245   -0.006793532704
               4 C      4.351556099932   -1.572262521817    0.288580753240
               5 C      3.245109891625   -2.341992177662    0.619242026756
               6 H      2.796055492542    1.414494979626   -0.202027250608
               7 C      6.446283766574    0.623022816821   -0.515480955954
               8 H      0.825408413044    0.025295209748    0.390614797459
               9 H      1.113234694845   -2.383023546722    0.917343514321
              10 H      5.346373646141   -2.007393865798    0.255973944935
              11 H      3.378891093891   -3.395629116935    0.848714388326
              12 N      5.262810582468    0.584557611855   -0.341525232937
              13 O      7.588868381515    0.778821451263   -0.714080178674
------------------------ !GEOMETRY! -------------------------
    Number of atoms:    14 
    Geometry Index:     5 
    Coordinates:
               0 C      1.808348748647   -0.430473051607    0.364991115711
               1 C      2.889248657168    0.374120478314    0.029206303992
               2 C      1.991724027102   -1.776793517753    0.656524074091
               3 C      4.168526460197   -0.179236161338   -0.014690148578
               4 C      4.362302011515   -1.532913605491    0.277142247279
               5 C      3.271174939237   -2.321403685398    0.610769516681
               6 H      2.752017327210    1.426467737427   -0.199148109926
               7 C      6.429179005362    0.568823897472   -0.499930171244
               8 H      0.812769630014    0.003920544479    0.398012597895
               9 H      1.142081359661   -2.400508628213    0.918409948770
              10 H      5.364684145734   -1.950911827199    0.238772194482
              11 H      3.424211777103   -3.373349473656    0.837387781218
              12 N      5.236850719824    0.646998919871   -0.354200318084
              13 O      7.580481191227    0.615858373092   -0.672247032289
------------------------ !GEOMETRY! -------------------------
    Number of atoms:    14 
    Geometry Index:     6 
    Coordinates:
               0 C      1.805689993247   -0.431233128558    0.365625933376
               1 C      2.884855138427    0.377107617762    0.029250632774
               2 C      1.993828310829   -1.778179016565    0.656516027152
               3 C      4.166549066522   -0.171631813502   -0.016077888588
               4 C      4.364681844760   -1.525545195031    0.275272169413
               5 C      3.276189532308   -2.318857561552    0.609521375727
               6 H      2.744278258736    1.429020124974   -0.198672852344
               7 C      6.425999731939    0.558341400787   -0.497155679464
               8 H      0.809025977092    0.000016982969    0.399519191329
               9 H      1.146665312265   -2.404855859647    0.918613044274
              10 H      5.368062066190   -1.941294971695    0.236226754951
              11 H      3.433170142604   -3.370155261253    0.835230880083
              12 N      5.232502832163    0.663519081677   -0.357923993342
              13 O      7.582101792917    0.584347599634   -0.664945595340
------------------------ !GEOMETRY! -------------------------
    Number of atoms:    14 
    Geometry Index:     7 
    Coordinates:
               0 C      1.803728260781   -0.430507776730    0.365756956528
               1 C      2.885139263931    0.376633808447    0.029339933677
               2 C      1.991474738970   -1.779108504118    0.656970052368
               3 C      4.166998785738   -0.173330891417   -0.015740341708
               4 C      4.364414560593   -1.527709151117    0.275912362895
               5 C      3.274798395733   -2.321531915402    0.610308604527
               6 H      2.747659962888    1.428733500376   -0.199103925960
               7 C      6.427849914201    0.560644004149   -0.498024301562
               8 H      0.807687541916    0.001278298423    0.399567249772
               9 H      1.144065951706   -2.405146254635    0.918922634347
              10 H      5.366725416800   -1.945918552269    0.237870899988
              11 H      3.431183497682   -3.372542648614    0.835902415123
              12 N      5.233765095947    0.665755397461   -0.358712365268
              13 O      7.588108613114    0.593350685445   -0.667970174727
------------------------ !GEOMETRY! -------------------------
    Number of atoms:    14 
    Geometry Index:     8 
    Coordinates:
               0 C      1.803616103629   -0.430380922898    0.365749558059
               1 C      2.884918619720    0.376843558334    0.029292283396
               2 C      1.991946124871   -1.778983834163    0.656916017629
               3 C      4.166759157600   -0.173006328409   -0.015821281258
               4 C      4.364853579286   -1.527032198775    0.275623305410
               5 C      3.275379928228   -2.321181757903    0.610134923533
               6 H      2.747907656651    1.428984561357   -0.199248478899
               7 C      6.426882072879    0.558893913670   -0.497452208593
               8 H      0.807429915807    0.001006808639    0.399702765606
               9 H      1.144748679747   -2.405293899688    0.918952478072
              10 H      5.367014558545   -1.945588843422    0.237673655751
              11 H      3.432034365591   -3.372143391418    0.835685980689
              12 N      5.232990228956    0.667120362501   -0.358979250957
              13 O      7.587119008488    0.591361972175   -0.667229748437
------------------------ !GEOMETRY! -------------------------
    Number of atoms:    14 
    Geometry Index:     9 
    Coordinates:
               0 C      1.803654081821   -0.430074454936    0.365684036847
               1 C      2.885272021939    0.376561027581    0.029292363338
               2 C      1.991900665251   -1.778723556529    0.656887484426
               3 C      4.166831838016   -0.173975497452   -0.015628880814
               4 C      4.364931499351   -1.527631949602    0.275717272943
               5 C      3.275007343675   -2.321412660287    0.610236992350
               6 H      2.749796040941    1.428845033043   -0.199515249974
               7 C      6.426814623156    0.558661345064   -0.497401477382
               8 H      0.807459298870    0.001274643596    0.399657856611
               9 H      1.144528761112   -2.404841328202    0.918933604581
              10 H      5.366563661216   -1.947436935783    0.238118048874
              11 H      3.431233426512   -3.372418465973    0.835851319846
              12 N      5.232946527493    0.666442351469   -0.358842393269
              13 O      7.586660210649    0.595330448012   -0.667990978376
------------------------ !GEOMETRY! -------------------------
    Number of atoms:    14 
    Geometry Index:     10 
    Coordinates:
               0 C      1.803706727179   -0.430030543109    0.365670343097
               1 C      2.885381485520    0.376447171355    0.029302426447
               2 C      1.991801142346   -1.778683686702    0.656894248626
               3 C      4.166925227072   -0.174265081279   -0.015584807645
               4 C      4.364864775979   -1.527922613271    0.275791954872
               5 C      3.274763514836   -2.321516382329    0.610296998453
               6 H      2.750274664201    1.428766487707   -0.199558218501
               7 C      6.427049297193    0.558879944493   -0.497516773931
               8 H      0.807512415614    0.001335266270    0.399640390403
               9 H      1.144332903046   -2.404687987597    0.918928718721
              10 H      5.366352535063   -1.948065340337    0.238280393030
              11 H      3.430810759281   -3.372552022487    0.835948047113
              12 N      5.233077374983    0.666017919607   -0.358772627933
              13 O      7.586747177687    0.596876867679   -0.668321092752
